%!PS-Adobe-3.0 EPSF-3.0
%%Creator: EpsGraphics2D 0.9.0 by Paul Mutton, http://www.jibble.org/
%%Title: GeoGebra, http://www.geogebra.org
%%CreationDate: Thu Jul 14 22:43:09 CEST 2011
%%BoundingBox: 0 0 216 183
%%DocumentData: Clean7Bit
%%DocumentProcessColors: Black
%%ColorUsage: Color
%%Origin: 0 0
%%Pages: 1
%%Page: 1 1
%%EndComments

gsave
-0.0 183.0 translate
1.0 setlinewidth
10.0 setmiterlimit
0 setlinejoin
2 setlinecap
[ ] 0 setdash
gsave
newpath
0.0 -0.0 moveto
216.54158 -0.0 lineto
216.54158 -183.0453 lineto
0.0 -183.0453 lineto
0.0 -0.0 lineto
closepath
clip
newpath
1.0 1.0 1.0 setrgbcolor
newpath
0.0 -0.0 moveto
216.54158 -0.0 lineto
216.54158 -183.0453 lineto
0.0 -183.0453 lineto
0.0 -0.0 lineto
closepath
fill
newpath
0.0 0.0 0.0 setrgbcolor
1.0 setlinewidth
10.0 setmiterlimit
0 setlinejoin
0 setlinecap
[ ] 0 setdash
newpath
0.0 -159.97581 moveto
216.54158 -159.97581 lineto
stroke
newpath
newpath
216.20323 -159.97581 moveto
215.1882 -158.96077 lineto
stroke
newpath
newpath
216.20323 -159.97581 moveto
215.1882 -160.99084 lineto
stroke
newpath
newpath
29.370472 -0.0 moveto
29.370472 -183.0453 lineto
stroke
newpath
newpath
29.370472 -0.0 moveto
28.355434 -1.0150386 lineto
stroke
newpath
newpath
29.370472 -0.0 moveto
30.385511 -1.0150386 lineto
stroke
newpath
0.0 0.39215687 0.0 setrgbcolor
newpath
126.88228 -91.94431 moveto
132.40904 -96.52363 lineto
136.98836 -90.996864 lineto
131.4616 -86.41756 lineto
126.88228 -91.94431 lineto
fill
newpath
0.0 0.39215687 0.0 setrgbcolor
1.0 setlinewidth
10.0 setmiterlimit
1 setlinejoin
1 setlinecap
[ ] 0 setdash
newpath
126.88228 -91.94431 moveto
132.40904 -96.52363 lineto
136.98836 -90.996864 lineto
131.4616 -86.41756 lineto
126.88228 -91.94431 lineto
stroke
newpath
1.0 0.0 0.0 setrgbcolor
2.0 setlinewidth
10.0 setmiterlimit
1 setlinejoin
1 setlinecap
[ ] 0 setdash
newpath
49.996887 -184.73703 moveto
204.46643 1.6917311 lineto
stroke
newpath
0.0 0.0 0.0 setrgbcolor
1.0 setlinewidth
10.0 setmiterlimit
1 setlinejoin
1 setlinecap
[ ] 0 setdash
newpath
87.19724 -59.062424 moveto
166.56732 -124.8262 lineto
stroke
newpath
0.0 0.0 0.0 setrgbcolor
1.0 setlinewidth
10.0 setmiterlimit
1 setlinejoin
1 setlinecap
[ ] 0 setdash
newpath
87.19724 -59.062424 moveto
157.00279 -55.591972 lineto
stroke
newpath
0.0 0.0 0.0 setrgbcolor
1.0 setlinewidth
10.0 setmiterlimit
1 setlinejoin
1 setlinecap
[ ] 0 setdash
newpath
157.00279 -55.591972 moveto
166.56732 -124.8262 lineto
stroke
newpath
0.0 0.0 0.0 setrgbcolor
1.0 setlinewidth
10.0 setmiterlimit
1 setlinejoin
1 setlinecap
[ ] 0 setdash
newpath
29.370472 -159.97581 moveto
52.980083 -159.97581 lineto
stroke
newpath
newpath
57.71693 -159.97581 moveto
52.980083 -161.16002 lineto
52.980083 -158.7916 lineto
closepath
fill
newpath
0.0 0.0 0.0 setrgbcolor
newpath
42.34548 -164.09792 moveto
42.34548 -161.94493 lineto
42.736034 -161.94493 lineto
42.736034 -164.09792 lineto
closepath
42.34548 -161.55437 moveto
42.34548 -161.16382 lineto
42.736034 -161.16382 lineto
42.736034 -161.55437 lineto
closepath
fill
newpath
0.0 0.0 0.0 setrgbcolor
1.0 setlinewidth
10.0 setmiterlimit
1 setlinejoin
1 setlinecap
[ ] 0 setdash
newpath
29.370472 -159.97581 moveto
29.370472 -136.3662 lineto
stroke
newpath
newpath
29.370472 -131.62935 moveto
30.554684 -136.3662 lineto
28.18626 -136.3662 lineto
closepath
fill
newpath
0.0 0.0 0.0 setrgbcolor
newpath
31.49924 -146.55876 moveto
31.49924 -146.2495 lineto
31.681631 -146.32614 31.820406 -146.36447 31.915565 -146.36447 curveto
32.05302 -146.36447 32.144215 -146.32878 32.189148 -146.25742 curveto
32.234085 -146.18605 32.256554 -146.04266 32.256554 -145.82722 curveto
32.256554 -143.67422 lineto
32.64909 -143.67422 lineto
32.64909 -145.82722 lineto
32.64909 -146.381 32.415154 -146.65788 31.947285 -146.65788 curveto
31.80851 -146.65788 31.659163 -146.62485 31.49924 -146.55876 curveto
closepath
32.256554 -143.28368 moveto
32.256554 -142.89313 lineto
32.64909 -142.89313 lineto
32.64909 -143.28368 lineto
closepath
fill
newpath
0.0 0.0 1.0 setrgbcolor
newpath
88.21228 -59.062424 moveto
88.21228 -59.623016 87.757835 -60.077465 87.19724 -60.077465 curveto
86.63666 -60.077465 86.182205 -59.623016 86.182205 -59.062424 curveto
86.182205 -58.501835 86.63666 -58.047386 87.19724 -58.047386 curveto
87.757835 -58.047386 88.21228 -58.501835 88.21228 -59.062424 curveto
closepath
fill
newpath
0.0 0.0 0.0 setrgbcolor
1.0 setlinewidth
10.0 setmiterlimit
1 setlinejoin
1 setlinecap
[ ] 0 setdash
newpath
88.21228 -59.062424 moveto
88.21228 -59.623016 87.757835 -60.077465 87.19724 -60.077465 curveto
86.63666 -60.077465 86.182205 -59.623016 86.182205 -59.062424 curveto
86.182205 -58.501835 86.63666 -58.047386 87.19724 -58.047386 curveto
87.757835 -58.047386 88.21228 -58.501835 88.21228 -59.062424 curveto
closepath
stroke
newpath
0.0 0.0 1.0 setrgbcolor
newpath
167.58237 -124.8262 moveto
167.58237 -125.386795 167.12791 -125.84124 166.56732 -125.84124 curveto
166.00673 -125.84124 165.55229 -125.386795 165.55229 -124.8262 curveto
165.55229 -124.26562 166.00673 -123.811165 166.56732 -123.811165 curveto
167.12791 -123.811165 167.58237 -124.26562 167.58237 -124.8262 curveto
closepath
fill
newpath
0.0 0.0 0.0 setrgbcolor
1.0 setlinewidth
10.0 setmiterlimit
1 setlinejoin
1 setlinecap
[ ] 0 setdash
newpath
167.58237 -124.8262 moveto
167.58237 -125.386795 167.12791 -125.84124 166.56732 -125.84124 curveto
166.00673 -125.84124 165.55229 -125.386795 165.55229 -124.8262 curveto
165.55229 -124.26562 166.00673 -123.811165 166.56732 -123.811165 curveto
167.12791 -123.811165 167.58237 -124.26562 167.58237 -124.8262 curveto
closepath
stroke
newpath
0.49019608 0.49019608 1.0 setrgbcolor
newpath
158.01784 -55.591972 moveto
158.01784 -56.152565 157.56339 -56.607014 157.00279 -56.607014 curveto
156.4422 -56.607014 155.98776 -56.152565 155.98776 -55.591972 curveto
155.98776 -55.031384 156.4422 -54.576935 157.00279 -54.576935 curveto
157.56339 -54.576935 158.01784 -55.031384 158.01784 -55.591972 curveto
closepath
fill
newpath
0.0 0.0 0.0 setrgbcolor
1.0 setlinewidth
10.0 setmiterlimit
1 setlinejoin
1 setlinecap
[ ] 0 setdash
newpath
158.01784 -55.591972 moveto
158.01784 -56.152565 157.56339 -56.607014 157.00279 -56.607014 curveto
156.4422 -56.607014 155.98776 -56.152565 155.98776 -55.591972 curveto
155.98776 -55.031384 156.4422 -54.576935 157.00279 -54.576935 curveto
157.56339 -54.576935 158.01784 -55.031384 158.01784 -55.591972 curveto
closepath
stroke
newpath
0.0 0.0 0.0 setrgbcolor
newpath
78.33178 -49.968185 moveto
77.832184 -48.703354 lineto
77.33061 -49.968185 lineto
closepath
78.77189 -51.09028 moveto
78.452705 -50.277454 lineto
77.20968 -50.277454 lineto
76.886536 -51.09028 lineto
76.49995 -51.09028 lineto
77.66367 -48.15618 lineto
78.076035 -48.15618 lineto
79.22192 -51.09028 lineto
closepath
81.725815 -51.40748 moveto
81.725815 -51.677097 lineto
81.44033 -51.48281 81.214 -51.21881 81.04681 -50.88509 curveto
80.879616 -50.55137 80.79602 -50.19551 80.79602 -49.817516 curveto
80.79602 -49.44084 80.879616 -49.085644 81.04681 -48.751923 curveto
81.214 -48.4182 81.44033 -48.1542 81.725815 -47.959915 curveto
81.725815 -48.229534 lineto
81.53153 -48.441 81.39308 -48.668327 81.31048 -48.911514 curveto
81.227875 -49.1547 81.18657 -49.456703 81.18657 -49.817516 curveto
81.18657 -50.179653 81.227875 -50.482315 81.31048 -50.7255 curveto
81.39308 -50.968685 81.53153 -51.19601 81.725815 -51.40748 curveto
closepath
83.37327 -50.816696 moveto
83.13933 -51.032127 82.91399 -51.139843 82.697235 -51.139843 curveto
82.51881 -51.139843 82.37078 -51.084003 82.25316 -50.97232 curveto
82.13553 -50.860638 82.07671 -50.71955 82.07671 -50.549057 curveto
82.07671 -50.3138 82.17551 -50.133064 82.3731 -50.006844 curveto
82.57069 -49.880627 82.85385 -49.817516 83.222595 -49.817516 curveto
83.31577 -49.817516 lineto
83.31577 -49.557808 lineto
83.31577 -49.308014 83.18757 -49.183117 82.93117 -49.183117 curveto
82.72499 -49.183117 82.50229 -49.246555 82.26307 -49.373436 curveto
82.26307 -49.05029 lineto
82.52608 -48.943233 82.77257 -48.889706 83.00254 -48.889706 curveto
83.24309 -48.889706 83.42052 -48.943893 83.53484 -49.052273 curveto
83.64917 -49.16065 83.70633 -49.32916 83.70633 -49.557808 curveto
83.70633 -50.5332 lineto
83.70633 -50.75656 83.775055 -50.86824 83.912506 -50.86824 curveto
83.92969 -50.86824 83.954796 -50.865597 83.98784 -50.86031 curveto
84.015594 -51.0764 lineto
83.92704 -51.118694 83.82924 -51.139843 83.72218 -51.139843 curveto
83.539795 -51.139843 83.42349 -51.032127 83.37327 -50.816696 curveto
closepath
83.31577 -50.60457 moveto
83.31577 -50.047485 lineto
83.18493 -50.04352 lineto
82.97082 -50.04352 82.797676 -50.084164 82.66551 -50.165443 curveto
82.53335 -50.246727 82.46726 -50.35345 82.46726 -50.48562 curveto
82.46726 -50.579456 82.500305 -50.658756 82.56639 -50.72352 curveto
82.63247 -50.78828 82.7131 -50.82066 82.80826 -50.82066 curveto
82.97082 -50.82066 83.13999 -50.74863 83.31577 -50.60457 curveto
closepath
84.26143 -51.40748 moveto
84.26143 -51.677097 lineto
84.546906 -51.48281 84.77324 -51.21881 84.94043 -50.88509 curveto
85.10762 -50.55137 85.191216 -50.19551 85.191216 -49.817516 curveto
85.191216 -49.44084 85.10762 -49.085644 84.94043 -48.751923 curveto
84.77324 -48.4182 84.546906 -48.1542 84.26143 -47.959915 curveto
84.26143 -48.229534 lineto
84.45571 -48.441 84.594154 -48.668327 84.67676 -48.911514 curveto
84.75936 -49.1547 84.80067 -49.456703 84.80067 -49.817516 curveto
84.80067 -50.179653 84.75936 -50.482315 84.67676 -50.7255 curveto
84.594154 -50.968685 84.45571 -51.19601 84.26143 -51.40748 curveto
closepath
fill
newpath
0.0 0.0 0.0 setrgbcolor
newpath
171.9202 -128.23322 moveto
171.9202 -125.29912 lineto
172.68147 -125.29912 lineto
172.97488 -125.29912 173.19989 -125.35463 173.3565 -125.46565 curveto
173.51312 -125.57667 173.59143 -125.73659 173.59143 -125.94541 curveto
173.59143 -126.30094 173.39053 -126.55404 172.98875 -126.70471 curveto
173.46852 -126.85142 173.7084 -127.11641 173.7084 -127.499695 curveto
173.7084 -127.737595 173.6291 -127.91932 173.4705 -128.04488 curveto
173.3119 -128.17044 173.08325 -128.23322 172.78456 -128.23322 curveto
closepath
172.33255 -127.92197 moveto
172.4178 -127.92197 lineto
172.7231 -127.92197 172.92068 -127.9028 173.01056 -127.86447 curveto
173.18239 -127.79178 173.2683 -127.65697 173.2683 -127.460045 curveto
173.2683 -127.28558 173.1903 -127.14053 173.03435 -127.02489 curveto
172.87839 -126.90924 172.68346 -126.85142 172.44952 -126.85142 curveto
172.33255 -126.85142 lineto
closepath
172.33255 -126.587746 moveto
172.46538 -126.587746 lineto
172.68741 -126.587746 172.85956 -126.54017 172.98181 -126.44501 curveto
173.10406 -126.349846 173.16519 -126.21569 173.16519 -126.04256 curveto
173.16519 -125.75443 172.94183 -125.610374 172.49512 -125.610374 curveto
172.33255 -125.610374 lineto
closepath
176.3352 -128.55042 moveto
176.3352 -128.82004 lineto
176.04973 -128.62575 175.8234 -128.36176 175.6562 -128.02803 curveto
175.48901 -127.69431 175.40543 -127.338455 175.40543 -126.96046 curveto
175.40543 -126.58378 175.48901 -126.22858 175.6562 -125.89486 curveto
175.8234 -125.56114 176.04973 -125.297134 176.3352 -125.10285 curveto
176.3352 -125.372475 lineto
176.14093 -125.58394 176.00249 -125.811264 175.91988 -126.05445 curveto
175.83728 -126.29764 175.79597 -126.59964 175.79597 -126.96046 curveto
175.79597 -127.32259 175.83728 -127.62525 175.91988 -127.86844 curveto
176.00249 -128.11162 176.14093 -128.33894 176.3352 -128.55042 curveto
closepath
176.87247 -128.257 moveto
176.87247 -125.10285 lineto
177.26302 -125.10285 lineto
177.26302 -126.48466 lineto
177.42294 -126.18332 177.66283 -126.032646 177.98267 -126.032646 curveto
178.24171 -126.032646 178.44557 -126.127144 178.59427 -126.31614 curveto
178.74297 -126.50514 178.8173 -126.76353 178.8173 -127.0913 curveto
178.8173 -127.44815 178.73305 -127.73594 178.56453 -127.95467 curveto
178.39603 -128.1734 178.17432 -128.28278 177.8994 -128.28278 curveto
177.64432 -128.28278 177.43219 -128.18497 177.26302 -127.98937 curveto
177.21544 -128.257 lineto
closepath
177.26302 -127.71975 moveto
177.46391 -127.8995 177.65556 -127.98937 177.83795 -127.98937 curveto
178.2133 -127.98937 178.40097 -127.70323 178.40097 -127.13095 curveto
178.40097 -126.626076 178.23444 -126.373634 177.90138 -126.373634 curveto
177.68332 -126.373634 177.47052 -126.49192 177.26302 -126.7285 curveto
closepath
179.18407 -128.55042 moveto
179.18407 -128.82004 lineto
179.46954 -128.62575 179.69588 -128.36176 179.86307 -128.02803 curveto
180.03026 -127.69431 180.11385 -127.338455 180.11385 -126.96046 curveto
180.11385 -126.58378 180.03026 -126.22858 179.86307 -125.89486 curveto
179.69588 -125.56114 179.46954 -125.297134 179.18407 -125.10285 curveto
179.18407 -125.372475 lineto
179.37836 -125.58394 179.5168 -125.811264 179.5994 -126.05445 curveto
179.68199 -126.29764 179.7233 -126.59964 179.7233 -126.96046 curveto
179.7233 -127.32259 179.68199 -127.62525 179.5994 -127.86844 curveto
179.5168 -128.11162 179.37836 -128.33894 179.18407 -128.55042 curveto
closepath
fill
newpath
0.0 0.0 0.0 setrgbcolor
newpath
165.15326 -56.842163 moveto
165.15326 -53.90807 lineto
165.73018 -53.90807 lineto
166.543 -56.17803 lineto
167.37961 -53.90807 lineto
167.89507 -53.90807 lineto
167.89507 -56.842163 lineto
167.50648 -56.842163 lineto
167.50648 -54.45524 lineto
166.69763 -56.645897 lineto
166.29518 -56.645897 lineto
165.51012 -54.44929 lineto
165.51012 -56.842163 lineto
closepath
170.73003 -57.159363 moveto
170.73003 -57.428986 lineto
170.44455 -57.2347 170.21822 -56.9707 170.05103 -56.63698 curveto
169.88383 -56.303257 169.80025 -55.947395 169.80025 -55.5694 curveto
169.80025 -55.192726 169.88383 -54.837532 170.05103 -54.50381 curveto
170.21822 -54.17009 170.44455 -53.906086 170.73003 -53.711803 curveto
170.73003 -53.981422 lineto
170.53574 -54.19289 170.3973 -54.420216 170.3147 -54.6634 curveto
170.2321 -54.906586 170.1908 -55.208588 170.1908 -55.5694 curveto
170.1908 -55.931538 170.2321 -56.2342 170.3147 -56.477386 curveto
170.3973 -56.72057 170.53574 -56.947895 170.73003 -57.159363 curveto
closepath
171.12059 -56.842163 moveto
171.12059 -56.548756 lineto
172.45282 -54.982582 lineto
171.18204 -54.982582 lineto
171.18204 -54.689175 lineto
172.93457 -54.689175 lineto
172.93457 -54.982582 lineto
171.60233 -56.548756 lineto
172.96034 -56.548756 lineto
172.96034 -56.842163 lineto
closepath
173.35089 -57.159363 moveto
173.35089 -57.428986 lineto
173.63637 -57.2347 173.8627 -56.9707 174.02989 -56.63698 curveto
174.19708 -56.303257 174.28069 -55.947395 174.28069 -55.5694 curveto
174.28069 -55.192726 174.19708 -54.837532 174.02989 -54.50381 curveto
173.8627 -54.17009 173.63637 -53.906086 173.35089 -53.711803 curveto
173.35089 -53.981422 lineto
173.54518 -54.19289 173.68362 -54.420216 173.76622 -54.6634 curveto
173.84883 -54.906586 173.89014 -55.208588 173.89014 -55.5694 curveto
173.89014 -55.931538 173.84883 -56.2342 173.76622 -56.477386 curveto
173.68362 -56.72057 173.54518 -56.947895 173.35089 -57.159363 curveto
closepath
fill
newpath
1.0 0.0 0.0 setrgbcolor
newpath
76.563385 -141.76706 moveto
76.563385 -141.4003 lineto
77.6835 -138.83298 lineto
78.095856 -138.83298 lineto
79.212006 -141.4003 lineto
79.212006 -141.76706 lineto
closepath
76.92222 -141.4003 moveto
78.76198 -141.4003 lineto
77.84408 -139.29092 lineto
closepath
fill
newpath
grestore
grestore
showpage

%%EOF