%!PS
%%BoundingBox: 11 -7 128 92 
%%HiResBoundingBox: 11.14355 -6.4039 127.80905 91.44327 
%%Creator: MetaPost 2.000
%%CreationDate: 2018.02.21:1434
%%Pages: 1
%*Font: cmmi5 4.98132 4.98132 49:880c
%*Font: cmsy9 8.96637 8.96637 43:8
%%BeginProlog
%%EndProlog
%%Page: 1 1
 0 0 1 setrgbcolor 0 0.5 dtransform truncate idtransform setlinewidth pop
 [] 0 setdash 1 setlinecap 1 setlinejoin 10 setmiterlimit
newpath 11.39355 27.11201 moveto
12.33107 28.48033 13.30168 29.82529 14.30537 31.14624 curveto
15.37718 32.55673 16.48534 33.93867 17.62657 35.29337 curveto
18.83788 36.7311 20.08551 38.13705 21.3669 39.5125 curveto
22.719 40.96387 24.10806 42.38019 25.53088 43.76213 curveto
27.02441 45.21284 28.55559 46.62529 30.11984 47.99944 curveto
31.75417 49.43523 33.42482 50.8295 35.12921 52.1816 curveto
36.90239 53.58884 38.71188 54.95067 40.55318 56.26773 curveto
42.46194 57.63281 44.40509 58.94856 46.3794 60.21632 curveto
48.41791 61.5256 50.48953 62.78232 52.59164 63.9878 curveto
54.75473 65.22829 56.94832 66.41365 59.17046 67.54451 curveto
61.44969 68.70456 63.75812 69.80687 66.0925 70.85144 curveto
68.48007 71.92 70.8936 72.9276 73.33179 73.87549 curveto
75.81734 74.8422 78.32755 75.74533 80.8585 76.58617 curveto
83.43164 77.44128 86.02618 78.23087 88.6389 78.95622 curveto
91.2886 79.69197 93.95581 80.36023 96.6386 80.96231 curveto
99.35123 81.57089 102.07942 82.11198 104.8193 82.58432 curveto
107.58318 83.06053 110.35875 83.46797 113.14275 83.80536 curveto stroke
newpath 12.75604 0 moveto
127.55905 0 lineto stroke
newpath 12.75604 85.03937 moveto
127.55905 85.03937 lineto stroke
newpath 127.55905 42.51968 moveto
127.55905 53.7971 123.07845 64.61128 115.1047 72.58502 curveto
107.13097 80.55876 96.31679 85.03937 85.03937 85.03937 curveto
73.76195 85.03937 62.94777 80.55876 54.97403 72.58502 curveto
47.00029 64.61128 42.51968 53.7971 42.51968 42.51968 curveto
42.51968 31.24226 47.00029 20.42809 54.97403 12.45435 curveto
62.94777 4.4806 73.76195 0 85.03937 0 curveto
96.31679 0 107.13097 4.4806 115.1047 12.45435 curveto
123.07845 20.42809 127.55905 31.24226 127.55905 42.51968 curveto closepath stroke
 0 0 0 setrgbcolor
newpath 46.37614 60.21437 moveto
85.03937 0 lineto stroke
 0.5 0 dtransform exch truncate exch idtransform pop setlinewidth
newpath 85.03937 0 moveto
85.03937 85.03937 lineto stroke
 0 0.5 dtransform truncate idtransform setlinewidth pop
newpath 85.03937 85.03937 moveto
46.37614 60.21437 lineto stroke
36.43684 58.51242 moveto
(M) cmmi5 4.98132 fshow
 0 3 dtransform truncate idtransform setlinewidth pop
newpath 46.37614 60.21437 moveto 0 0 rlineto stroke
82.41692 -6.4039 moveto
(U) cmmi5 4.98132 fshow
newpath 85.03937 0 moveto 0 0 rlineto stroke
82.28577 88.03937 moveto
(V) cmmi5 4.98132 fshow
newpath 85.03937 85.03937 moveto 0 0 rlineto stroke
88.03937 40.81773 moveto
(I) cmmi5 4.98132 fshow
newpath 85.03937 42.51968 moveto 0 0 rlineto stroke
14.32336 41.89648 moveto
(C) cmsy9 8.96637 fshow
showpage
%%EOF
