%!PS
%%BoundingBox: -65 -150 192 150 
%%HiResBoundingBox: -64.02953 -149.0689 191.58858 149.0689 
%%Creator: MetaPost 2.000
%%CreationDate: 2018.02.20:1432
%%Pages: 1
%*Font: cmmi5 4.98132 4.98132 19:80000000000008
%*Font: cmr5 4.98132 4.98132 28:c0b
%*Font: cmex7 4.98137 6.97385 10:c
%*Font: cmr10 9.96265 9.96265 31:8
%%BeginProlog
%%EndProlog
%%Page: 1 1
 1 0 0 setrgbcolor 0 2 dtransform truncate idtransform setlinewidth pop
 [] 0 setdash 1 setlinecap 1 setlinejoin 10 setmiterlimit
newpath 170.07874 0 moveto
170.07874 0.99007 170.06577 1.97949 170.03981 2.9689 curveto
170.01385 3.95767 169.97493 4.9458 169.92302 5.93327 curveto
169.87112 6.92139 169.80624 7.90886 169.72838 8.89568 curveto
169.65053 9.88185 169.55905 10.86673 169.45654 11.85097 curveto
169.35403 12.8339 169.23984 13.81552 169.11073 14.79585 curveto
168.98161 15.77554 168.83823 16.75264 168.68382 17.72842 curveto
168.5294 18.70486 168.36395 19.67873 168.1836 20.65062 curveto
168.00323 21.62122 167.8086 22.58923 167.60292 23.5553 curveto
167.39725 24.52005 167.18056 25.48288 166.95023 26.44244 curveto
166.71991 27.40137 166.47595 28.3564 166.22098 29.30884 curveto
165.966 30.26064 165.69934 31.20982 165.42036 32.15512 curveto
165.14137 33.09978 164.85007 34.03989 164.54514 34.9761 curveto
164.24084 35.91103 163.92293 36.8414 163.59464 37.76788 curveto
163.26634 38.69437 162.92638 39.6176 162.57472 40.53566 curveto
162.22372 41.45177 161.8604 42.36333 161.48474 43.2697 curveto
161.10974 44.17542 160.72176 45.07596 160.32275 45.9713 curveto
159.92374 46.86598 159.51369 47.7555 159.09198 48.6398 curveto
158.6709 49.52281 158.23816 50.39935 157.79437 51.27133 curveto
157.3519 52.14072 156.89839 53.00493 156.43385 53.86264 curveto
155.96866 54.721 155.49243 55.57222 155.00389 56.4176 curveto
154.51665 57.26039 154.01772 58.0967 153.5084 58.92651 curveto
153.0004 59.75502 152.48267 60.5777 151.95325 61.3926 curveto
151.42447 62.20683 150.88467 63.01395 150.33449 63.81392 curveto
149.7856 64.61194 149.22699 65.40347 148.65799 66.18723 curveto
148.09029 66.96967 147.51286 67.74498 146.92375 68.51187 curveto
146.33594 69.27745 145.7371 70.03459 145.12918 70.7846 curveto
144.52255 71.53267 143.90814 72.27425 143.2827 73.00674 curveto
142.6592 73.73729 142.02531 74.45941 141.38235 75.17308 curveto
140.74005 75.88547 140.08865 76.58942 139.42883 77.28557 curveto
138.7703 77.97978 138.10333 78.66621 137.42664 79.34291 curveto
136.75124 80.01831 136.0661 80.68398 135.37318 81.34186 curveto
134.68286 81.99715 133.98476 82.64465 133.27756 83.28113 curveto
132.57167 83.91629 131.85669 84.54173 131.13393 85.1581 curveto
130.41312 85.77316 129.68582 86.37979 128.94943 86.97668 curveto
128.21498 87.57162 127.47276 88.15685 126.72275 88.73233 curveto
125.97533 89.30586 125.22078 89.86967 124.45844 90.42375 curveto
123.6974 90.97653 122.92923 91.51892 122.15392 92.05159 curveto
121.38184 92.58165 120.60327 93.10199 119.81758 93.61195 curveto
119.03448 94.1206 118.24489 94.61954 117.44817 95.10742 curveto
116.6534 95.59402 115.85277 96.07025 115.04567 96.53609 curveto
114.24245 96.99997 113.4334 97.45284 112.61852 97.89597 curveto
111.80492 98.3378 110.98613 98.76926 110.16151 99.18903 curveto
109.33948 99.6075 108.51227 100.01494 107.67986 100.412 curveto
106.8507 100.80777 106.01633 101.19316 105.17679 101.56686 curveto
104.33984 101.93993 103.49835 102.30132 102.65166 102.65166 curveto
101.80823 103.00072 100.96089 103.33939 100.10837 103.66638 curveto
99.2591 103.99208 98.40593 104.3061 97.54886 104.60974 curveto
96.69504 104.91208 95.83798 105.20338 94.97702 105.48367 curveto
94.11865 105.76265 93.25705 106.02995 92.39156 106.28624 curveto
91.5306 106.54121 90.6664 106.78452 89.79895 107.01678 curveto
88.93411 107.2484 88.06667 107.46965 87.19597 107.67856 curveto
86.32918 107.88683 85.46043 108.08276 84.58846 108.26831 curveto
83.72101 108.45258 82.85097 108.62581 81.97899 108.78801 curveto
81.10959 108.94955 80.23825 109.09943 79.36497 109.23763 curveto
78.49623 109.37517 77.62619 109.50104 76.75421 109.61588 curveto
75.88547 109.73006 75.01543 109.83386 74.14409 109.9247 curveto
73.2773 110.01553 72.4092 110.09404 71.53981 110.16281 curveto
70.67561 110.23093 69.81076 110.28932 68.94461 110.33473 curveto
68.08301 110.38016 67.22075 110.4126 66.35785 110.4353 curveto
65.49884 110.45737 64.63919 110.4697 63.77953 110.4697 curveto
62.92441 110.4697 62.06929 110.45801 61.21417 110.4353 curveto
60.36424 110.4126 59.51497 110.3795 58.6657 110.33539 curveto
57.82161 110.29128 56.97752 110.23611 56.13474 110.16994 curveto
55.29584 110.10376 54.45758 110.02591 53.62064 109.93832 curveto
52.78888 109.85074 51.95776 109.75342 51.1286 109.64441 curveto
50.30333 109.53607 49.47935 109.41605 48.65732 109.28563 curveto
47.83983 109.15587 47.02429 109.01573 46.2107 108.8652 curveto
45.40164 108.71533 44.59454 108.55508 43.78938 108.3838 curveto
42.98941 108.21382 42.19205 108.0328 41.3966 107.84206 curveto
40.60637 107.6526 39.81874 107.45343 39.03369 107.24321 curveto
38.25253 107.0343 37.47397 106.81436 36.69865 106.58403 curveto
35.92918 106.35565 35.16295 106.1169 34.39996 105.86905 curveto
33.64087 105.62251 32.88503 105.36624 32.13242 105.09958 curveto
31.385 104.83487 30.64082 104.56042 29.90054 104.27626 curveto
29.16545 103.99403 28.43361 103.70271 27.70631 103.40167 curveto
26.98355 103.10258 26.26532 102.79375 25.551 102.47519 curveto
24.84056 102.15857 24.13402 101.83287 23.43202 101.4981 curveto
22.73586 101.16656 22.04424 100.82594 21.35716 100.47624 curveto
20.67398 100.12848 19.99599 99.77164 19.32253 99.40572 curveto
18.65361 99.04239 17.9899 98.66998 17.33072 98.28914 curveto
16.67673 97.91154 16.02792 97.52615 15.38432 97.13168 curveto
14.74525 96.7398 14.11137 96.3395 13.4827 95.9314 curveto
12.85919 95.52655 12.24023 95.11392 11.62712 94.69284 curveto
11.01855 94.27437 10.41516 93.84746 9.81763 93.41342 curveto
9.22527 92.98326 8.63876 92.54597 8.05807 92.10025 curveto
7.4813 91.65776 6.91101 91.2075 6.34656 90.75009 curveto
5.78664 90.29659 5.23192 89.83594 4.68369 89.36751 curveto
4.13998 88.90297 3.60278 88.43129 3.07141 87.95313 curveto
2.54524 87.47885 2.02425 86.99873 1.5104 86.51085 curveto
1.00044 86.02684 0.49698 85.53635 0 85.03937 curveto
-0.49243 84.54628 -0.97903 84.04735 -1.4585 83.54195 curveto
-1.93343 83.04106 -2.40186 82.535 -2.8638 82.0218 curveto
-3.32185 81.51315 -3.7734 80.99864 -4.21783 80.47766 curveto
-4.65837 79.96187 -5.09177 79.44023 -5.51868 78.9134 curveto
-5.94106 78.39177 -6.35693 77.86494 -6.76567 77.33229 curveto
-7.17053 76.80481 -7.5689 76.2715 -7.95946 75.73364 curveto
-8.3468 75.20033 -8.72699 74.66248 -9.10071 74.11943 curveto
-9.47052 73.58157 -9.83255 73.03918 -10.1881 72.4916 curveto
-10.53973 71.94984 -10.88425 71.40356 -11.22162 70.85274 curveto
-11.55576 70.30774 -11.88275 69.75821 -12.2026 69.20479 curveto
-12.51923 68.65654 -12.8287 68.10442 -13.13039 67.5484 curveto
-13.42883 66.99821 -13.7208 66.44414 -14.00497 65.88617 curveto
-14.2859 65.3347 -14.5597 64.77933 -14.82635 64.2207 curveto
-15.09041 63.66728 -15.3467 63.11061 -15.59583 62.5507 curveto
-15.84238 61.99727 -16.08177 61.44125 -16.3134 60.88199 curveto
-16.54242 60.32857 -16.76431 59.77254 -16.97906 59.21327 curveto
-17.19122 58.6605 -17.39624 58.10513 -17.59413 57.54651 curveto
-17.78941 56.99504 -17.97691 56.44096 -18.15793 55.8843 curveto
-18.33635 55.33476 -18.50829 54.78394 -18.67244 54.22986 curveto
-18.83463 53.68163 -18.9897 53.13144 -19.13762 52.57932 curveto
-19.2836 52.03432 -19.42244 51.48804 -19.55415 50.93979 curveto
-19.68391 50.39806 -19.80717 49.85501 -19.92267 49.31067 curveto
-20.03685 48.77281 -20.1439 48.233 -20.24448 47.69255 curveto
-20.3431 47.15924 -20.43521 46.62463 -20.52022 46.08873 curveto
-20.60391 45.55995 -20.68047 45.03053 -20.75053 44.49982 curveto
-20.8193 43.97624 -20.88159 43.45201 -20.93674 42.92648 curveto
-20.99124 42.40874 -21.03925 41.89035 -21.08012 41.3713 curveto
-21.12035 40.86006 -21.15408 40.34816 -21.1807 39.8356 curveto
-21.20729 39.33018 -21.2274 38.82477 -21.24037 38.31871 curveto
-21.25336 37.82043 -21.25984 37.3215 -21.25984 36.82323 curveto
-21.25984 36.33209 -21.25336 35.84094 -21.24037 35.34981 curveto
-21.22806 34.86646 -21.20923 34.38374 -21.18393 33.90105 curveto
-21.15927 33.42612 -21.12814 32.9512 -21.0905 32.47693 curveto
-21.05353 32.0098 -21.01135 31.5433 -20.96204 31.07747 curveto
-20.91403 30.61942 -20.85953 30.16136 -20.7992 29.7046 curveto
-20.74016 29.25565 -20.67528 28.80731 -20.60455 28.35965 curveto
-20.53514 27.91911 -20.45923 27.48053 -20.37813 27.04193 curveto
-20.29832 26.61179 -20.21333 26.18292 -20.1225 25.75537 curveto
-20.03296 25.33495 -19.93823 24.91518 -19.83768 24.49734 curveto
-19.73906 24.08665 -19.63525 23.67792 -19.52625 23.26982 curveto
-19.4192 22.87016 -19.3063 22.4718 -19.18887 22.07474 curveto
-19.0734 21.6848 -18.95337 21.29683 -18.8275 20.91014 curveto
-18.70422 20.53123 -18.57642 20.15364 -18.4434 19.77798 curveto
-18.313 19.41011 -18.17805 19.04355 -18.0379 18.67892 curveto
-17.90036 18.32143 -17.75893 17.9659 -17.61229 17.61229 curveto
-17.4689 17.26584 -17.32098 16.92197 -17.16852 16.5794 curveto
-17.01929 16.24463 -16.86552 15.91115 -16.70787 15.58026 curveto
-16.55345 15.2565 -16.39514 14.93471 -16.2323 14.6155 curveto
-16.07335 14.30276 -15.90985 13.99265 -15.74246 13.68446 curveto
-15.57896 13.38408 -15.41222 13.08563 -15.24094 12.78912 curveto
-15.07355 12.49911 -14.90227 12.21169 -14.72774 11.92622 curveto
-14.55775 11.64853 -14.38387 11.37215 -14.2061 11.099 curveto
-14.03287 10.83235 -13.8564 10.56764 -13.67603 10.30553 curveto
-13.50021 10.0499 -13.32114 9.79686 -13.13882 9.54578 curveto
-12.9617 9.30183 -12.78134 9.06047 -12.59773 8.82108 curveto
-12.41931 8.58815 -12.23764 8.35783 -12.05273 8.12946 curveto
-11.87302 7.9082 -11.6907 7.68892 -11.5058 7.47221 curveto
-11.32608 7.26135 -11.14313 7.05309 -10.9582 6.84743 curveto
-10.7785 6.64824 -10.59683 6.451 -10.41193 6.25636 curveto
-10.23221 6.06757 -10.05054 5.8807 -9.86629 5.69646 curveto
-9.6885 5.51804 -9.50815 5.34221 -9.32518 5.16898 curveto
-9.14871 5.00159 -8.96965 4.83615 -8.78864 4.6733 curveto
-8.6141 4.5163 -8.43698 4.36058 -8.25856 4.20811 curveto
-8.08598 4.06084 -7.91211 3.9155 -7.73563 3.77277 curveto
-7.56564 3.63522 -7.3937 3.50027 -7.22049 3.36726 curveto
-7.05374 3.23946 -6.8857 3.11359 -6.71637 2.99031 curveto
-6.55351 2.87158 -6.38937 2.75545 -6.22328 2.64127 curveto
-6.06367 2.53162 -5.90343 2.42456 -5.74123 2.31946 curveto
-5.5868 2.21889 -5.43045 2.12027 -5.27344 2.02425 curveto
-4.81863 1.75371 lineto
-4.38004 1.50845 lineto
-3.95897 1.28658 lineto
-3.55412 1.08673 lineto
-3.1668 0.90833 lineto
-2.79892 0.75002 lineto
-2.45116 0.61118 lineto
-2.12416 0.4905 lineto
-1.81729 0.38603 lineto
-1.53377 0.2978 lineto
-1.27295 0.22449 lineto
-1.03418 0.1635 lineto
-0.82008 0.1155 lineto
-0.6287 0.07721 lineto
-0.46324 0.04866 lineto
-0.32181 0.0279 lineto
-0.20697 0.01427 lineto
-0.11679 0.00584 lineto
-0.09473 0.00325 -0.07332 -0.0013 -0.05191 0.00195 curveto
-0.03828 0.00389 -0.024 0.00844 -0.01297 0 curveto
-0.00714 -0.00455 0 -0.00455 0 0 curveto
0 0.00455 -0.00714 0.00455 -0.01297 0 curveto
-0.024 -0.00844 -0.03828 -0.00389 -0.05191 -0.00195 curveto
-0.07332 0.0013 -0.09537 -0.00325 -0.11679 -0.00584 curveto
-0.20697 -0.01427 lineto
-0.32181 -0.0279 lineto
-0.46324 -0.04866 lineto
-0.6287 -0.07721 lineto
-0.82008 -0.1155 lineto
-1.03418 -0.1635 lineto
-1.27295 -0.22449 lineto
-1.53377 -0.2978 lineto
-1.81729 -0.38603 lineto
-2.12416 -0.4905 lineto
-2.45116 -0.61118 lineto
-2.79892 -0.75002 lineto
-3.1668 -0.90833 lineto
-3.55412 -1.08673 lineto
-3.68971 -1.15161 -3.82468 -1.21779 -3.95897 -1.28658 curveto
-4.38004 -1.50845 lineto
-4.81863 -1.75371 lineto
-5.27344 -2.02425 lineto
-5.43045 -2.12027 -5.5868 -2.21889 -5.74123 -2.31946 curveto
-5.90343 -2.42456 -6.06432 -2.53162 -6.22328 -2.64127 curveto
-6.38937 -2.75545 -6.55351 -2.87158 -6.71637 -2.99031 curveto
-6.8857 -3.11359 -7.05374 -3.23946 -7.22049 -3.36726 curveto
-7.3937 -3.50027 -7.56564 -3.63522 -7.73563 -3.77277 curveto
-7.91211 -3.9155 -8.08598 -4.06084 -8.25856 -4.20811 curveto
-8.43698 -4.36122 -8.6141 -4.5163 -8.78864 -4.6733 curveto
-8.96965 -4.83615 -9.14871 -5.00159 -9.32518 -5.16898 curveto
-9.50815 -5.34221 -9.68787 -5.51804 -9.86629 -5.69646 curveto
-10.05054 -5.8807 -10.23221 -6.06757 -10.41193 -6.25636 curveto
-10.59683 -6.451 -10.7785 -6.64824 -10.9582 -6.84743 curveto
-11.14313 -7.05309 -11.32608 -7.26135 -11.5058 -7.47221 curveto
-11.6907 -7.68892 -11.87302 -7.9082 -12.05273 -8.12946 curveto
-12.23764 -8.35783 -12.41931 -8.58815 -12.59773 -8.82108 curveto
-12.78134 -9.06047 -12.9617 -9.30183 -13.13882 -9.54578 curveto
-13.32114 -9.79686 -13.50021 -10.0499 -13.67603 -10.30553 curveto
-13.8564 -10.56764 -14.03287 -10.83235 -14.2061 -11.099 curveto
-14.38387 -11.37215 -14.5571 -11.64853 -14.72774 -11.92622 curveto
-14.90227 -12.21169 -15.07355 -12.49911 -15.24094 -12.78912 curveto
-15.41222 -13.08563 -15.57896 -13.38408 -15.74246 -13.68446 curveto
-15.90985 -13.99265 -16.07335 -14.30276 -16.2323 -14.6155 curveto
-16.39514 -14.93471 -16.55345 -15.2565 -16.70787 -15.58026 curveto
-16.86552 -15.91115 -17.01929 -16.24463 -17.16852 -16.5794 curveto
-17.32098 -16.92197 -17.4689 -17.26584 -17.61229 -17.61229 curveto
-17.75893 -17.9659 -17.90036 -18.32143 -18.0379 -18.67892 curveto
-18.17805 -19.04355 -18.313 -19.41011 -18.4434 -19.77798 curveto
-18.57642 -20.15364 -18.70422 -20.53123 -18.8275 -20.91014 curveto
-18.95337 -21.29683 -19.0734 -21.6848 -19.18887 -22.07474 curveto
-19.3063 -22.4718 -19.4192 -22.87016 -19.52625 -23.26982 curveto
-19.63525 -23.67792 -19.73906 -24.08665 -19.83768 -24.49734 curveto
-19.93823 -24.91518 -20.03296 -25.33495 -20.1225 -25.75537 curveto
-20.21333 -26.18292 -20.29832 -26.61179 -20.37813 -27.04193 curveto
-20.45923 -27.47987 -20.53514 -27.91911 -20.60455 -28.35965 curveto
-20.67528 -28.80731 -20.74016 -29.25565 -20.7992 -29.7046 curveto
-20.85953 -30.16136 -20.91403 -30.61942 -20.96204 -31.07747 curveto
-21.01135 -31.5433 -21.05353 -32.0098 -21.0905 -32.47693 curveto
-21.12814 -32.9512 -21.15927 -33.42612 -21.18393 -33.90105 curveto
-21.20923 -34.38374 -21.22806 -34.86646 -21.24037 -35.34981 curveto
-21.25336 -35.84094 -21.25984 -36.33209 -21.25984 -36.82323 curveto
-21.25984 -37.3215 -21.25336 -37.82043 -21.24037 -38.31871 curveto
-21.2274 -38.82477 -21.20729 -39.33018 -21.1807 -39.8356 curveto
-21.15408 -40.34816 -21.12035 -40.86006 -21.08012 -41.3713 curveto
-21.03925 -41.89035 -20.99124 -42.40874 -20.93674 -42.92648 curveto
-20.88159 -43.45201 -20.8193 -43.97624 -20.75053 -44.49982 curveto
-20.68047 -45.03053 -20.60391 -45.55995 -20.52022 -46.08873 curveto
-20.43521 -46.62463 -20.3431 -47.15924 -20.24448 -47.69255 curveto
-20.1439 -48.233 -20.03685 -48.77281 -19.92267 -49.31067 curveto
-19.80717 -49.85501 -19.68391 -50.39806 -19.55415 -50.93979 curveto
-19.42244 -51.48804 -19.2836 -52.03432 -19.13762 -52.57932 curveto
-18.9897 -53.13144 -18.83463 -53.68163 -18.67244 -54.22986 curveto
-18.50829 -54.78328 -18.33635 -55.33476 -18.15793 -55.8843 curveto
-17.97691 -56.44096 -17.78941 -56.99504 -17.59413 -57.54651 curveto
-17.39624 -58.10513 -17.19122 -58.6605 -16.97906 -59.21327 curveto
-16.76431 -59.77254 -16.54242 -60.32857 -16.3134 -60.88199 curveto
-16.08177 -61.44125 -15.84238 -61.99727 -15.59583 -62.5507 curveto
-15.3467 -63.11061 -15.09041 -63.66728 -14.82635 -64.2207 curveto
-14.5597 -64.77933 -14.2859 -65.3347 -14.00497 -65.88617 curveto
-13.7208 -66.44414 -13.42949 -66.99821 -13.13039 -67.5484 curveto
-12.8287 -68.10442 -12.51923 -68.65654 -12.2026 -69.20479 curveto
-11.88275 -69.75821 -11.55576 -70.30774 -11.22162 -70.85274 curveto
-10.88425 -71.40356 -10.53973 -71.94984 -10.1881 -72.4916 curveto
-9.83255 -73.03918 -9.47052 -73.58157 -9.10071 -74.11943 curveto
-8.72765 -74.66248 -8.3468 -75.20033 -7.95946 -75.73364 curveto
-7.56824 -76.2715 -7.17053 -76.80481 -6.76567 -77.33229 curveto
-6.35693 -77.86494 -5.94106 -78.39177 -5.51868 -78.9134 curveto
-5.09177 -79.44023 -4.65837 -79.96187 -4.21783 -80.47766 curveto
-3.7734 -80.99864 -3.32185 -81.51315 -2.8638 -82.0218 curveto
-2.40186 -82.53436 -1.93343 -83.04106 -1.4585 -83.54195 curveto
-0.97903 -84.04735 -0.49243 -84.54628 0 -85.03937 curveto
0.49698 -85.53635 1.00044 -86.02684 1.5104 -86.51085 curveto
2.02425 -86.99873 2.54459 -87.47885 3.07141 -87.95313 curveto
3.60278 -88.43129 4.13998 -88.90297 4.68369 -89.36751 curveto
5.23192 -89.83594 5.78664 -90.29659 6.34656 -90.75009 curveto
6.91101 -91.2075 7.4813 -91.65776 8.05807 -92.10025 curveto
8.63876 -92.54597 9.22527 -92.98326 9.81763 -93.41342 curveto
10.41516 -93.84746 11.01855 -94.27437 11.62712 -94.69284 curveto
12.24023 -95.11392 12.85919 -95.52655 13.4827 -95.9314 curveto
14.11137 -96.3395 14.74525 -96.7398 15.38432 -97.13168 curveto
16.02792 -97.52615 16.67673 -97.91154 17.33072 -98.28914 curveto
17.9899 -98.66998 18.65361 -99.04239 19.32253 -99.40572 curveto
19.99599 -99.77164 20.67398 -100.12848 21.35716 -100.47624 curveto
22.04424 -100.82594 22.73586 -101.16656 23.43202 -101.4981 curveto
24.13402 -101.83287 24.84056 -102.15857 25.551 -102.47519 curveto
26.26532 -102.79375 26.98355 -103.10258 27.70631 -103.40167 curveto
28.43361 -103.70271 29.16545 -103.99403 29.90054 -104.27626 curveto
30.64082 -104.56042 31.385 -104.83487 32.13242 -105.09958 curveto
32.88503 -105.36624 33.64087 -105.62251 34.39996 -105.86905 curveto
35.16295 -106.1169 35.92918 -106.35565 36.69865 -106.58403 curveto
37.47397 -106.81436 38.25253 -107.0343 39.03369 -107.24321 curveto
39.81874 -107.45343 40.60637 -107.6526 41.3966 -107.84206 curveto
42.19205 -108.0328 42.98941 -108.21382 43.78938 -108.3838 curveto
44.59454 -108.55508 45.40164 -108.71533 46.2107 -108.8652 curveto
47.02429 -109.01573 47.83983 -109.15587 48.65732 -109.28563 curveto
49.47935 -109.41605 50.30333 -109.53607 51.1286 -109.64441 curveto
51.95776 -109.75342 52.78888 -109.85074 53.62064 -109.93832 curveto
54.45758 -110.02591 55.29584 -110.10376 56.13474 -110.16994 curveto
56.97752 -110.23611 57.82161 -110.29128 58.6657 -110.33539 curveto
59.51497 -110.3795 60.36424 -110.4126 61.21417 -110.4353 curveto
62.06929 -110.45801 62.92441 -110.4697 63.77953 -110.4697 curveto
64.63919 -110.4697 65.49884 -110.45737 66.35785 -110.4353 curveto
67.22075 -110.41324 68.08301 -110.38016 68.94461 -110.33473 curveto
69.81076 -110.28932 70.67561 -110.23093 71.53981 -110.16281 curveto
72.4092 -110.09404 73.2773 -110.01553 74.14409 -109.9247 curveto
75.01543 -109.83322 75.88547 -109.73006 76.75421 -109.61588 curveto
77.62619 -109.50104 78.49623 -109.37517 79.36497 -109.23763 curveto
80.23825 -109.09943 81.10959 -108.94955 81.97899 -108.78801 curveto
82.85097 -108.62581 83.72101 -108.45258 84.58846 -108.26831 curveto
85.46043 -108.08276 86.32918 -107.88683 87.19597 -107.67856 curveto
88.06667 -107.46965 88.93411 -107.2484 89.79895 -107.01678 curveto
90.6664 -106.78452 91.5306 -106.54121 92.39156 -106.28624 curveto
93.25705 -106.02995 94.11865 -105.76265 94.97702 -105.48367 curveto
95.83798 -105.20404 96.69504 -104.91208 97.54886 -104.60974 curveto
98.40593 -104.3061 99.2591 -103.99208 100.10837 -103.66638 curveto
100.96089 -103.33939 101.80823 -103.00072 102.65166 -102.65166 curveto
103.49835 -102.30132 104.33984 -101.93929 105.17679 -101.56686 curveto
106.01633 -101.19316 106.8507 -100.80777 107.67986 -100.412 curveto
108.51227 -100.01494 109.33948 -99.6075 110.16151 -99.18903 curveto
110.98613 -98.76926 111.80557 -98.3378 112.61852 -97.89597 curveto
113.4334 -97.45349 114.24245 -96.99997 115.04567 -96.53609 curveto
115.85277 -96.07025 116.6534 -95.59402 117.44817 -95.10742 curveto
118.24489 -94.61954 119.03448 -94.1206 119.81758 -93.61195 curveto
120.60327 -93.10199 121.38184 -92.58165 122.15392 -92.05159 curveto
122.92923 -91.51892 123.6974 -90.97653 124.45844 -90.42375 curveto
125.22078 -89.86967 125.97533 -89.30586 126.72275 -88.73233 curveto
127.47276 -88.15685 128.21498 -87.57162 128.94943 -86.97668 curveto
129.68582 -86.37979 130.41312 -85.77316 131.13393 -85.1581 curveto
131.85605 -84.54173 132.57167 -83.91629 133.27756 -83.28113 curveto
133.98476 -82.644 134.68286 -81.99715 135.37318 -81.34186 curveto
136.0661 -80.68398 136.75124 -80.01831 137.42664 -79.34291 curveto
138.10333 -78.66621 138.7703 -77.97978 139.42883 -77.28557 curveto
140.08865 -76.58942 140.74005 -75.88547 141.38235 -75.17308 curveto
142.02531 -74.45941 142.6592 -73.73729 143.2827 -73.00674 curveto
143.90814 -72.27425 144.5232 -71.53267 145.12918 -70.7846 curveto
145.7371 -70.03459 146.33594 -69.27745 146.92375 -68.51187 curveto
147.5122 -67.74498 148.09029 -66.96967 148.65799 -66.18723 curveto
149.22699 -65.40347 149.7856 -64.61194 150.33449 -63.81392 curveto
150.88467 -63.01395 151.42447 -62.20683 151.95325 -61.3926 curveto
152.48267 -60.5777 153.0004 -59.75502 153.5084 -58.92651 curveto
154.01772 -58.0967 154.51665 -57.26039 155.00389 -56.4176 curveto
155.49243 -55.57288 155.96866 -54.721 156.43385 -53.86264 curveto
156.89839 -53.00493 157.3519 -52.14072 157.79437 -51.27133 curveto
158.23816 -50.39935 158.6709 -49.52281 159.09198 -48.6398 curveto
159.51369 -47.7555 159.92374 -46.86598 160.32275 -45.9713 curveto
160.72176 -45.07596 161.10974 -44.17542 161.48474 -43.2697 curveto
161.8604 -42.36333 162.22372 -41.45177 162.57472 -40.53566 curveto
162.92638 -39.6176 163.2657 -38.69437 163.59464 -37.76788 curveto
163.92293 -36.8414 164.24084 -35.91103 164.54514 -34.9761 curveto
164.85007 -34.03989 165.14137 -33.09912 165.42036 -32.15512 curveto
165.69934 -31.20982 165.966 -30.26064 166.22098 -29.30884 curveto
166.47595 -28.3564 166.71991 -27.40137 166.95023 -26.44244 curveto
167.18056 -25.48288 167.39725 -24.52005 167.60292 -23.5553 curveto
167.8086 -22.58923 168.00323 -21.62122 168.1836 -20.65062 curveto
168.36395 -19.67873 168.5294 -18.70486 168.68382 -17.72842 curveto
168.83823 -16.75264 168.98161 -15.77554 169.11073 -14.79585 curveto
169.23984 -13.81552 169.35403 -12.8339 169.45654 -11.85097 curveto
169.55905 -10.86673 169.65053 -9.88185 169.72838 -8.89568 curveto
169.80624 -7.90886 169.87112 -6.92139 169.92302 -5.93327 curveto
169.97493 -4.9458 170.01385 -3.95767 170.03981 -2.9689 curveto
170.06577 -1.97949 170.07874 -0.99007 170.07874 0 curveto stroke
 0 0 0 setrgbcolor
172.17873 3.34529 moveto
(M) cmmi5 4.98132 fshow
179.11803 3.34529 moveto
(\(0\)) cmr5 4.98132 fshow
 0 3 dtransform truncate idtransform setlinewidth pop
newpath 170.07874 0 moveto 0 0 rlineto stroke
52.89192 116.70761 moveto
(M) cmmi5 4.98132 fshow
61.05353 122.19421 moveto
(\020) cmex7 4.98137 fshow
65.70082 118.63771 moveto
(\031) cmmi5 4.98132 fshow
 0 0.2419 dtransform truncate idtransform setlinewidth pop 0 setlinecap
newpath 65.70082 117.95291 moveto
70.01982 117.95291 lineto stroke
66.16522 114.05801 moveto
(3) cmr5 4.98132 fshow
71.21532 122.19421 moveto
(\021) cmex7 4.98137 fshow
 0 3 dtransform truncate idtransform setlinewidth pop 1 setlinecap
newpath 63.77953 110.4697 moveto 0 0 rlineto stroke
-49.42514 35.57791 moveto
(M) cmmi5 4.98132 fshow
-41.26353 41.06451 moveto
(\020) cmex7 4.98137 fshow
-36.61624 37.50801 moveto
(2) cmr5 4.98132 fshow
-33.22604 37.50801 moveto
(\031) cmmi5 4.98132 fshow
 0 0.2419 dtransform truncate idtransform setlinewidth pop 0 setlinecap
newpath -36.61624 36.82321 moveto
-28.90714 36.82321 lineto stroke
-34.45674 32.92831 moveto
(3) cmr5 4.98132 fshow
-27.71164 41.06451 moveto
(\021) cmex7 4.98137 fshow
 0 3 dtransform truncate idtransform setlinewidth pop 1 setlinecap
newpath -21.25984 36.82323 moveto 0 0 rlineto stroke
2.09999 3.34529 moveto
(M) cmmi5 4.98132 fshow
10.2616 3.34529 moveto
(\() cmr5 4.98132 fshow
12.9598 3.34529 moveto
(\031) cmmi5 4.98132 fshow
17.27869 3.34529 moveto
(\)) cmr5 4.98132 fshow
newpath 0 0 moveto 0 0 rlineto stroke
40.02904 -9.4204 moveto
(1) cmr10 9.96265 fshow
-7.9813 39.30948 moveto
(1) cmr10 9.96265 fshow
 0.5 0 dtransform exch truncate exch idtransform pop setlinewidth
newpath -42.51968 -2.12611 moveto
-42.51968 2.12611 lineto stroke
newpath 0 -2.12611 moveto
0 2.12611 lineto stroke
newpath 42.51968 -2.12611 moveto
42.51968 2.12611 lineto stroke
newpath 85.03937 -2.12611 moveto
85.03937 2.12611 lineto stroke
newpath 127.55905 -2.12611 moveto
127.55905 2.12611 lineto stroke
newpath 170.07874 -2.12611 moveto
170.07874 2.12611 lineto stroke
 0 0.5 dtransform truncate idtransform setlinewidth pop
newpath -2.12611 -127.55905 moveto
2.12611 -127.55905 lineto stroke
newpath -2.12611 -85.03937 moveto
2.12611 -85.03937 lineto stroke
newpath -2.12611 -42.51968 moveto
2.12611 -42.51968 lineto stroke
newpath -2.12611 0 moveto
2.12611 0 lineto stroke
newpath -2.12611 42.51968 moveto
2.12611 42.51968 lineto stroke
newpath -2.12611 85.03937 moveto
2.12611 85.03937 lineto stroke
newpath -2.12611 127.55905 moveto
2.12611 127.55905 lineto stroke
newpath -63.77953 0 moveto
191.33858 0 lineto stroke
newpath 187.64145 -1.53143 moveto
191.33858 0 lineto
187.64145 1.53143 lineto
 closepath
gsave fill grestore stroke
 0.5 0 dtransform exch truncate exch idtransform pop setlinewidth
newpath 0 -148.8189 moveto
0 148.8189 lineto stroke
 0 0.5 dtransform truncate idtransform setlinewidth pop
newpath 1.53119 145.12236 moveto
0 148.8189 lineto
-1.53119 145.12236 lineto
 closepath
gsave fill grestore stroke
showpage
%%EOF
