%!PS
%%BoundingBox: -75 -139 146 139 
%%HiResBoundingBox: -74.65945 -138.43898 145.38495 138.43898 
%%Creator: MetaPost 2.000
%%CreationDate: 2018.02.21:0915
%%Pages: 1
%*Font: cmmi5 4.98132 4.98132 19:80000000000008
%*Font: cmr5 4.98132 4.98132 28:c0b
%*Font: cmex7 4.98137 6.97385 10:c
%*Font: cmr10 9.96265 9.96265 31:8
%%BeginProlog
%%EndProlog
%%Page: 1 1
 0 0 0 setrgbcolor 0 2 dtransform truncate idtransform setlinewidth pop
 [] 0 setdash 1 setlinecap 1 setlinejoin 10 setmiterlimit
newpath 127.55905 0 moveto
127.52013 0.00066 lineto
127.40334 0.0013 lineto
127.20935 0.00648 lineto
126.9375 0.01492 lineto
126.58975 0.02855 lineto
126.16414 0.048 lineto
125.66261 0.07721 lineto
125.08388 0.1155 lineto
124.43054 0.1635 lineto
123.70259 0.22383 lineto
122.90068 0.29845 lineto
122.0248 0.38669 lineto
121.70818 0.41977 121.39157 0.4535 121.0756 0.48984 curveto
120.0557 0.61182 lineto
118.96506 0.75002 lineto
117.80371 0.90767 lineto
116.5736 1.08673 lineto
115.27599 1.28658 lineto
114.82118 1.35858 114.36702 1.4319 113.91286 1.50781 curveto
113.436 1.58762 112.95914 1.67001 112.48291 1.75435 curveto
111.98463 1.84259 111.487 1.93213 110.98938 2.02425 curveto
110.47034 2.12027 109.95195 2.21889 109.43356 2.31946 curveto
108.89375 2.42456 108.3546 2.53162 107.81546 2.64127 curveto
107.25554 2.7548 106.69693 2.87158 106.1383 2.99031 curveto
105.55959 3.11359 104.9815 3.2401 104.40341 3.36792 curveto
103.80522 3.50027 103.20703 3.63522 102.61014 3.77277 curveto
101.99377 3.91486 101.37807 4.06018 100.76302 4.20811 curveto
100.12848 4.36058 99.49525 4.51498 98.86203 4.67265 curveto
98.21063 4.83485 97.55923 5.00029 96.90915 5.16833 curveto
96.24088 5.34157 95.57327 5.51738 94.9063 5.69646 curveto
94.22118 5.88007 93.53734 6.06693 92.85416 6.25636 curveto
92.1541 6.45036 91.45534 6.64824 90.75723 6.84807 curveto
90.04225 7.05309 89.32793 7.26071 88.61424 7.47157 curveto
87.885 7.68762 87.1564 7.9069 86.4291 8.12946 curveto
85.68622 8.35654 84.944 8.58751 84.20306 8.82108 curveto
83.44722 9.05983 82.69202 9.30118 81.93811 9.54643 curveto
81.16928 9.79622 80.40175 10.0499 79.63487 10.30617 curveto
78.85501 10.56699 78.07646 10.8317 77.29855 11.099 curveto
76.50702 11.37149 75.71742 11.64659 74.92848 11.92622 curveto
74.12657 12.21039 73.32596 12.49846 72.52663 12.78912 curveto
71.71564 13.08432 70.90659 13.38213 70.09818 13.68446 curveto
69.27745 13.99069 68.45866 14.30147 67.64117 14.6155 curveto
66.81267 14.93341 65.98608 15.2552 65.16017 15.58026 curveto
64.32387 15.90985 63.48952 16.24268 62.65645 16.5794 curveto
61.81366 16.92003 60.97217 17.26389 60.13197 17.61229 curveto
59.2827 17.96394 58.43536 18.32013 57.58934 18.67892 curveto
56.73486 19.0416 55.88104 19.40752 55.02983 19.77798 curveto
54.1708 20.15169 53.31375 20.5293 52.458 20.91014 curveto
51.59444 21.29488 50.73283 21.68286 49.87253 22.07474 curveto
49.00638 22.46921 48.14218 22.86757 47.27927 23.26982 curveto
46.40988 23.67532 45.5418 24.08406 44.67628 24.49734 curveto
43.80495 24.91258 42.93622 25.33235 42.06877 25.75537 curveto
41.19678 26.18033 40.32674 26.60983 39.45865 27.04259 curveto
38.58537 27.47794 37.71468 27.91716 36.84529 28.36029 curveto
35.97266 28.80472 35.10262 29.2524 34.23387 29.7046 curveto
33.3619 30.15811 32.4925 30.61617 31.62505 31.07747 curveto
30.75502 31.54005 29.88692 32.0059 29.02077 32.47627 curveto
28.15334 32.94731 27.28848 33.42288 26.42493 33.90169 curveto
25.56073 34.38115 24.69783 34.8632 23.83752 35.34981 curveto
22.97592 35.83705 22.11691 36.3282 21.25984 36.82323 curveto
20.40277 37.31827 19.54767 37.81589 18.69514 38.31807 curveto
17.84326 38.81958 16.99399 39.32565 16.14665 39.83496 curveto
15.30063 40.34361 14.45654 40.85551 13.61505 41.3713 curveto
12.77486 41.8858 11.9366 42.40419 11.10095 42.92648 curveto
10.2679 43.44746 9.43678 43.97235 8.60826 44.50047 curveto
7.78235 45.02664 6.95901 45.55606 6.13763 46.08873 curveto
5.3195 46.61945 4.50397 47.15405 3.69101 47.69255 curveto
2.88132 48.22847 2.0742 48.76762 1.2697 49.31067 curveto
0.46973 49.85046 -0.32764 50.39285 -1.12308 50.93979 curveto
-1.91331 51.48283 -2.7003 52.02979 -3.486 52.57996 curveto
-4.2665 53.12625 -5.04442 53.67642 -5.82037 54.2292 curveto
-6.5892 54.77744 -7.35608 55.32892 -8.12036 55.8843 curveto
-8.87816 56.43512 -9.63402 56.9892 -10.38727 57.54651 curveto
-11.13339 58.09865 -11.87756 58.654 -12.61914 59.21263 curveto
-13.35294 59.76541 -14.08412 60.32208 -14.81337 60.88199 curveto
-15.5342 61.43541 -16.25307 61.99208 -16.96933 62.55135 curveto
-17.67783 63.10478 -18.38371 63.6608 -19.08702 64.22006 curveto
-19.78123 64.77219 -20.47285 65.3282 -21.16252 65.88683 curveto
-21.84311 66.43831 -22.5211 66.99237 -23.19716 67.54904 curveto
-23.86346 68.09793 -24.52785 68.64941 -25.18896 69.20413 curveto
-25.84036 69.75043 -26.48917 70.3006 -27.13536 70.85274 curveto
-27.77184 71.39642 -28.40572 71.94272 -29.03699 72.4916 curveto
-29.6579 73.0314 -30.2762 73.57445 -30.89256 74.11943 curveto
-31.4979 74.6547 -32.10127 75.19255 -32.70206 75.733 curveto
-33.29117 76.26372 -33.87703 76.79703 -34.46161 77.33293 curveto
-35.03384 77.85782 -35.60478 78.38464 -36.17313 78.91406 curveto
-36.7298 79.43309 -37.28387 79.95473 -37.836 80.47832 curveto
-38.37581 80.99022 -38.91301 81.50406 -39.44827 82.02115 curveto
-39.9712 82.52592 -40.49089 83.03328 -41.00928 83.54259 curveto
-42.51968 85.03937 lineto
-43.00822 85.52727 -43.49419 86.01776 -43.97818 86.5102 curveto
-45.38348 87.95377 lineto
-45.83635 88.42285 -46.28856 88.89388 -46.73752 89.36685 curveto
-47.17352 89.82556 -47.60692 90.28621 -48.03836 90.74945 curveto
-48.45619 91.19777 -48.87143 91.64803 -49.28535 92.0996 curveto
-49.68501 92.53624 -50.08337 92.97418 -50.47914 93.41406 curveto
-50.8613 93.83838 -51.24149 94.26529 -51.62039 94.69284 curveto
-51.98436 95.10419 -52.34769 95.51682 -52.70778 95.9314 curveto
-53.7413 97.13168 lineto
-54.0696 97.51642 -54.39725 97.90245 -54.72229 98.2898 curveto
-55.65007 99.40508 lineto
-56.52466 100.47559 lineto
-57.34538 101.49875 lineto
-57.6036 101.82315 -57.86118 102.1482 -58.11617 102.47453 curveto
-58.83308 103.40167 lineto
-59.49875 104.2769 lineto
-60.11382 105.09958 lineto
-60.67827 105.86905 lineto
-61.19147 106.58469 lineto
-61.6573 107.24257 lineto
-62.07384 107.84206 lineto
-62.44235 108.3838 lineto
-62.76416 108.8652 lineto
-63.0399 109.28563 lineto
-63.11775 109.40436 -63.1956 109.52374 -63.27087 109.64377 curveto
-63.3325 109.74173 -63.39284 109.841 -63.45642 109.93832 curveto
-63.50574 110.01424 -63.55763 110.0895 -63.59981 110.16994 curveto
-63.6303 110.22769 -63.65625 110.28802 -63.69972 110.33603 curveto
-63.72697 110.36653 -63.76201 110.39508 -63.75941 110.43596 curveto
-63.75746 110.45801 -63.7672 110.47682 -63.77953 110.4697 curveto
-63.79185 110.46255 -63.78082 110.44504 -63.76071 110.4353 curveto
-63.72438 110.41713 -63.71594 110.37302 -63.70361 110.33409 curveto
-63.6835 110.2718 -63.64458 110.2186 -63.60954 110.16345 curveto
-63.56152 110.0869 -63.52196 110.00514 -63.48108 109.9247 curveto
-63.42853 109.82089 -63.37338 109.71838 -63.31953 109.61588 curveto
-63.12424 109.23697 lineto
-62.89845 108.78735 lineto
-62.64218 108.26831 lineto
-62.35736 107.67856 lineto
-62.04593 107.01678 lineto
-61.70792 106.28624 lineto
-61.34653 105.48367 lineto
-60.96245 104.60974 lineto
-60.55695 103.66638 lineto
-60.13197 102.65166 lineto
-59.68884 101.56686 lineto
-59.53378 101.18279 -59.37938 100.7974 -59.22755 100.412 curveto
-58.75262 99.18903 lineto
-58.26279 97.89597 lineto
-58.09344 97.4431 -57.92542 96.99025 -57.75996 96.53609 curveto
-57.58675 96.06052 -57.4161 95.58429 -57.24742 95.10742 curveto
-57.0716 94.6098 -56.89706 94.11087 -56.72513 93.61195 curveto
-56.54607 93.09225 -56.36894 92.57193 -56.19507 92.05093 curveto
-56.01405 91.50919 -55.83563 90.96614 -55.65916 90.4231 curveto
-55.4762 89.85994 -55.29518 89.29678 -55.11742 88.73233 curveto
-54.93315 88.14777 -54.75214 87.56255 -54.57307 86.97668 curveto
-54.38817 86.37135 -54.2052 85.76538 -54.02548 85.15875 curveto
-53.83992 84.53331 -53.65826 83.90721 -53.47855 83.28047 curveto
-53.29364 82.63492 -53.11067 81.98871 -52.93095 81.34186 curveto
-52.74605 80.6762 -52.56503 80.00987 -52.38661 79.34291 curveto
-52.203 78.65778 -52.02264 77.97266 -51.84486 77.28622 curveto
-51.66321 76.58292 -51.48479 75.87833 -51.30896 75.17374 curveto
-51.12924 74.45227 -50.95212 73.7295 -50.77824 73.00674 curveto
-50.60048 72.26712 -50.42595 71.52618 -50.25467 70.7846 curveto
-50.08014 70.02747 -49.90886 69.26967 -49.74081 68.51122 curveto
-49.56953 67.7372 -49.40085 66.96254 -49.23605 66.18723 curveto
-49.06801 65.39699 -48.90321 64.60545 -48.74231 63.81392 curveto
-48.57817 63.00746 -48.41791 62.20035 -48.26091 61.3926 curveto
-48.1013 60.57121 -47.94495 59.74919 -47.79247 58.92651 curveto
-47.6374 58.09085 -47.4869 57.2539 -47.33961 56.41696 curveto
-47.18974 55.56638 -47.04376 54.71515 -46.90102 53.86328 curveto
-46.75635 52.99973 -46.6149 52.13618 -46.47736 51.27133 curveto
-46.33852 50.3948 -46.20357 49.51762 -46.07251 48.6398 curveto
-45.9395 47.75095 -45.81104 46.86209 -45.68582 45.97194 curveto
-45.55931 45.07141 -45.43733 44.17088 -45.3186 43.2697 curveto
-45.19858 42.35878 -45.08244 41.44722 -44.9702 40.535 curveto
-44.8573 39.61307 -44.7483 38.69112 -44.6432 37.76852 curveto
-44.53745 36.83815 -44.4356 35.90712 -44.33762 34.97545 curveto
-44.239 34.03534 -44.14427 33.09523 -44.05345 32.15448 curveto
-43.96196 31.20657 -43.87437 30.25803 -43.79134 29.3095 curveto
-43.70764 28.35446 -43.62914 27.39877 -43.55386 26.44244 curveto
-43.4786 25.48029 -43.40659 24.51811 -43.33911 23.5553 curveto
-43.27164 22.58728 -43.20871 21.61928 -43.14967 20.65062 curveto
-43.08998 19.67677 -43.03418 18.70293 -42.98293 17.72908 curveto
-42.93167 16.75134 -42.8856 15.7736 -42.84279 14.79521 curveto
-42.79997 13.81358 -42.76039 12.83194 -42.726 11.85031 curveto
-42.69162 10.86543 -42.66177 9.88055 -42.63582 8.89503 curveto
-42.60986 7.9082 -42.58911 6.92073 -42.5716 5.93391 curveto
-42.55408 4.94514 -42.54109 3.95703 -42.53265 2.96826 curveto
-42.52423 1.97884 -42.51968 0.98943 -42.51968 0 curveto
-42.51968 -0.98943 -42.52423 -1.97884 -42.53265 -2.96826 curveto
-42.54109 -3.95703 -42.55408 -4.94514 -42.5716 -5.93391 curveto
-42.58911 -6.92073 -42.61052 -7.9082 -42.63582 -8.89503 curveto
-42.66112 -9.88055 -42.69096 -10.86543 -42.726 -11.85031 curveto
-42.76039 -12.83194 -42.79997 -13.81358 -42.84279 -14.79521 curveto
-42.8856 -15.7736 -42.93167 -16.75134 -42.98293 -17.72908 curveto
-43.03418 -18.70293 -43.08998 -19.67677 -43.14967 -20.65062 curveto
-43.20871 -21.61928 -43.27164 -22.58728 -43.33911 -23.5553 curveto
-43.40659 -24.51811 -43.4786 -25.48029 -43.55386 -26.44244 curveto
-43.62914 -27.39877 -43.70764 -28.35446 -43.79134 -29.3095 curveto
-43.87437 -30.25803 -43.96196 -31.20657 -44.05345 -32.15448 curveto
-44.14427 -33.09523 -44.239 -34.03534 -44.33762 -34.97545 curveto
-44.4356 -35.90712 -44.53745 -36.83815 -44.6432 -37.76852 curveto
-44.7483 -38.69112 -44.8573 -39.61307 -44.9702 -40.535 curveto
-45.08244 -41.44722 -45.19858 -42.35878 -45.3186 -43.2697 curveto
-45.43733 -44.17088 -45.55931 -45.07205 -45.68582 -45.97194 curveto
-45.81104 -46.86209 -45.9395 -47.75095 -46.07251 -48.6398 curveto
-46.20357 -49.51762 -46.33852 -50.3948 -46.47736 -51.27133 curveto
-46.6149 -52.13618 -46.75635 -52.99973 -46.90102 -53.86328 curveto
-47.04376 -54.71515 -47.18974 -55.56638 -47.33961 -56.41696 curveto
-47.4869 -57.2539 -47.6374 -58.09085 -47.79247 -58.92651 curveto
-47.94495 -59.74919 -48.1013 -60.57121 -48.26091 -61.3926 curveto
-48.41791 -62.20035 -48.57817 -63.00746 -48.74231 -63.81392 curveto
-48.90321 -64.60545 -49.06801 -65.39699 -49.23605 -66.18723 curveto
-49.40085 -66.96254 -49.56953 -67.7372 -49.74081 -68.51122 curveto
-49.90886 -69.26967 -50.08014 -70.02747 -50.25467 -70.7846 curveto
-50.42595 -71.52618 -50.60048 -72.26712 -50.77824 -73.00674 curveto
-50.95212 -73.7295 -51.12924 -74.45227 -51.30896 -75.17374 curveto
-51.48479 -75.87833 -51.66321 -76.58292 -51.84486 -77.28622 curveto
-52.02264 -77.97266 -52.203 -78.65778 -52.38661 -79.34291 curveto
-52.56503 -80.00987 -52.74605 -80.6762 -52.93095 -81.34186 curveto
-53.11067 -81.98871 -53.29364 -82.63492 -53.47855 -83.28047 curveto
-53.65826 -83.90721 -53.83992 -84.53331 -54.02548 -85.15875 curveto
-54.2052 -85.76538 -54.38817 -86.37135 -54.57307 -86.97668 curveto
-54.75214 -87.56255 -54.93315 -88.14777 -55.11742 -88.73233 curveto
-55.29518 -89.29678 -55.4762 -89.85994 -55.65916 -90.4231 curveto
-55.83563 -90.96614 -56.01405 -91.50919 -56.19507 -92.05093 curveto
-56.3696 -92.57193 -56.54607 -93.09225 -56.72513 -93.61195 curveto
-56.89706 -94.11087 -57.0716 -94.6098 -57.24742 -95.10742 curveto
-57.4161 -95.58429 -57.58675 -96.06052 -57.75996 -96.53609 curveto
-57.92542 -96.99025 -58.09344 -97.4431 -58.26279 -97.89597 curveto
-58.75262 -99.18903 lineto
-59.22755 -100.412 lineto
-59.37938 -100.7974 -59.53378 -101.18279 -59.68884 -101.56686 curveto
-60.13197 -102.65166 lineto
-60.55695 -103.66638 lineto
-60.96245 -104.60974 lineto
-61.34653 -105.48367 lineto
-61.70792 -106.28624 lineto
-62.04593 -107.01678 lineto
-62.35736 -107.67856 lineto
-62.64218 -108.26831 lineto
-62.89845 -108.78735 lineto
-63.12424 -109.23697 lineto
-63.31953 -109.61588 lineto
-63.37338 -109.71838 -63.42853 -109.82089 -63.48108 -109.9247 curveto
-63.52196 -110.00514 -63.56152 -110.0869 -63.60954 -110.16345 curveto
-63.64458 -110.2186 -63.6835 -110.2718 -63.70361 -110.33409 curveto
-63.71594 -110.37302 -63.72438 -110.41713 -63.76071 -110.4353 curveto
-63.78018 -110.44504 -63.79185 -110.46255 -63.77953 -110.4697 curveto
-63.7672 -110.47682 -63.75746 -110.45801 -63.75941 -110.43596 curveto
-63.76265 -110.39508 -63.72697 -110.36653 -63.69972 -110.33603 curveto
-63.65561 -110.28802 -63.6303 -110.22769 -63.59981 -110.16994 curveto
-63.55763 -110.0895 -63.50638 -110.01424 -63.45642 -109.93832 curveto
-63.39284 -109.841 -63.3325 -109.74173 -63.27087 -109.64377 curveto
-63.0399 -109.28563 lineto
-62.76416 -108.8652 lineto
-62.44235 -108.3838 lineto
-62.07384 -107.84206 lineto
-61.6573 -107.24257 lineto
-61.19147 -106.58469 lineto
-60.67827 -105.86905 lineto
-60.11382 -105.09958 lineto
-59.49875 -104.2769 lineto
-58.83308 -103.40167 lineto
-58.11617 -102.47453 lineto
-57.34538 -101.49875 lineto
-56.52466 -100.47559 lineto
-55.65007 -99.40508 lineto
-54.72229 -98.2898 lineto
-53.7413 -97.13168 lineto
-52.70778 -95.9314 lineto
-51.62039 -94.69284 lineto
-50.47914 -93.41406 lineto
-50.08337 -92.97418 -49.68501 -92.53624 -49.28535 -92.0996 curveto
-48.87143 -91.64803 -48.45619 -91.19777 -48.03836 -90.74945 curveto
-47.60692 -90.28621 -47.17352 -89.82556 -46.73752 -89.36685 curveto
-46.28856 -88.89388 -45.83635 -88.42285 -45.38348 -87.95377 curveto
-44.91699 -87.47107 -44.44856 -86.98901 -43.97818 -86.5102 curveto
-43.49419 -86.01776 -43.00822 -85.52727 -42.51968 -85.03937 curveto
-41.00928 -83.54259 lineto
-40.49089 -83.03328 -39.9712 -82.52592 -39.44827 -82.02115 curveto
-38.91301 -81.50406 -38.37581 -80.99022 -37.836 -80.47832 curveto
-37.28387 -79.95473 -36.7298 -79.43309 -36.17313 -78.91406 curveto
-35.60478 -78.38464 -35.03384 -77.85782 -34.46161 -77.33293 curveto
-33.87703 -76.79703 -33.29117 -76.26372 -32.70206 -75.733 curveto
-32.10127 -75.1919 -31.4979 -74.6547 -30.89256 -74.11943 curveto
-30.2762 -73.57445 -29.6579 -73.0314 -29.03699 -72.4916 curveto
-28.40572 -71.94272 -27.77184 -71.39642 -27.13536 -70.85274 curveto
-26.48917 -70.3006 -25.84036 -69.75043 -25.18896 -69.20413 curveto
-24.52785 -68.64941 -23.86346 -68.09793 -23.19716 -67.54904 curveto
-22.5211 -66.99237 -21.84311 -66.43831 -21.16252 -65.88683 curveto
-20.47285 -65.3282 -19.78123 -64.77219 -19.08702 -64.22006 curveto
-18.38371 -63.6608 -17.67783 -63.10478 -16.96933 -62.55135 curveto
-16.25307 -61.99208 -15.5342 -61.43541 -14.81337 -60.88199 curveto
-14.08412 -60.32208 -13.35294 -59.76605 -12.61914 -59.21263 curveto
-11.87756 -58.654 -11.13339 -58.09865 -10.38727 -57.54651 curveto
-9.63402 -56.9892 -8.87816 -56.43512 -8.12036 -55.8843 curveto
-7.35608 -55.32892 -6.5892 -54.77744 -5.82037 -54.2292 curveto
-5.04442 -53.67642 -4.2665 -53.12625 -3.486 -52.57996 curveto
-2.70094 -52.02979 -1.91331 -51.48283 -1.12308 -50.93979 curveto
-0.32764 -50.39285 0.46973 -49.85046 1.2697 -49.31067 curveto
2.0742 -48.76762 2.88132 -48.22847 3.69101 -47.69255 curveto
4.50397 -47.15405 5.3195 -46.61945 6.13763 -46.08873 curveto
6.95901 -45.55542 7.78235 -45.02664 8.60826 -44.50047 curveto
9.43678 -43.97235 10.2679 -43.44746 11.10095 -42.92648 curveto
11.9366 -42.40419 12.77486 -41.8858 13.61505 -41.3713 curveto
14.45654 -40.85551 15.30063 -40.34361 16.14665 -39.83496 curveto
16.99399 -39.32565 17.84326 -38.81958 18.69514 -38.31807 curveto
19.54767 -37.81589 20.40277 -37.31827 21.25984 -36.82323 curveto
22.11691 -36.32884 22.97592 -35.83705 23.83752 -35.34981 curveto
24.69783 -34.8632 25.56073 -34.38115 26.42493 -33.90169 curveto
27.28848 -33.42288 28.15334 -32.94731 29.02077 -32.47627 curveto
29.88692 -32.0059 30.75502 -31.54005 31.62505 -31.07747 curveto
32.4925 -30.61617 33.36253 -30.15811 34.23387 -29.7046 curveto
35.10262 -29.2524 35.97266 -28.80472 36.84529 -28.36029 curveto
37.71468 -27.91716 38.58537 -27.47794 39.45865 -27.04259 curveto
40.32674 -26.60983 41.19678 -26.18033 42.06877 -25.75537 curveto
42.93622 -25.33235 43.8056 -24.91258 44.67628 -24.49734 curveto
45.54243 -24.08406 46.40988 -23.67532 47.27927 -23.26982 curveto
48.14218 -22.86757 49.00638 -22.46921 49.87253 -22.07474 curveto
50.73283 -21.68286 51.59444 -21.29488 52.458 -20.91014 curveto
53.31375 -20.5293 54.1708 -20.15169 55.02983 -19.77798 curveto
55.88104 -19.40752 56.73486 -19.0416 57.58934 -18.67892 curveto
58.43536 -18.32013 59.2827 -17.96394 60.13197 -17.61229 curveto
60.97217 -17.26454 61.81366 -16.92003 62.65645 -16.5794 curveto
63.48952 -16.24268 64.32387 -15.90985 65.16017 -15.58026 curveto
65.98608 -15.2552 66.81267 -14.93341 67.64117 -14.6155 curveto
68.45866 -14.30147 69.27745 -13.99135 70.09818 -13.68446 curveto
70.90659 -13.38213 71.71564 -13.08432 72.52663 -12.78912 curveto
73.32596 -12.49782 74.12657 -12.21039 74.92848 -11.92622 curveto
75.71742 -11.64659 76.50702 -11.37149 77.29855 -11.099 curveto
78.07646 -10.8317 78.85501 -10.56699 79.63487 -10.30617 curveto
80.40175 -10.0499 81.16928 -9.79622 81.93811 -9.54643 curveto
82.69202 -9.30118 83.44722 -9.05983 84.20306 -8.82108 curveto
84.944 -8.58751 85.68622 -8.35654 86.4291 -8.12946 curveto
87.1564 -7.9069 87.885 -7.68762 88.61424 -7.47157 curveto
89.32793 -7.26071 90.04225 -7.05309 90.75723 -6.84807 curveto
91.45534 -6.64824 92.1541 -6.45036 92.85416 -6.25636 curveto
93.53734 -6.06693 94.22118 -5.88007 94.9063 -5.69646 curveto
95.57327 -5.51738 96.24088 -5.34157 96.90915 -5.16833 curveto
97.55923 -5.00029 98.20999 -4.83485 98.86203 -4.67265 curveto
99.49525 -4.51498 100.12848 -4.36058 100.76302 -4.20811 curveto
101.37807 -4.06018 101.99377 -3.91486 102.61014 -3.77277 curveto
103.20703 -3.63522 103.80522 -3.50027 104.40341 -3.36792 curveto
104.9815 -3.2401 105.55959 -3.11359 106.1383 -2.99031 curveto
106.69693 -2.87158 107.2562 -2.75545 107.81546 -2.64127 curveto
108.3546 -2.53162 108.89375 -2.42456 109.43356 -2.31946 curveto
109.95195 -2.21889 110.47034 -2.12027 110.98938 -2.02425 curveto
111.487 -1.93213 111.98463 -1.84259 112.48291 -1.75435 curveto
112.95914 -1.67001 113.436 -1.58762 113.91286 -1.50781 curveto
114.36702 -1.4319 114.82118 -1.35858 115.27599 -1.28658 curveto
116.5736 -1.08673 lineto
117.80371 -0.90767 lineto
118.96506 -0.75002 lineto
120.0557 -0.61182 lineto
121.0756 -0.48984 lineto
121.39157 -0.4535 121.70818 -0.41977 122.0248 -0.38669 curveto
122.90068 -0.29845 lineto
123.70259 -0.22383 lineto
124.43054 -0.1635 lineto
125.08388 -0.1155 lineto
125.66261 -0.07721 lineto
126.16414 -0.048 lineto
126.58975 -0.02855 lineto
126.9375 -0.01492 lineto
127.20935 -0.00648 lineto
127.40334 -0.0013 lineto
127.52013 -0.00066 lineto
127.55905 0 lineto stroke
 1 0 0 setrgbcolor
newpath 127.55905 0 moveto
127.52013 0.00066 lineto
127.40334 0.0013 lineto
127.20935 0.00648 lineto
126.9375 0.01492 lineto
126.58975 0.02855 lineto
126.16414 0.048 lineto
125.66261 0.07721 lineto
125.08388 0.1155 lineto
124.43054 0.1635 lineto
123.70259 0.22383 lineto
122.90068 0.29845 lineto
122.0248 0.38669 lineto
121.70818 0.41977 121.39157 0.4535 121.0756 0.48984 curveto
120.0557 0.61182 lineto
118.96506 0.75002 lineto
117.80371 0.90767 lineto
116.5736 1.08673 lineto
115.27599 1.28658 lineto
114.82118 1.35858 114.36702 1.4319 113.91286 1.50781 curveto
113.436 1.58762 112.95914 1.67001 112.48291 1.75435 curveto
111.98463 1.84259 111.487 1.93213 110.98938 2.02425 curveto
110.47034 2.12027 109.95195 2.21889 109.43356 2.31946 curveto
108.89375 2.42456 108.3546 2.53162 107.81546 2.64127 curveto
107.25554 2.7548 106.69693 2.87158 106.1383 2.99031 curveto
105.55959 3.11359 104.9815 3.2401 104.40341 3.36792 curveto
103.80522 3.50027 103.20703 3.63522 102.61014 3.77277 curveto
101.99377 3.91486 101.37807 4.06018 100.76302 4.20811 curveto
100.12848 4.36058 99.49525 4.51498 98.86203 4.67265 curveto
98.21063 4.83485 97.55923 5.00029 96.90915 5.16833 curveto
96.24088 5.34157 95.57327 5.51738 94.9063 5.69646 curveto
94.22118 5.88007 93.53734 6.06693 92.85416 6.25636 curveto
92.1541 6.45036 91.45534 6.64824 90.75723 6.84807 curveto
90.04225 7.05309 89.32793 7.26071 88.61424 7.47157 curveto
87.885 7.68762 87.1564 7.9069 86.4291 8.12946 curveto
85.68622 8.35654 84.944 8.58751 84.20306 8.82108 curveto
83.44722 9.05983 82.69202 9.30118 81.93811 9.54643 curveto
81.16928 9.79622 80.40175 10.0499 79.63487 10.30617 curveto
78.85501 10.56699 78.07646 10.8317 77.29855 11.099 curveto
76.50702 11.37149 75.71742 11.64659 74.92848 11.92622 curveto
74.12657 12.21039 73.32596 12.49846 72.52663 12.78912 curveto
71.71564 13.08432 70.90659 13.38213 70.09818 13.68446 curveto
69.27745 13.99069 68.45866 14.30147 67.64117 14.6155 curveto
66.81267 14.93341 65.98608 15.2552 65.16017 15.58026 curveto
64.32387 15.90985 63.48952 16.24268 62.65645 16.5794 curveto
61.81366 16.92003 60.97217 17.26389 60.13197 17.61229 curveto
59.2827 17.96394 58.43536 18.32013 57.58934 18.67892 curveto
56.73486 19.0416 55.88104 19.40752 55.02983 19.77798 curveto
54.1708 20.15169 53.31375 20.5293 52.458 20.91014 curveto
51.59444 21.29488 50.73283 21.68286 49.87253 22.07474 curveto
49.00638 22.46921 48.14218 22.86757 47.27927 23.26982 curveto
46.40988 23.67532 45.5418 24.08406 44.67628 24.49734 curveto
43.80495 24.91258 42.93622 25.33235 42.06877 25.75537 curveto
41.19678 26.18033 40.32674 26.60983 39.45865 27.04259 curveto
38.58537 27.47794 37.71468 27.91716 36.84529 28.36029 curveto
35.97266 28.80472 35.10262 29.2524 34.23387 29.7046 curveto
33.3619 30.15811 32.4925 30.61617 31.62505 31.07747 curveto
30.75502 31.54005 29.88692 32.0059 29.02077 32.47627 curveto
28.15334 32.94731 27.28848 33.42288 26.42493 33.90169 curveto
25.56073 34.38115 24.69783 34.8632 23.83752 35.34981 curveto
22.97592 35.83705 22.11691 36.3282 21.25984 36.82323 curveto
20.40277 37.31827 19.54767 37.81589 18.69514 38.31807 curveto
17.84326 38.81958 16.99399 39.32565 16.14665 39.83496 curveto
15.30063 40.34361 14.45654 40.85551 13.61505 41.3713 curveto
12.77486 41.8858 11.9366 42.40419 11.10095 42.92648 curveto
10.2679 43.44746 9.43678 43.97235 8.60826 44.50047 curveto
7.78235 45.02664 6.95901 45.55606 6.13763 46.08873 curveto
5.3195 46.61945 4.50397 47.15405 3.69101 47.69255 curveto
2.88132 48.22847 2.0742 48.76762 1.2697 49.31067 curveto
0.46973 49.85046 -0.32764 50.39285 -1.12308 50.93979 curveto
-1.91331 51.48283 -2.7003 52.02979 -3.486 52.57996 curveto
-4.2665 53.12625 -5.04442 53.67642 -5.82037 54.2292 curveto
-6.5892 54.77744 -7.35608 55.32892 -8.12036 55.8843 curveto
-8.87816 56.43512 -9.63402 56.9892 -10.38727 57.54651 curveto
-11.13339 58.09865 -11.87756 58.654 -12.61914 59.21263 curveto
-13.35294 59.76541 -14.08412 60.32208 -14.81337 60.88199 curveto
-15.5342 61.43541 -16.25307 61.99208 -16.96933 62.55135 curveto
-17.67783 63.10478 -18.38371 63.6608 -19.08702 64.22006 curveto
-19.78123 64.77219 -20.47285 65.3282 -21.16252 65.88683 curveto
-21.84311 66.43831 -22.5211 66.99237 -23.19716 67.54904 curveto
-23.86346 68.09793 -24.52785 68.64941 -25.18896 69.20413 curveto
-25.84036 69.75043 -26.48917 70.3006 -27.13536 70.85274 curveto
-27.77184 71.39642 -28.40572 71.94272 -29.03699 72.4916 curveto
-29.6579 73.0314 -30.2762 73.57445 -30.89256 74.11943 curveto
-31.4979 74.6547 -32.10127 75.19255 -32.70206 75.733 curveto
-33.29117 76.26372 -33.87703 76.79703 -34.46161 77.33293 curveto
-35.03384 77.85782 -35.60478 78.38464 -36.17313 78.91406 curveto
-36.7298 79.43309 -37.28387 79.95473 -37.836 80.47832 curveto
-38.37581 80.99022 -38.91301 81.50406 -39.44827 82.02115 curveto
-39.9712 82.52592 -40.49089 83.03328 -41.00928 83.54259 curveto
-42.51968 85.03937 lineto
-43.00822 85.52727 -43.49419 86.01776 -43.97818 86.5102 curveto
-45.38348 87.95377 lineto
-45.83635 88.42285 -46.28856 88.89388 -46.73752 89.36685 curveto
-47.17352 89.82556 -47.60692 90.28621 -48.03836 90.74945 curveto
-48.45619 91.19777 -48.87143 91.64803 -49.28535 92.0996 curveto
-49.68501 92.53624 -50.08337 92.97418 -50.47914 93.41406 curveto
-50.8613 93.83838 -51.24149 94.26529 -51.62039 94.69284 curveto
-51.98436 95.10419 -52.34769 95.51682 -52.70778 95.9314 curveto
-53.7413 97.13168 lineto
-54.0696 97.51642 -54.39725 97.90245 -54.72229 98.2898 curveto
-55.65007 99.40508 lineto
-56.52466 100.47559 lineto
-57.34538 101.49875 lineto
-57.6036 101.82315 -57.86118 102.1482 -58.11617 102.47453 curveto
-58.83308 103.40167 lineto
-59.49875 104.2769 lineto
-60.11382 105.09958 lineto
-60.67827 105.86905 lineto
-61.19147 106.58469 lineto
-61.6573 107.24257 lineto
-62.07384 107.84206 lineto
-62.44235 108.3838 lineto
-62.76416 108.8652 lineto
-63.0399 109.28563 lineto
-63.11775 109.40436 -63.1956 109.52374 -63.27087 109.64377 curveto
-63.3325 109.74173 -63.39284 109.841 -63.45642 109.93832 curveto
-63.50574 110.01424 -63.55763 110.0895 -63.59981 110.16994 curveto
-63.6303 110.22769 -63.65625 110.28802 -63.69972 110.33603 curveto
-63.72697 110.36653 -63.76201 110.39508 -63.75941 110.43596 curveto
-63.75746 110.45801 -63.7672 110.47682 -63.77953 110.4697 curveto
-63.79185 110.46255 -63.78082 110.44504 -63.76071 110.4353 curveto
-63.72438 110.41713 -63.71594 110.37302 -63.70361 110.33409 curveto
-63.6835 110.2718 -63.64458 110.2186 -63.60954 110.16345 curveto
-63.56152 110.0869 -63.52196 110.00514 -63.48108 109.9247 curveto
-63.42853 109.82089 -63.37338 109.71838 -63.31953 109.61588 curveto
-63.12424 109.23697 lineto
-62.89845 108.78735 lineto
-62.64218 108.26831 lineto
-62.35736 107.67856 lineto
-62.04593 107.01678 lineto
-61.70792 106.28624 lineto
-61.34653 105.48367 lineto
-60.96245 104.60974 lineto
-60.55695 103.66638 lineto
-60.13197 102.65166 lineto
-59.68884 101.56686 lineto
-59.53378 101.18279 -59.37938 100.7974 -59.22755 100.412 curveto
-58.75262 99.18903 lineto
-58.26279 97.89597 lineto
-58.09344 97.4431 -57.92542 96.99025 -57.75996 96.53609 curveto
-57.58675 96.06052 -57.4161 95.58429 -57.24742 95.10742 curveto
-57.0716 94.6098 -56.89706 94.11087 -56.72513 93.61195 curveto
-56.54607 93.09225 -56.36894 92.57193 -56.19507 92.05093 curveto
-56.01405 91.50919 -55.83563 90.96614 -55.65916 90.4231 curveto
-55.4762 89.85994 -55.29518 89.29678 -55.11742 88.73233 curveto
-54.93315 88.14777 -54.75214 87.56255 -54.57307 86.97668 curveto
-54.38817 86.37135 -54.2052 85.76538 -54.02548 85.15875 curveto
-53.83992 84.53331 -53.65826 83.90721 -53.47855 83.28047 curveto
-53.29364 82.63492 -53.11067 81.98871 -52.93095 81.34186 curveto
-52.74605 80.6762 -52.56503 80.00987 -52.38661 79.34291 curveto
-52.203 78.65778 -52.02264 77.97266 -51.84486 77.28622 curveto
-51.66321 76.58292 -51.48479 75.87833 -51.30896 75.17374 curveto
-51.12924 74.45227 -50.95212 73.7295 -50.77824 73.00674 curveto
-50.60048 72.26712 -50.42595 71.52618 -50.25467 70.7846 curveto
-50.08014 70.02747 -49.90886 69.26967 -49.74081 68.51122 curveto
-49.56953 67.7372 -49.40085 66.96254 -49.23605 66.18723 curveto
-49.06801 65.39699 -48.90321 64.60545 -48.74231 63.81392 curveto
-48.57817 63.00746 -48.41791 62.20035 -48.26091 61.3926 curveto
-48.1013 60.57121 -47.94495 59.74919 -47.79247 58.92651 curveto
-47.6374 58.09085 -47.4869 57.2539 -47.33961 56.41696 curveto
-47.18974 55.56638 -47.04376 54.71515 -46.90102 53.86328 curveto
-46.75635 52.99973 -46.6149 52.13618 -46.47736 51.27133 curveto
-46.33852 50.3948 -46.20357 49.51762 -46.07251 48.6398 curveto
-45.9395 47.75095 -45.81104 46.86209 -45.68582 45.97194 curveto
-45.55931 45.07141 -45.43733 44.17088 -45.3186 43.2697 curveto
-45.19858 42.35878 -45.08244 41.44722 -44.9702 40.535 curveto
-44.8573 39.61307 -44.7483 38.69112 -44.6432 37.76852 curveto
-44.53745 36.83815 -44.4356 35.90712 -44.33762 34.97545 curveto
-44.239 34.03534 -44.14427 33.09523 -44.05345 32.15448 curveto
-43.96196 31.20657 -43.87437 30.25803 -43.79134 29.3095 curveto
-43.70764 28.35446 -43.62914 27.39877 -43.55386 26.44244 curveto
-43.4786 25.48029 -43.40659 24.51811 -43.33911 23.5553 curveto
-43.27164 22.58728 -43.20871 21.61928 -43.14967 20.65062 curveto
-43.08998 19.67677 -43.03418 18.70293 -42.98293 17.72908 curveto
-42.93167 16.75134 -42.8856 15.7736 -42.84279 14.79521 curveto
-42.79997 13.81358 -42.76039 12.83194 -42.726 11.85031 curveto
-42.69162 10.86543 -42.66177 9.88055 -42.63582 8.89503 curveto
-42.60986 7.9082 -42.58911 6.92073 -42.5716 5.93391 curveto
-42.55408 4.94514 -42.54109 3.95703 -42.53265 2.96826 curveto
-42.52423 1.97884 -42.51968 0.98943 -42.51968 0 curveto stroke
 0 0 0 setrgbcolor
129.65904 3.34529 moveto
(M) cmmi5 4.98132 fshow
136.59834 3.34529 moveto
(\(0\)) cmr5 4.98132 fshow
 0 3 dtransform truncate idtransform setlinewidth pop
newpath 127.55905 0 moveto 0 0 rlineto stroke
-60.77953 109.2244 moveto
(M) cmmi5 4.98132 fshow
-52.61792 114.711 moveto
(\020) cmex7 4.98137 fshow
-47.97063 111.1545 moveto
(2) cmr5 4.98132 fshow
-44.58043 111.1545 moveto
(\031) cmmi5 4.98132 fshow
 0 0.2419 dtransform truncate idtransform setlinewidth pop 0 setlinecap
newpath -47.97063 110.4697 moveto
-40.26152 110.4697 lineto stroke
-45.81113 106.5748 moveto
(3) cmr5 4.98132 fshow
-39.06602 114.711 moveto
(\021) cmex7 4.98137 fshow
 0 3 dtransform truncate idtransform setlinewidth pop 1 setlinecap
newpath -63.77953 110.4697 moveto 0 0 rlineto stroke
-62.49667 3.34529 moveto
(M) cmmi5 4.98132 fshow
-54.33507 3.34529 moveto
(\() cmr5 4.98132 fshow
-51.63687 3.34529 moveto
(\031) cmmi5 4.98132 fshow
-47.31798 3.34529 moveto
(\)) cmr5 4.98132 fshow
newpath -42.51968 0 moveto 0 0 rlineto stroke
40.02904 -9.4204 moveto
(1) cmr10 9.96265 fshow
2.09999 33.9993 moveto
(1) cmr10 9.96265 fshow
 0.5 0 dtransform exch truncate exch idtransform pop setlinewidth
newpath -42.51968 -1.27554 moveto
-42.51968 1.27554 lineto stroke
newpath 0 -1.27554 moveto
0 1.27554 lineto stroke
newpath 42.51968 -1.27554 moveto
42.51968 1.27554 lineto stroke
newpath 85.03937 -1.27554 moveto
85.03937 1.27554 lineto stroke
newpath 127.55905 -1.27554 moveto
127.55905 1.27554 lineto stroke
 0 0.5 dtransform truncate idtransform setlinewidth pop
newpath -1.27554 -127.55905 moveto
1.27554 -127.55905 lineto stroke
newpath -1.27554 -85.03937 moveto
1.27554 -85.03937 lineto stroke
newpath -1.27554 -42.51968 moveto
1.27554 -42.51968 lineto stroke
newpath -1.27554 0 moveto
1.27554 0 lineto stroke
newpath -1.27554 42.51968 moveto
1.27554 42.51968 lineto stroke
newpath -1.27554 85.03937 moveto
1.27554 85.03937 lineto stroke
newpath -1.27554 127.55905 moveto
1.27554 127.55905 lineto stroke
newpath -74.40945 0 moveto
138.18898 0 lineto stroke
newpath 134.49362 -1.5307 moveto
138.18898 0 lineto
134.49362 1.5307 lineto
 closepath
gsave fill grestore stroke
 0.5 0 dtransform exch truncate exch idtransform pop setlinewidth
newpath 0 -138.18898 moveto
0 138.18898 lineto stroke
 0 0.5 dtransform truncate idtransform setlinewidth pop
newpath 1.52995 134.49544 moveto
0 138.18898 lineto
-1.52995 134.49544 lineto
 closepath
gsave fill grestore stroke
showpage
%%EOF
