%!PS
%%BoundingBox: -114 -86 114 86 
%%HiResBoundingBox: -113.6358 -85.28935 113.6358 85.28935 
%%Creator: MetaPost 2.000
%%CreationDate: 2018.02.20:1432
%%Pages: 1
%*Font: cmmi5 4.98132 4.98132 4d:8000000001
%*Font: cmr5 4.98132 4.98132 28:c
%*Font: cmsy5 4.98132 4.98132 00:8
%%BeginProlog
%%EndProlog
%%Page: 1 1
 1 0 0 setrgbcolor 0 2 dtransform truncate idtransform setlinewidth pop
 [] 0 setdash 1 setlinecap 1 setlinejoin 10 setmiterlimit
newpath -14.17323 -56.6929 moveto
-14.17323 -56.6929 lineto
-14.93967 -53.49216 -15.88605 -50.3377 -17.00804 -47.24379 curveto
-17.84067 -44.9479 -18.76932 -42.6875 -19.84286 -40.49413 curveto
-20.69365 -38.75578 -21.63397 -37.06241 -22.67767 -35.4322 curveto
-23.55054 -34.06929 -24.49388 -32.75266 -25.5125 -31.49529 curveto
-26.40222 -30.3971 -27.34773 -29.34517 -28.34732 -28.34558 curveto
-29.25087 -27.44203 -30.19725 -26.58258 -31.18213 -25.76855 curveto
-32.09651 -25.01292 -33.0429 -24.29752 -34.01695 -23.62103 curveto
-34.93912 -22.98088 -35.8855 -22.37534 -36.85178 -21.80397 curveto
-37.77998 -21.25508 -38.72594 -20.73691 -39.68658 -20.24684 curveto
-40.61913 -19.77106 -41.56465 -19.3221 -42.52141 -18.89691 curveto
-43.45697 -18.48125 -44.4025 -18.08807 -45.35623 -17.71567 curveto
-46.29439 -17.3493 -47.23947 -17.00285 -48.19104 -16.67369 curveto
-49.13051 -16.34843 -50.07602 -16.04047 -51.02586 -15.74721 curveto
-51.96661 -15.45699 -52.91214 -15.18103 -53.86067 -14.91847 curveto
-54.8023 -14.65767 -55.74739 -14.40982 -56.6955 -14.17279 curveto
-57.63799 -13.93706 -58.58307 -13.71259 -59.53032 -13.4976 curveto
-60.47324 -13.28351 -61.41832 -13.07979 -62.36513 -12.88428 curveto
-63.30849 -12.68964 -64.25357 -12.50322 -65.19995 -12.32414 curveto
-66.14374 -12.14551 -67.0884 -11.97466 -68.03477 -11.8103 curveto
-68.97856 -11.64638 -69.92365 -11.48936 -70.86958 -11.33798 curveto
-71.81381 -11.18703 -72.75845 -11.04213 -73.7044 -10.90198 curveto
-74.64862 -10.76227 -75.5937 -10.62776 -76.53923 -10.498 curveto
-77.48344 -10.36867 -78.42853 -10.2441 -79.37404 -10.12343 curveto
-80.3187 -10.00275 -81.26334 -9.8864 -82.20886 -9.77394 curveto stroke
newpath 14.17323 56.6929 moveto
14.17323 56.6929 lineto
14.93967 53.49216 15.88605 50.3377 17.00804 47.24379 curveto
17.84067 44.9479 18.76932 42.6875 19.84286 40.49413 curveto
20.69365 38.75578 21.63397 37.06241 22.67767 35.4322 curveto
23.55054 34.06929 24.49388 32.75266 25.5125 31.49529 curveto
26.40222 30.3971 27.34773 29.34517 28.34732 28.34558 curveto
29.25087 27.44203 30.19725 26.58258 31.18213 25.76855 curveto
32.09651 25.01292 33.0429 24.29752 34.01695 23.62103 curveto
34.93912 22.98088 35.8855 22.37534 36.85178 21.80397 curveto
37.77998 21.25508 38.72594 20.73691 39.68658 20.24684 curveto
40.61913 19.77106 41.56465 19.3221 42.52141 18.89691 curveto
43.45697 18.48125 44.4025 18.08807 45.35623 17.71567 curveto
46.29439 17.3493 47.23947 17.00285 48.19104 16.67369 curveto
49.13051 16.34843 50.07602 16.04047 51.02586 15.74721 curveto
51.96661 15.45699 52.91214 15.18103 53.86067 14.91847 curveto
54.8023 14.65767 55.74739 14.40982 56.6955 14.17279 curveto
57.63799 13.93706 58.58307 13.71259 59.53032 13.4976 curveto
60.47324 13.28351 61.41832 13.07979 62.36513 12.88428 curveto
63.30849 12.68964 64.25357 12.50322 65.19995 12.32414 curveto
66.14374 12.14551 67.0884 11.97466 68.03477 11.8103 curveto
68.97856 11.64638 69.92365 11.48936 70.86958 11.33798 curveto
71.81381 11.18703 72.75845 11.04213 73.7044 10.90198 curveto
74.64862 10.76227 75.5937 10.62776 76.53923 10.498 curveto
77.48344 10.36867 78.42853 10.2441 79.37404 10.12343 curveto
80.3187 10.00275 81.26334 9.8864 82.20886 9.77394 curveto stroke
 0 0 0 setrgbcolor
31.34645 27.1011 moveto
(M) cmmi5 4.98132 fshow
38.28575 27.1011 moveto
(\() cmr5 4.98132 fshow
40.98395 27.1011 moveto
(t) cmmi5 4.98132 fshow
43.79175 27.1011 moveto
(\)) cmr5 4.98132 fshow
 0 3 dtransform truncate idtransform setlinewidth pop
newpath 28.34645 28.34645 moveto 0 0 rlineto stroke
-51.88655 -29.5918 moveto
(M) cmmi5 4.98132 fshow
-44.94725 -29.5918 moveto
(\() cmr5 4.98132 fshow
-42.24905 -29.5918 moveto
(\000) cmsy5 4.98132 fshow
-36.85255 -29.5918 moveto
(t) cmmi5 4.98132 fshow
-34.04475 -29.5918 moveto
(\)) cmr5 4.98132 fshow
newpath -28.34645 -28.34645 moveto 0 0 rlineto stroke
 0.5 0 dtransform exch truncate exch idtransform pop setlinewidth
newpath -85.03935 -2.83482 moveto
-85.03935 2.83482 lineto stroke
newpath -56.6929 -2.83482 moveto
-56.6929 2.83482 lineto stroke
newpath -28.34645 -2.83482 moveto
-28.34645 2.83482 lineto stroke
newpath 0 -2.83482 moveto
0 2.83482 lineto stroke
newpath 28.34645 -2.83482 moveto
28.34645 2.83482 lineto stroke
newpath 56.6929 -2.83482 moveto
56.6929 2.83482 lineto stroke
newpath 85.03935 -2.83482 moveto
85.03935 2.83482 lineto stroke
 0 0.5 dtransform truncate idtransform setlinewidth pop
newpath -2.83482 -56.6929 moveto
2.83482 -56.6929 lineto stroke
newpath -2.83482 -28.34645 moveto
2.83482 -28.34645 lineto stroke
newpath -2.83482 0 moveto
2.83482 0 lineto stroke
newpath -2.83482 28.34645 moveto
2.83482 28.34645 lineto stroke
newpath -2.83482 56.6929 moveto
2.83482 56.6929 lineto stroke
newpath -113.3858 0 moveto
113.3858 0 lineto stroke
newpath 109.69023 -1.53079 moveto
113.3858 0 lineto
109.69023 1.53079 lineto
 closepath
gsave fill grestore stroke
 0.5 0 dtransform exch truncate exch idtransform pop setlinewidth
newpath 0 -85.03935 moveto
0 85.03935 lineto stroke
 0 0.5 dtransform truncate idtransform setlinewidth pop
newpath 1.53046 81.34459 moveto
0 85.03935 lineto
-1.53046 81.34459 lineto
 closepath
gsave fill grestore stroke
showpage
%%EOF
