%!PS
%%BoundingBox: -160 -18 160 89 
%%HiResBoundingBox: -159.6988 -17.96654 159.6988 88.83267 
%%Creator: MetaPost 2.000
%%CreationDate: 2018.02.21:1005
%%Pages: 1
%*Font: cmmi5 4.98132 4.98132 4d:8
%*Font: cmr5 4.98132 4.98132 28:c08
%*Font: cmr10 9.96265 9.96265 31:8
%%BeginProlog
%%EndProlog
%%Page: 1 1
 0 0 0 setrgbcolor 0 2 dtransform truncate idtransform setlinewidth pop
 [] 0 setdash 1 setlinecap 1 setlinejoin 10 setmiterlimit
newpath -156.13992 5.76782 moveto
-153.79453 5.95921 -151.4502 6.16034 -149.10587 6.37228 curveto
-146.7637 6.58423 -144.42262 6.8059 -142.08263 7.03947 curveto
-139.74478 7.27304 -137.40802 7.51741 -135.07343 7.77478 curveto
-132.741 8.03214 -130.40965 8.30246 -128.08046 8.58685 curveto
-125.75452 8.87016 -123.43074 9.16861 -121.10803 9.4822 curveto
-118.79074 9.7947 -116.47453 10.12343 -114.16156 10.46945 curveto
-111.85292 10.81439 -109.54752 11.17557 -107.24536 11.55618 curveto
-104.9497 11.93573 -102.65619 12.33366 -100.36702 12.75322 curveto
-98.0854 13.17062 -95.80704 13.60855 -93.53409 14.0692 curveto
-91.26978 14.5277 -89.0098 15.00888 -86.75522 15.51494 curveto
-84.51146 16.01776 -82.27419 16.54546 -80.0434 17.10017 curveto
-77.82558 17.65166 -75.61426 18.23016 -73.41159 18.83788 curveto
-71.22514 19.44125 -69.04517 20.07275 -66.87602 20.7367 curveto
-64.72633 21.39413 -62.58638 22.08295 -60.45831 22.80637 curveto
-58.35297 23.5222 -56.25842 24.27156 -54.17903 25.0577 curveto
-52.12666 25.83409 -50.08727 26.64508 -48.06519 27.49718 curveto
-46.07553 28.3352 -44.10318 29.21109 -42.14922 30.12805 curveto
-40.23418 31.02664 -38.33861 31.96632 -36.46574 32.95033 curveto
-34.63829 33.90947 -32.83246 34.91187 -31.05368 35.95967 curveto
-29.32787 36.97612 -27.62585 38.03583 -25.95628 39.14203 curveto
-24.34618 40.2093 -22.76527 41.31876 -21.21896 42.47687 curveto
-19.74078 43.58414 -18.29504 44.73251 -16.88931 45.92955 curveto
-15.55928 47.0617 -14.26492 48.23495 -13.01382 49.4547 curveto
-11.84491 50.59334 -10.71492 51.77199 -9.63142 52.99173 curveto
-8.63551 54.11307 -7.67961 55.26901 -6.77345 56.46388 curveto
-5.95813 57.53981 -5.18498 58.6471 -4.45833 59.78465 curveto
-3.82251 60.78056 -3.22237 61.79916 -2.6817 62.85022 curveto
-2.22646 63.73584 -1.8134 64.642 -1.4187 65.55571 curveto
-1.10295 66.28561 -0.7991 67.02309 -0.6142 67.79623 curveto
-0.48012 68.35852 -0.40874 68.94028 -0.1849 69.47446 curveto
-0.04001 69.82048 0.15572 70.18922 -0.02379 70.51471 curveto
-0.11462 70.68123 -0.12868 70.86613 0 70.86613 curveto
0.12976 70.86722 0.11679 70.68123 0.02379 70.51254 curveto
-0.1568 70.18597 0.04001 69.81616 0.18599 69.46906 curveto
0.41199 68.93488 0.48227 68.35204 0.61636 67.78867 curveto
0.80127 67.01443 1.1062 66.27696 1.42303 65.54599 curveto
1.8188 64.63118 2.23296 63.72502 2.68819 62.83942 curveto
3.22993 61.78836 3.829 60.76758 4.4659 59.77167 curveto
5.19255 58.63411 5.96786 57.52791 6.78319 56.45198 curveto
7.68935 55.25711 8.64633 54.1001 9.64223 52.97874 curveto
10.7268 51.75793 11.8568 50.58035 13.0268 49.44171 curveto
14.27898 48.22197 15.57333 47.04874 16.90445 45.91658 curveto
18.31126 44.72063 19.757 43.57117 21.23518 42.46388 curveto
22.7815 41.30577 24.36348 40.19742 25.97466 39.13014 curveto
27.64532 38.02394 29.34625 36.96423 31.07314 35.94778 curveto
32.85193 34.90105 34.65775 33.89865 36.48628 32.93951 curveto
38.36023 31.95659 40.2558 31.01582 42.17084 30.11725 curveto
44.1248 29.20027 46.09824 28.3244 48.08789 27.48744 curveto
50.10999 26.63643 52.14937 25.82436 54.20174 25.04904 curveto
56.28114 24.26291 58.37567 23.51463 60.48103 22.7988 curveto
62.60909 22.07538 64.75012 21.38657 66.89981 20.72913 curveto
69.06895 20.06519 71.24893 19.43477 73.43538 18.83139 curveto
75.63805 18.22368 77.84937 17.64624 80.06718 17.09477 curveto
82.29906 16.54004 84.53633 16.01344 86.78009 15.50954 curveto
89.03467 15.00348 91.29356 14.52228 93.55788 14.0638 curveto
95.83191 13.60315 98.11028 13.16629 100.39189 12.7489 curveto
102.68106 12.33043 104.97456 11.9325 107.27132 11.55295 curveto
109.57347 11.17232 111.87888 10.81116 114.18752 10.4662 curveto
116.50049 10.12126 118.8167 9.79254 121.13399 9.47896 curveto
123.45561 9.16536 125.77939 8.86691 128.10533 8.5836 curveto
130.43452 8.29922 132.76587 8.02997 135.0983 7.77261 curveto
137.43398 7.51526 139.77074 7.26979 142.10857 7.03622 curveto
144.44858 6.80266 146.78966 6.58206 149.13182 6.37012 curveto
151.47615 6.15927 153.82155 5.95706 156.16696 5.76566 curveto stroke
 1 0 0 setrgbcolor
newpath 0 70.86613 moveto
0.0054 70.74828 0.01297 70.6304 0.02379 70.51363 curveto
0.05623 70.16327 0.1157 69.81725 0.18599 69.4723 curveto
0.3017 68.90569 0.44768 68.34555 0.61528 67.79192 curveto
0.8456 67.03174 1.11917 66.28561 1.42087 65.55139 curveto
1.80042 64.6301 2.2243 63.72827 2.68495 62.84482 curveto
3.23102 61.79701 3.82683 60.77515 4.46158 59.77817 curveto
5.18607 58.63953 5.96138 57.53333 6.77779 56.4574 curveto
7.68394 55.26253 8.64091 54.10658 9.63683 52.98524 curveto
10.7214 51.7655 11.8514 50.58685 13.02031 49.4482 curveto
14.27249 48.22845 15.56685 47.05522 16.89796 45.92307 curveto
18.30478 44.72711 19.74944 43.57765 21.22762 42.47037 curveto
22.77393 41.31227 24.35483 40.2039 25.96494 39.13663 curveto
27.63559 38.02934 29.33652 36.96964 31.0634 35.95319 curveto
32.8422 34.90538 34.64803 33.90407 36.47655 32.94493 curveto
38.34941 31.96199 40.245 31.02124 42.16003 30.12265 curveto
44.114 29.2046 46.08743 28.3298 48.07707 27.49178 curveto
50.09917 26.64076 52.13748 25.82867 54.18983 25.05336 curveto
56.26924 24.26724 58.36378 23.51895 60.46913 22.80312 curveto
62.5972 22.07971 64.73824 21.38982 66.88791 20.73236 curveto
69.05707 20.06844 71.23703 19.43694 73.42348 18.83463 curveto
75.62616 18.228 77.83748 17.64949 80.05528 17.098 curveto
82.28607 16.54329 84.52335 16.01451 86.76712 15.5117 curveto
89.02168 15.00563 91.28168 14.52553 93.54597 14.06705 curveto
95.82002 13.6064 98.09839 13.16846 100.37999 12.75105 curveto
102.66917 12.3315 104.96268 11.93358 107.25835 11.55403 curveto
109.5605 11.1734 111.86589 10.81223 114.17455 10.46729 curveto
116.4875 10.12234 118.80371 9.79362 121.12102 9.48111 curveto
123.44371 9.16753 125.76749 8.87016 128.09343 8.58577 curveto
130.42262 8.30138 132.7529 8.03105 135.08533 7.7737 curveto
137.421 7.51634 139.75775 7.27087 142.0956 7.03731 curveto
144.4356 6.80374 146.77669 6.58315 149.11885 6.3712 curveto
151.46317 6.16034 153.80858 5.95813 156.15399 5.76674 curveto stroke
 0 0 0 setrgbcolor
-17.8259 74.21143 moveto
(M) cmmi5 4.98132 fshow
-10.8866 74.21143 moveto
(\(0\)) cmr5 4.98132 fshow
 0 3 dtransform truncate idtransform setlinewidth pop
newpath 0 70.86613 moveto 0 0 rlineto stroke
68.37549 -9.4204 moveto
(1) cmr10 9.96265 fshow
2.09999 72.96613 moveto
(1) cmr10 9.96265 fshow
 0.5 0 dtransform exch truncate exch idtransform pop setlinewidth
newpath -141.73227 -2.1259 moveto
-141.73227 2.1259 lineto stroke
newpath -70.86613 -2.1259 moveto
-70.86613 2.1259 lineto stroke
newpath 0 -2.1259 moveto
0 2.1259 lineto stroke
newpath 70.86613 -2.1259 moveto
70.86613 2.1259 lineto stroke
newpath 141.73227 -2.1259 moveto
141.73227 2.1259 lineto stroke
 0 0.5 dtransform truncate idtransform setlinewidth pop
newpath -2.1259 0 moveto
2.1259 0 lineto stroke
newpath -2.1259 70.86613 moveto
2.1259 70.86613 lineto stroke
newpath -159.4488 0 moveto
159.4488 0 lineto stroke
newpath 155.75345 -1.5307 moveto
159.4488 0 lineto
155.75345 1.5307 lineto
 closepath
gsave fill grestore stroke
 0.5 0 dtransform exch truncate exch idtransform pop setlinewidth
newpath 0 -17.71654 moveto
0 88.58267 lineto stroke
 0 0.5 dtransform truncate idtransform setlinewidth pop
newpath 1.5307 84.88731 moveto
0 88.58267 lineto
-1.5307 84.88731 lineto
 closepath
gsave fill grestore stroke
showpage
%%EOF
