input TEX;

verbatimtex
%&latex
 \documentclass{article}
 \usepackage[latin1]{inputenc}
 \usepackage[frenchb]{babel}
 \usepackage{amsmath}
 \begin{document}
etex

vardef exp (expr x) = mexp(256)**x enddef; 
vardef sinh (expr x) = (exp(x)-exp(-x))/2 enddef;
vardef cosh (expr x) = (exp(x)+exp(-x))/2 enddef;
vardef tanh (expr x) = (sinh(x)/cosh(x)) enddef;

vardef funca (expr X) = 
  X-tanh(X)
enddef;

vardef funcb (expr X) = 
 1/cosh(X)
enddef;

outputtemplate := "tractrice.mps";
beginfig(1)
  u:=2.5cm;

   % Graphe de la fonction

  path graphe, grapheetude,bissectrice;  
  pair A, B, C, D, I, J;
  A:=(0,u); 
 % B:=(funca(45)*u,funcb(45)*u);
 % C:=(funca(90)*u,funcb(90)*u);
 % D:=(funca(180)*u,funcb(180)*u);
  I:=(u,0); J:=(0,u);
    
  % Fonction complète
  graphe=(funca(-3.2), funcb(-3.2)) for t=-3.1 step .1 until 3.3: ..(funca(t), funcb(t)) endfor;
  % Portion d'étude
  grapheetude=(funca(0), funcb(0)) for t=0.1 step .1 until 3.3: ..(funca(t), funcb(t)) endfor;
  draw graphe scaled u withpen pencircle scaled 2bp withcolor black;  
  draw grapheetude scaled u withpen pencircle scaled 2bp withcolor red;
  
 dotlabel.ulft(btex \tiny $M(0)$ etex, A);
%  dotlabel.lft(btex\tiny  $M\left(\frac{\pi}{4}\right)$ etex, B);
  label.bot(btex $1$ etex, I);
  label.urt(btex $1$ etex, J);
  for i=-2 upto 2: draw (i*u,-0.03u)--(i*u,0.03u); endfor;
  for j=0 upto 1: draw (-0.03u,j*u)--(0.03u,j*u);  endfor;
   
  drawarrow (-2.25u,0)--(2.25u,0);
  drawarrow (0,-0.25u)--(0,1.25u);

endfig;

end
