%!PS-Adobe-3.0 EPSF-3.0
%%Creator: EpsGraphics 1.0.0 by Thomas Abeel, http://www.sourceforge.net/epsgraphics/
%%Title: GeoGebra, http://www.geogebra.org/
%%CreationDate: Fri Aug 22 15:38:20 CEST 2014
%%BoundingBox: 0 0 401 240
%%DocumentData: Clean7Bit
%%LanguageLevel: 2
%%DocumentProcessColors: Black
%%ColorUsage: Color
%%Origin: 0 0
%%Pages: 1
%%Page: 1 1
%%EndComments

gsave
0.0 240.0 translate
0.0 0.0 0.0 setrgbcolor
0.0 0.0 0.0 setrgbcolor
gsave
newpath
0.0 -0.0 moveto
401.3766437160746 -0.0 lineto
401.3766437160746 -240.1339575335826 lineto
0.0 -240.1339575335826 lineto
0.0 -0.0 lineto
closepath
clip
newpath
1.0 1.0 1.0 setrgbcolor
newpath
0.0 -0.0 moveto
401.3766437160746 -0.0 lineto
401.3766437160746 -240.1339575335826 lineto
0.0 -240.1339575335826 lineto
0.0 -0.0 lineto
closepath
fill
newpath
0.0 0.0 0.0 setrgbcolor
1.0 setlinewidth
10.0 setmiterlimit
0 setlinejoin
0 setlinecap
[ ] 0 setdash
newpath
37.39333603442981 -1.3840573921243953 moveto
37.39333603442981 -240.1339575335826 lineto
stroke
newpath
1.0 setlinewidth
10.0 setmiterlimit
0 setlinejoin
0 setlinecap
[ ] 0 setdash
newpath
37.73935038246091 -0.6920286960621976 moveto
35.317249946243216 -2.7681147842487905 lineto
stroke
newpath
1.0 setlinewidth
10.0 setmiterlimit
0 setlinejoin
0 setlinecap
[ ] 0 setdash
newpath
37.04732168639871 -0.6920286960621976 moveto
39.46942212261641 -2.7681147842487905 lineto
stroke
newpath
1.0 setlinewidth
10.0 setmiterlimit
0 setlinejoin
0 setlinecap
[ ] 0 setdash
newpath
0.0 -122.18845279539691 moveto
399.9925863239502 -122.18845279539691 lineto
stroke
newpath
1.0 setlinewidth
10.0 setmiterlimit
0 setlinejoin
0 setlinecap
[ ] 0 setdash
newpath
400.6846150200124 -122.53446714342802 moveto
398.60852893182584 -120.11236670721033 lineto
stroke
newpath
1.0 setlinewidth
10.0 setmiterlimit
0 setlinejoin
0 setlinecap
[ ] 0 setdash
newpath
400.6846150200124 -121.84243844736582 moveto
398.60852893182584 -124.26453888358351 lineto
stroke
newpath
1.0 setlinewidth
10.0 setmiterlimit
0 setlinejoin
0 setlinecap
[ ] 0 setdash
newpath
37.39333603442981 -122.18845279539691 moveto
37.39333603442981 -124.95656757964571 lineto
stroke
newpath
1.0 setlinewidth
10.0 setmiterlimit
0 setlinejoin
0 setlinecap
[ ] 0 setdash
newpath
79.9130210737999 -122.18845279539691 moveto
79.9130210737999 -124.95656757964571 lineto
stroke
newpath
1.0 setlinewidth
10.0 setmiterlimit
0 setlinejoin
0 setlinecap
[ ] 0 setdash
newpath
122.43270611316997 -122.18845279539691 moveto
122.43270611316997 -124.95656757964571 lineto
stroke
newpath
1.0 setlinewidth
10.0 setmiterlimit
0 setlinejoin
0 setlinecap
[ ] 0 setdash
newpath
164.95239115254006 -122.18845279539691 moveto
164.95239115254006 -124.95656757964571 lineto
stroke
newpath
1.0 setlinewidth
10.0 setmiterlimit
0 setlinejoin
0 setlinecap
[ ] 0 setdash
newpath
207.47207619191013 -122.18845279539691 moveto
207.47207619191013 -124.95656757964571 lineto
stroke
newpath
1.0 setlinewidth
10.0 setmiterlimit
0 setlinejoin
0 setlinecap
[ ] 0 setdash
newpath
249.9917612312802 -122.18845279539691 moveto
249.9917612312802 -124.95656757964571 lineto
stroke
newpath
1.0 setlinewidth
10.0 setmiterlimit
0 setlinejoin
0 setlinecap
[ ] 0 setdash
newpath
292.5114462706503 -122.18845279539691 moveto
292.5114462706503 -124.95656757964571 lineto
stroke
newpath
1.0 setlinewidth
10.0 setmiterlimit
0 setlinejoin
0 setlinecap
[ ] 0 setdash
newpath
335.0311313100204 -122.18845279539691 moveto
335.0311313100204 -124.95656757964571 lineto
stroke
newpath
1.0 setlinewidth
10.0 setmiterlimit
0 setlinejoin
0 setlinecap
[ ] 0 setdash
newpath
377.5508163493904 -122.18845279539691 moveto
377.5508163493904 -124.95656757964571 lineto
stroke
newpath
1.0 setlinewidth
10.0 setmiterlimit
0 setlinejoin
0 setlinecap
[ ] 0 setdash
newpath
34.62522125018102 -207.2278228741371 moveto
37.39333603442981 -207.2278228741371 lineto
stroke
newpath
1.0 setlinewidth
10.0 setmiterlimit
0 setlinejoin
0 setlinecap
[ ] 0 setdash
newpath
34.62522125018102 -164.708137834767 moveto
37.39333603442981 -164.708137834767 lineto
stroke
newpath
1.0 setlinewidth
10.0 setmiterlimit
0 setlinejoin
0 setlinecap
[ ] 0 setdash
newpath
34.62522125018102 -122.18845279539691 moveto
37.39333603442981 -122.18845279539691 lineto
stroke
newpath
1.0 setlinewidth
10.0 setmiterlimit
0 setlinejoin
0 setlinecap
[ ] 0 setdash
newpath
34.62522125018102 -79.66876775602681 moveto
37.39333603442981 -79.66876775602681 lineto
stroke
newpath
1.0 setlinewidth
10.0 setmiterlimit
0 setlinejoin
0 setlinecap
[ ] 0 setdash
newpath
34.62522125018102 -37.149082716656714 moveto
37.39333603442981 -37.149082716656714 lineto
stroke
newpath
1.0 0.0 0.0 setrgbcolor
2.0 setlinewidth
10.0 setmiterlimit
1 setlinejoin
1 setlinecap
[ ] 0 setdash
newpath
50.545074385880866 6.768480662682459 moveto
50.722801665291 1.5306913402311737 lineto
50.90052894470114 -3.595391131109811 lineto
51.07825622411128 -8.613379922063233 lineto
51.25598350352142 -13.526698791963652 lineto
51.43370550317161 -18.338590173389875 lineto
51.61143278258175 -23.052131506422295 lineto
51.789160061991886 -27.670245138192797 lineto
51.96688734140203 -32.1957042626147 lineto
52.14461462081216 -36.63114347990266 lineto
52.32233662046235 -40.97907067603254 lineto
52.500063899872494 -45.241867022741445 lineto
52.67779117928263 -49.42181073644745 lineto
52.85551845869277 -53.52105331932986 lineto
53.033245738102906 -57.541659157528805 lineto
53.210967737753094 -61.48559760150534 lineto
53.388695017163236 -65.35474296604144 lineto
53.56642229657337 -69.15087453023999 lineto
53.74414957598351 -72.87571349584442 lineto
53.921876855393656 -76.53089130867905 lineto
54.099598855043844 -80.11796021816892 lineto
54.27732613445398 -83.63842495589958 lineto
54.45505341386412 -87.09371105705729 lineto
54.8105079726844 -93.81416438336181 lineto
55.16595725174472 -100.28961044922347 lineto
55.521411810565 -106.5294841856715 lineto
55.87686108962533 -112.54251831566188 lineto
56.232315648445606 -118.33674863383732 lineto
56.58777020726588 -123.91960904220628 lineto
56.943219486326214 -129.29799490726242 lineto
57.29867404514649 -134.478326417104 lineto
57.65412332420682 -139.4665591409537 lineto
58.0095778830271 -144.26823682675817 lineto
58.365032441847376 -148.88857587734728 lineto
58.7204817209077 -153.33242311235435 lineto
59.075936279727976 -157.6043508038954 lineto
59.43138555878831 -161.7086461170492 lineto
59.786840117608584 -165.64935334793682 lineto
60.14229467642886 -169.4302844832416 lineto
60.49774395548919 -173.0550614382887 lineto
60.85319851430947 -176.527126616565 lineto
61.56410235219007 -183.02594089996182 lineto
62.27500619007068 -188.95109870535765 lineto
62.985910027951284 -194.3248595006983 lineto
63.69681914559184 -199.16787770690505 lineto
64.40772298347244 -203.49939276923283 lineto
65.11862682135305 -207.3375670619069 lineto
65.82953065923365 -210.69963372140145 lineto
67.25134361475482 -216.0607864499834 lineto
68.67315129051603 -219.70861483696874 lineto
69.38405512839662 -220.9276480521208 lineto
69.73950968721691 -221.3923725228498 lineto
70.09495896627723 -221.76301167128398 lineto
70.45041352509752 -222.04133949676628 lineto
70.80586808391779 -222.2291722367192 lineto
71.16131736297812 -222.32832612856527 lineto
71.5167719217984 -222.34059629068722 lineto
71.87222120085873 -222.26775672242798 lineto
72.227675759679 -222.1116025421703 lineto
72.58313031849929 -221.8739288682969 lineto
72.93857959755961 -221.55653081919047 lineto
73.64948343544022 -220.6897209497698 lineto
74.36039255308077 -219.5255338809701 lineto
75.78220022884197 -216.36255640964015 lineto
77.20400790460319 -212.1830350767301 lineto
78.62582086012435 -207.10295564880403 lineto
80.04762853588556 -201.23847284474448 lineto
81.46944149140673 -194.70569914535434 lineto
82.18034532928733 -191.22479564892308 lineto
82.89124916716793 -187.62005010312328 lineto
83.60215300504854 -183.90565450269835 lineto
84.31305684292914 -180.09573748527245 lineto
85.0239659605697 -176.204279855191 lineto
85.7348697984503 -172.24507234544137 lineto
86.44577363633091 -168.23173673669248 lineto
87.15667747421152 -164.1777047382551 lineto
87.86758131209213 -160.0961546309625 lineto
88.57849042973268 -156.00000070765037 lineto
89.28938898785333 -151.90191439219683 lineto
90.00029810549388 -147.81423976336313 lineto
90.71120722313444 -143.74901467383347 lineto
91.4221057812551 -139.71792851213533 lineto
92.13301489889565 -135.73231164311977 lineto
92.84391345701631 -131.80311428892142 lineto
93.55482257465687 -127.94090652895858 lineto
94.26573169229742 -124.15579382377402 lineto
94.97663025041807 -120.45749093167429 lineto
95.68753936805862 -116.8552479920904 lineto
97.10934704381984 -109.9735877552568 lineto
98.53115471958105 -103.57522618465354 lineto
99.95296239534227 -97.7165827950978 lineto
101.37478063062338 -92.44570340212736 lineto
102.79658830638458 -87.80207533040233 lineto
104.2183959821458 -83.8165059792263 lineto
105.64020365790701 -80.51106474518699 lineto
108.48382956894932 -75.98549738568612 lineto
108.83927356824971 -75.61596698684126 lineto
109.19472812706998 -75.28976757789953 lineto
109.90563724471053 -74.7666595216522 lineto
110.6165358028312 -74.41447313424048 lineto
110.97199036165146 -74.30181889620428 lineto
111.32744492047175 -74.23103843432524 lineto
112.0383540381123 -74.21371026217196 lineto
112.39379803741268 -74.26638642718517 lineto
112.74925259623296 -74.35939467845037 lineto
113.46016171387352 -74.66456480351442 lineto
114.17106027199416 -75.12526609716215 lineto
114.88196938963472 -75.73715331695536 lineto
115.59287850727527 -76.49549051821963 lineto
117.01468618303649 -78.43077596808082 lineto
119.8583015345589 -83.81256199854425 lineto
121.28010921032012 -87.1557535162204 lineto
122.70192744560123 -90.85881875179432 lineto
124.12373512136244 -94.86210169759993 lineto
125.54554279712366 -99.10408259070908 lineto
126.96735047288486 -103.52221739476352 lineto
128.3891581486461 -108.0536875258876 lineto
129.8109763839272 -112.63613901908118 lineto
131.23278405968838 -117.20844281365241 lineto
132.6545917354496 -121.71138112201098 lineto
134.07639941121082 -126.08831267942183 lineto
135.49820708697203 -130.2857851961592 lineto
136.92002532225314 -134.25412669062095 lineto
138.34183299801435 -137.94793122724397 lineto
139.76364067377557 -141.32651297585963 lineto
142.60725602529797 -147.00101945742688 lineto
145.4508819363403 -151.05921190670423 lineto
146.16178049446097 -151.8043655473753 lineto
146.8726896121015 -152.43910884798865 lineto
148.29449728786273 -153.37505189418422 lineto
148.649951846683 -153.53942138092287 lineto
149.0054064055033 -153.67598765176902 lineto
149.71630496362394 -153.8660062123409 lineto
150.42721408126448 -153.94586786133257 lineto
151.13812319890505 -153.91670246737317 lineto
151.8490217570257 -153.77994612516886 lineto
152.55993087466626 -153.53740451262226 lineto
153.2708294327869 -153.1911789741932 lineto
153.98173855042748 -152.74367708041848 lineto
155.40354622618867 -151.5560689964841 lineto
156.82535390194988 -149.99971191817735 lineto
159.6689798129922 -145.901815674082 lineto
162.51259516451464 -140.7262570672345 lineto
165.35622107555696 -134.79214478896483 lineto
168.19983642707936 -128.44357135468258 lineto
171.0434517786018 -122.03125009877363 lineto
173.88707768964412 -115.89451119317336 lineto
176.73069304116655 -110.34451201072825 lineto
179.57430839268895 -105.649559392537 lineto
182.4179448632512 -102.02307179526636 lineto
183.8397419794925 -100.65994337158061 lineto
185.2615602147736 -99.61474097299619 lineto
186.68335733101492 -98.89535256087721 lineto
187.39426644865546 -98.65908330315028 lineto
188.10517556629603 -98.50522053871056 lineto
189.52699380157713 -98.44338399018547 lineto
190.2378818001779 -98.53409026611281 lineto
190.94879091781846 -98.70456315535274 lineto
192.37060915309956 -99.2792967043834 lineto
193.79240626934086 -100.15417404700646 lineto
195.21422450462197 -101.31204652290691 lineto
196.63604273990308 -102.73231250876296 lineto
199.4796580914255 -106.26250784408 lineto
202.32327344294794 -110.52459406307574 lineto
205.16688879447037 -115.26757137776497 lineto
208.01050414599277 -120.22361868496431 lineto
210.854140616555 -125.12258122759285 lineto
213.69775596807742 -129.7060675537365 lineto
216.54137131959985 -133.74054332132198 lineto
219.38498667112225 -137.02873557960726 lineto
222.22860202264468 -139.418819551493 lineto
223.6504202579258 -140.24371868643686 lineto
225.0722384932069 -140.81096553585957 lineto
226.49403560944822 -141.1168009106772 lineto
227.20494472708876 -141.17149922375097 lineto
227.91585384472933 -141.16103473953166 lineto
229.33765096097065 -140.94696159263117 lineto
230.75946919625176 -140.4812762055914 lineto
232.18128743153287 -139.7739256461566 lineto
233.60308454777416 -138.83798259996104 lineto
236.4466998992966 -136.3465377965705 lineto
239.2903363698588 -133.16398297534892 lineto
242.13395172138124 -129.4795341733559 lineto
244.97756707290364 -125.50382213400503 lineto
247.82118242442607 -121.45718179949655 lineto
250.6647977759485 -117.5578045294913 lineto
253.50843424651072 -114.01028102202098 lineto
256.35204959803315 -110.99513682926879 lineto
259.1956649495556 -108.6599729203747 lineto
260.61748318483666 -107.7827196857745 lineto
262.039280301078 -107.11242248166323 lineto
263.4610985363591 -106.65552261517892 lineto
264.8828956526004 -106.41552584692786 lineto
266.3047138878815 -106.39297071242486 lineto
267.7265321231626 -106.58548131969278 lineto
269.14832923940395 -106.9877884683023 lineto
270.57014747468503 -107.59188804217042 lineto
273.41376282620746 -109.36055482755461 lineto
276.2573781777299 -111.77842089629304 lineto
279.1009935292523 -114.70047236162085 lineto
281.94462999981454 -117.95822152403902 lineto
284.78824535133697 -121.36913652258362 lineto
287.6318607028594 -124.74671511680894 lineto
290.4754760543818 -127.91043175453176 lineto
293.3190914059042 -130.69523058022003 lineto
296.1627278764664 -132.95997305091163 lineto
299.00634322798885 -134.59437554078752 lineto
300.42814034423014 -135.15052433479698 lineto
301.8499585795113 -135.524299660641 lineto
303.27177681479236 -135.71258645994956 lineto
304.6935739310337 -135.71482507816802 lineto
306.1153921663148 -135.5329584669577 lineto
307.53718928255614 -135.17138994611625 lineto
310.38082575311836 -133.93855543845697 lineto
313.2244411046408 -132.09689069201508 lineto
316.06805645616316 -129.75792535595758 lineto
318.9116718076856 -127.05754989185708 lineto
321.755287159208 -124.14826488608645 lineto
324.59892362977024 -121.19076511245967 lineto
327.44253898129267 -118.34513289263666 lineto
330.2861543328151 -115.76233768260497 lineto
333.12976968433753 -113.57632699227592 lineto
335.97338503585996 -111.89718381659046 lineto
338.8170215064222 -110.8057096018112 lineto
340.2388186226635 -110.49662189486484 lineto
341.66063685794455 -110.34965449691877 lineto
344.504252209467 -110.54174272339075 lineto
345.9260704447481 -110.87521236178254 lineto
347.3478675609894 -111.3597042537614 lineto
350.19148291251184 -112.74801713240484 lineto
353.03511938307406 -114.62156106942004 lineto
355.8787136155567 -116.87066489114207 lineto
358.7223500861189 -119.36742113304153 lineto
361.56598655668114 -121.97288763229511 lineto
364.4095807891637 -124.54470094163246 lineto
367.25321725972594 -126.94476365982217 lineto
370.0968114922086 -129.04660441704098 lineto
372.9404479627708 -130.7419564557705 lineto
375.784084433333 -131.94622746210456 lineto
378.62767866581567 -132.60266001658923 lineto
380.04949690109675 -132.71599534365888 lineto
381.4713151363779 -132.68496091467745 lineto
384.3149093688605 -132.19811424976123 lineto
385.7367276041416 -131.75124592718043 lineto
387.15854583942274 -131.1777056038983 lineto
390.00218230998496 -129.68743000111579 lineto
392.84577654246755 -127.81526936120729 lineto
395.68941301302976 -125.66838169210186 lineto
398.5330072455124 -123.36700824688269 lineto
401.3766437160746 -121.0378104667312 lineto
stroke
newpath
0.0 0.0 1.0 setrgbcolor
2.0 setlinewidth
10.0 setmiterlimit
1 setlinejoin
0 setlinecap
[ 2.0 3.0 ] 0 setdash
newpath
-3.4601434803109883 -105.18057877964887 moveto
404.8367871963856 -105.18057877964887 lineto
stroke
newpath
0.0 0.0 1.0 setrgbcolor
0.0 0.0 1.0 setrgbcolor
2.0 setlinewidth
10.0 setmiterlimit
1 setlinejoin
0 setlinecap
[ 2.0 3.0 ] 0 setdash
newpath
42.28944175839585 -97.53639448758135 moveto
42.28944175839585 -97.53639448758135 lineto
41.85692381046694 -97.86078294852803 41.58660011234643 -98.18517139497342 41.47847063019797 -98.5095598414188 curveto
41.37034114321574 -98.61768932840104 41.31627640455839 -98.7258188105495 41.31627640455839 -98.83394829269797 curveto
41.31627640455839 -99.3745957276091 41.7487943524873 -99.64491942089586 42.61383020967501 -99.64491942089586 curveto
42.72195969665724 -99.64491942089586 42.8300891788057 -99.64491942089586 42.93821866095416 -99.64491942089586 curveto
43.695125069829764 -99.64491942089586 44.18170772741344 -99.48272519042251 44.397966691710366 -99.15833674397712 curveto
44.506096178692594 -99.15833674397712 44.56016091734994 -99.15833674397712 44.56016091734994 -99.15833674397712 curveto
44.56016091734994 -99.0502072569949 44.56016091734994 -98.99614251833755 44.56016091734994 -98.99614251833755 curveto
44.66829040433217 -98.99614251833755 44.72235514298952 -99.05020726182866 44.72235514298952 -99.15833674397712 curveto
44.72235514298952 -99.26646623095935 44.61422565600729 -99.42866045659893 44.397966691710366 -99.64491942089586 curveto
43.96544874378145 -99.96930788184254 43.42480132820537 -100.13150209781459 42.77602443531459 -100.13150209781459 curveto
42.12724751342122 -100.13150209781459 41.64066485100378 -99.91524312385013 41.31627640455839 -99.48272519525628 curveto
41.20814691757616 -99.26646622129182 41.15408217891881 -99.0502072569949 41.15408217891881 -98.83394829269797 curveto
41.15408217891881 -98.50955983175129 41.31627640939215 -98.13110664181478 41.64066485583754 -97.69858871322093 curveto
41.74879434281977 -97.59045922623869 41.856923824968234 -97.53639448758135 41.9650533071167 -97.53639448758135 curveto
41.74879433315224 -97.32013551361689 41.64066485583754 -97.04981180582884 41.64066485583754 -96.72542335938346 curveto
41.64066485583754 -96.29290541145454 41.91098857329311 -95.96851696984292 42.451635984035434 -95.752258005546 curveto
42.88415393196435 -95.4278695445993 43.37073660404931 -95.26567532862725 43.91138401479163 -95.26567532862725 curveto
44.343901962720544 -95.26567532862725 44.722355147823286 -95.37380481560949 45.046743594268676 -95.59006377990642 curveto
45.154873081250905 -95.69819326688865 45.20893781990825 -95.80632274903711 45.20893781990825 -95.91445223118556 curveto
45.20893781990825 -96.0225817181678 45.15487307641714 -96.07664645682515 45.046743594268676 -96.07664645682515 curveto
45.046743594268676 -96.07664645682515 45.046743594268676 -96.07664645682515 45.046743594268676 -96.07664645682515 curveto
44.93861410728645 -96.07664645682515 44.830484625137984 -96.07664645682515 44.72235514298952 -96.07664645682515 curveto
44.506096169025064 -95.86038748286069 44.23577246123702 -95.752258005546 43.91138401479163 -95.752258005546 curveto
43.154477605916036 -95.752258005546 42.61383020484124 -95.91445223601934 42.28944175839585 -96.23884068246473 curveto
42.073182784431395 -96.34697016944696 41.9650533071167 -96.50916439508653 41.9650533071167 -96.72542335938346 curveto
41.9650533071167 -97.04981182033013 42.073182794098926 -97.2660707797933 42.28944175839585 -97.37420026194177 curveto
42.61383021934254 -97.26607077495953 42.93821866578793 -97.21200603630218 43.26260711223332 -97.21200603630218 curveto
43.80325454714446 -97.21200603630218 44.07357824043121 -97.2660707797933 44.07357824043121 -97.37420026194177 curveto
44.07357824043121 -97.59045923590622 43.80325452297564 -97.69858871322093 43.26260711223332 -97.69858871322093 curveto
42.830089164304404 -97.69858871322093 42.50570072269278 -97.64452396972982 42.28944175839585 -97.53639448758135 curveto
closepath
42.61383020967501 -97.53639448758135 moveto
42.72195969665724 -97.53639448758135 42.93821866578793 -97.53639448758135 43.26260711223332 -97.53639448758135 curveto
43.478866086197776 -97.53639448758135 43.64106030700359 -97.48232974409024 43.749189789152055 -97.37420026194177 curveto
43.64106030216983 -97.37420026194177 43.478866076530245 -97.37420026194177 43.26260711223332 -97.37420026194177 curveto
43.04634813826886 -97.37420026194177 42.830089173971935 -97.42826500543288 42.61383020967501 -97.53639448758135 curveto
closepath
fill
newpath
0.0 0.0 1.0 setrgbcolor
0.0 0.0 1.0 setrgbcolor
2.0 setlinewidth
10.0 setmiterlimit
1 setlinejoin
0 setlinecap
[ 2.0 3.0 ] 0 setdash
newpath
-3.4601434803109883 -139.19632681114496 moveto
404.8367871963856 -139.19632681114496 lineto
stroke
newpath
0.0 0.0 1.0 setrgbcolor
0.0 0.0 1.0 setrgbcolor
0.0 0.0 1.0 setrgbcolor
2.0 setlinewidth
10.0 setmiterlimit
1 setlinejoin
0 setlinecap
[ 2.0 3.0 ] 0 setdash
newpath
41.41359145500965 -147.56431440652761 moveto
35.73679355762443 -147.56431440652761 lineto
35.52053458365997 -147.56431440652761 35.412405106345275 -147.5102496630365 35.412405106345275 -147.40212018088803 curveto
35.412405106345275 -147.2939906939058 35.520534593327504 -147.23992595524845 35.73679355762443 -147.23992595524845 curveto
41.41359145500965 -147.23992595524845 lineto
41.62985042897411 -147.23992595524845 41.73797990628881 -147.29399069873958 41.73797990628881 -147.40212018088803 curveto
41.73797990628881 -147.51024966787026 41.62985041930658 -147.56431440652761 41.41359145500965 -147.56431440652761 curveto
closepath
fill
newpath
2.0 setlinewidth
10.0 setmiterlimit
1 setlinejoin
0 setlinecap
[ 2.0 3.0 ] 0 setdash
newpath
44.13488615299138 -147.56431440652761 moveto
44.13488615299138 -147.56431440652761 lineto
43.70236820506246 -147.8887028674743 43.432044506941956 -148.2130913139197 43.32391502479349 -148.53747976036507 curveto
43.215785537811264 -148.6456092473473 43.16172079915391 -148.75373872949578 43.16172079915391 -148.86186821164424 curveto
43.16172079915391 -149.40251564655537 43.59423874708283 -149.6728393398421 44.45927460427053 -149.6728393398421 curveto
44.56740409125276 -149.6728393398421 44.675533573401225 -149.6728393398421 44.78366305554969 -149.6728393398421 curveto
45.54056946442529 -149.6728393398421 46.027152122008964 -149.51064510936877 46.24341108630589 -149.1862566629234 curveto
46.35154057328812 -149.1862566629234 46.405605311945465 -149.1862566629234 46.405605311945465 -149.1862566629234 curveto
46.405605311945465 -149.07812717594118 46.405605311945465 -149.02406243728382 46.405605311945465 -149.02406243728382 curveto
46.51373479892769 -149.02406243728382 46.567799537585046 -149.07812718077494 46.567799537585046 -149.1862566629234 curveto
46.567799537585046 -149.29438614990562 46.45967005060282 -149.4565803755452 46.24341108630589 -149.6728393398421 curveto
45.810893138376976 -149.9972278007888 45.270245722800894 -150.15942201676086 44.621468829910114 -150.15942201676086 curveto
43.97269190801674 -150.15942201676086 43.4861092455993 -149.94316304279639 43.16172079915391 -149.51064511420253 curveto
43.05359131217168 -149.2943861402381 42.99952657351434 -149.07812717594118 42.99952657351434 -148.86186821164424 curveto
42.99952657351434 -148.53747975069754 43.16172080398768 -148.15902656076105 43.48610925043307 -147.7265086321672 curveto
43.594238737415296 -147.61837914518497 43.70236821956376 -147.56431440652761 43.81049770171222 -147.56431440652761 curveto
43.594238727747765 -147.34805543256314 43.48610925043307 -147.0777317247751 43.48610925043307 -146.75334327832974 curveto
43.48610925043307 -146.32082533040082 43.756432967888635 -145.9964368887892 44.29708037863096 -145.78017792449225 curveto
44.729598326559874 -145.45578946354559 45.21618099864484 -145.29359524757353 45.756828409387154 -145.29359524757353 curveto
46.18934635731607 -145.29359524757353 46.56779954241881 -145.40172473455576 46.8921879888642 -145.61798369885267 curveto
47.00031747584643 -145.7261131858349 47.054382214503775 -145.83424266798337 47.054382214503775 -145.94237215013183 curveto
47.054382214503775 -146.05050163711405 47.000317471012664 -146.1045663757714 46.8921879888642 -146.1045663757714 curveto
46.8921879888642 -146.1045663757714 46.8921879888642 -146.1045663757714 46.8921879888642 -146.1045663757714 curveto
46.78405850188197 -146.1045663757714 46.67592901973351 -146.1045663757714 46.567799537585046 -146.1045663757714 curveto
46.35154056362059 -145.88830740180694 46.081216855832544 -145.78017792449225 45.756828409387154 -145.78017792449225 curveto
44.99992200051156 -145.78017792449225 44.45927459943677 -145.9423721549656 44.13488615299138 -146.266760601411 curveto
43.91862717902692 -146.37489008839322 43.81049770171222 -146.5370843140328 43.81049770171222 -146.75334327832974 curveto
43.81049770171222 -147.0777317392764 43.91862718869445 -147.29399069873958 44.13488615299138 -147.40212018088803 curveto
44.459274613938064 -147.2939906939058 44.783663060383454 -147.23992595524845 45.10805150682884 -147.23992595524845 curveto
45.64869894173999 -147.23992595524845 45.919022635026735 -147.29399069873958 45.919022635026735 -147.40212018088803 curveto
45.919022635026735 -147.6183791548525 45.64869891757117 -147.7265086321672 45.10805150682884 -147.7265086321672 curveto
44.67553355889993 -147.7265086321672 44.351145117288304 -147.67244388867607 44.13488615299138 -147.56431440652761 curveto
closepath
44.45927460427053 -147.56431440652761 moveto
44.56740409125276 -147.56431440652761 44.783663060383454 -147.56431440652761 45.10805150682884 -147.56431440652761 curveto
45.3243104807933 -147.56431440652761 45.48650470159912 -147.5102496630365 45.59463418374758 -147.40212018088803 curveto
45.48650469676535 -147.40212018088803 45.32431047112577 -147.40212018088803 45.10805150682884 -147.40212018088803 curveto
44.891792532864386 -147.40212018088803 44.67553356856746 -147.45618492437916 44.45927460427053 -147.56431440652761 curveto
closepath
fill
newpath
0.0 0.0 1.0 setrgbcolor
0.0 0.0 1.0 setrgbcolor
grestore
grestore
showpage

%%EOF