%!PS-Adobe-3.0 EPSF-3.0
%%Creator: EpsGraphics 1.0.0 by Thomas Abeel, http://www.sourceforge.net/epsgraphics/
%%Title: GeoGebra, https://www.geogebra.org/
%%CreationDate: Fri Aug 19 14:43:54 CEST 2016
%%BoundingBox: 0 0 365 280
%%DocumentData: Clean7Bit
%%LanguageLevel: 2
%%DocumentProcessColors: Black
%%ColorUsage: Color
%%Origin: 0 0
%%Pages: 1
%%Page: 1 1
%%EndComments

gsave
0.0 280.0 translate
0.0 0.0 0.0 setrgbcolor
0.0 0.0 0.0 setrgbcolor
gsave
newpath
0.0 -0.0 moveto
365.20519017591937 -0.0 lineto
365.20519017591937 -280.9270693660918 lineto
0.0 -280.9270693660918 lineto
0.0 -0.0 lineto
closepath
clip
newpath
1.0 1.0 1.0 setrgbcolor
newpath
0.0 -0.0 moveto
365.20519017591937 -0.0 lineto
365.20519017591937 -280.9270693660918 lineto
0.0 -280.9270693660918 lineto
0.0 -0.0 lineto
closepath
fill
newpath
0.0 0.0 0.0 setrgbcolor
1.0 setlinewidth
10.0 setmiterlimit
0 setlinejoin
0 setlinecap
[ ] 0 setdash
newpath
93.4513646754925 -1.0404706272818216 moveto
93.4513646754925 -280.9270693660918 lineto
stroke
newpath
1.0 setlinewidth
10.0 setmiterlimit
0 setlinejoin
0 setlinecap
[ ] 0 setdash
newpath
93.4513646754925 -0.5202353136409108 moveto
91.37042342092886 -2.6011765682045542 lineto
stroke
newpath
1.0 setlinewidth
10.0 setmiterlimit
0 setlinejoin
0 setlinecap
[ ] 0 setdash
newpath
93.4513646754925 -0.5202353136409108 moveto
95.53230593005614 -2.6011765682045542 lineto
stroke
newpath
1.0 setlinewidth
10.0 setmiterlimit
0 setlinejoin
0 setlinecap
[ ] 0 setdash
newpath
0.0 -233.1506446493246 moveto
364.16471954863755 -233.1506446493246 lineto
stroke
newpath
1.0 setlinewidth
10.0 setmiterlimit
0 setlinejoin
0 setlinecap
[ ] 0 setdash
newpath
364.68495486227846 -233.1506446493246 moveto
362.6040136077148 -231.06970339476095 lineto
stroke
newpath
1.0 setlinewidth
10.0 setmiterlimit
0 setlinejoin
0 setlinecap
[ ] 0 setdash
newpath
364.68495486227846 -233.1506446493246 moveto
362.6040136077148 -235.23158590388823 lineto
stroke
newpath
1.0 setlinewidth
10.0 setmiterlimit
0 setlinejoin
0 setlinecap
[ ] 0 setdash
newpath
8.411994596752333 -233.1506446493246 moveto
8.411994596752333 -234.71135059024732 lineto
stroke
newpath
1.0 setlinewidth
10.0 setmiterlimit
0 setlinejoin
0 setlinecap
[ ] 0 setdash
newpath
36.75845128966572 -233.1506446493246 moveto
36.75845128966572 -234.71135059024732 lineto
stroke
newpath
1.0 setlinewidth
10.0 setmiterlimit
0 setlinejoin
0 setlinecap
[ ] 0 setdash
newpath
65.1049079825791 -233.1506446493246 moveto
65.1049079825791 -234.71135059024732 lineto
stroke
newpath
1.0 setlinewidth
10.0 setmiterlimit
0 setlinejoin
0 setlinecap
[ ] 0 setdash
newpath
93.4513646754925 -233.1506446493246 moveto
93.4513646754925 -234.71135059024732 lineto
stroke
newpath
1.0 setlinewidth
10.0 setmiterlimit
0 setlinejoin
0 setlinecap
[ ] 0 setdash
newpath
121.79782136840588 -233.1506446493246 moveto
121.79782136840588 -234.71135059024732 lineto
stroke
newpath
1.0 setlinewidth
10.0 setmiterlimit
0 setlinejoin
0 setlinecap
[ ] 0 setdash
newpath
150.14427806131926 -233.1506446493246 moveto
150.14427806131926 -234.71135059024732 lineto
stroke
newpath
1.0 setlinewidth
10.0 setmiterlimit
0 setlinejoin
0 setlinecap
[ ] 0 setdash
newpath
178.49073475423265 -233.1506446493246 moveto
178.49073475423265 -234.71135059024732 lineto
stroke
newpath
1.0 setlinewidth
10.0 setmiterlimit
0 setlinejoin
0 setlinecap
[ ] 0 setdash
newpath
206.837191447146 -233.1506446493246 moveto
206.837191447146 -234.71135059024732 lineto
stroke
newpath
1.0 setlinewidth
10.0 setmiterlimit
0 setlinejoin
0 setlinecap
[ ] 0 setdash
newpath
235.1836481400594 -233.1506446493246 moveto
235.1836481400594 -234.71135059024732 lineto
stroke
newpath
1.0 setlinewidth
10.0 setmiterlimit
0 setlinejoin
0 setlinecap
[ ] 0 setdash
newpath
263.53010483297277 -233.1506446493246 moveto
263.53010483297277 -234.71135059024732 lineto
stroke
newpath
1.0 setlinewidth
10.0 setmiterlimit
0 setlinejoin
0 setlinecap
[ ] 0 setdash
newpath
291.87656152588613 -233.1506446493246 moveto
291.87656152588613 -234.71135059024732 lineto
stroke
newpath
1.0 setlinewidth
10.0 setmiterlimit
0 setlinejoin
0 setlinecap
[ ] 0 setdash
newpath
320.22301821879955 -233.1506446493246 moveto
320.22301821879955 -234.71135059024732 lineto
stroke
newpath
1.0 setlinewidth
10.0 setmiterlimit
0 setlinejoin
0 setlinecap
[ ] 0 setdash
newpath
348.5694749117129 -233.1506446493246 moveto
348.5694749117129 -234.71135059024732 lineto
stroke
newpath
1.0 setlinewidth
10.0 setmiterlimit
0 setlinejoin
0 setlinecap
[ ] 0 setdash
newpath
91.89065873456977 -261.49710134223795 moveto
93.4513646754925 -261.49710134223795 lineto
stroke
newpath
1.0 setlinewidth
10.0 setmiterlimit
0 setlinejoin
0 setlinecap
[ ] 0 setdash
newpath
91.89065873456977 -204.80418795641123 moveto
93.4513646754925 -204.80418795641123 lineto
stroke
newpath
1.0 setlinewidth
10.0 setmiterlimit
0 setlinejoin
0 setlinecap
[ ] 0 setdash
newpath
91.89065873456977 -176.45773126349783 moveto
93.4513646754925 -176.45773126349783 lineto
stroke
newpath
1.0 setlinewidth
10.0 setmiterlimit
0 setlinejoin
0 setlinecap
[ ] 0 setdash
newpath
91.89065873456977 -148.11127457058447 moveto
93.4513646754925 -148.11127457058447 lineto
stroke
newpath
1.0 setlinewidth
10.0 setmiterlimit
0 setlinejoin
0 setlinecap
[ ] 0 setdash
newpath
91.89065873456977 -119.76481787767109 moveto
93.4513646754925 -119.76481787767109 lineto
stroke
newpath
1.0 setlinewidth
10.0 setmiterlimit
0 setlinejoin
0 setlinecap
[ ] 0 setdash
newpath
91.89065873456977 -91.41836118475773 moveto
93.4513646754925 -91.41836118475773 lineto
stroke
newpath
1.0 setlinewidth
10.0 setmiterlimit
0 setlinejoin
0 setlinecap
[ ] 0 setdash
newpath
91.89065873456977 -63.07190449184437 moveto
93.4513646754925 -63.07190449184437 lineto
stroke
newpath
1.0 setlinewidth
10.0 setmiterlimit
0 setlinejoin
0 setlinecap
[ ] 0 setdash
newpath
91.89065873456977 -34.72544779893101 moveto
93.4513646754925 -34.72544779893101 lineto
stroke
newpath
1.0 setlinewidth
10.0 setmiterlimit
0 setlinejoin
0 setlinecap
[ ] 0 setdash
newpath
91.89065873456977 -6.378991106017638 moveto
93.4513646754925 -6.378991106017638 lineto
stroke
newpath
0.0 0.2 0.8 setrgbcolor
1.5 setlinewidth
10.0 setmiterlimit
1 setlinejoin
1 setlinecap
[ ] 0 setdash
newpath
0.0 -222.2451038855116 moveto
2.85316554824937 -221.68222477144226 lineto
5.70633109649874 -221.0902761121069 lineto
8.55949664474811 -220.46779728589738 lineto
11.41266219299748 -219.81316890798735 lineto
14.26582774124685 -219.1247557172286 lineto
17.11899328949622 -218.40082719454188 lineto
19.972158837745592 -217.6395099339516 lineto
22.82532438599496 -216.83891465316026 lineto
25.678489934244332 -215.99699330665214 lineto
28.5316554824937 -215.1116184673024 lineto
31.384821030743073 -214.1805356974115 lineto
34.23798657899244 -213.20141117767085 lineto
37.09115212724181 -212.17173644923167 lineto
39.944317675491185 -211.0889236716361 lineto
42.79748322374055 -209.9502103648862 lineto
45.65064877198992 -208.7527229147312 lineto
48.50381432023929 -207.49344482002388 lineto
51.356979868488665 -206.16915318743327 lineto
54.21014541673804 -204.7765139893756 lineto
57.0633109649874 -203.3120026824052 lineto
59.91647651323677 -201.77188833089264 lineto
62.769642061486145 -200.152297112312 lineto
65.62280760973552 -198.44910118298816 lineto
68.47597315798488 -196.6579821833841 lineto
71.32913870623426 -194.77443123810076 lineto
74.18230425448363 -192.79366957426814 lineto
77.03546980273299 -190.7106485215451 lineto
79.88863535098237 -188.5201288937286 lineto
82.74180089923173 -186.21655397817904 lineto
85.5949664474811 -183.79406541214212 lineto
88.44813199573048 -181.24655081171423 lineto
91.30129754397984 -178.56753263758984 lineto
94.15446309222922 -175.75024757667043 lineto
97.00762864047859 -172.78755128413368 lineto
99.86079418872795 -169.67195013607707 lineto
102.71395973697733 -166.39552184790867 lineto
105.5671252852267 -162.94997897963458 lineto
108.42029083347607 -159.32660543057156 lineto
111.27345638172544 -155.51620881038156 lineto
114.1266219299748 -151.50913631539345 lineto
116.97978747822418 -147.29524297595952 lineto
119.83295302647355 -142.86385990381177 lineto
122.68611857472291 -138.20374666309638 lineto
125.53928412297229 -133.30310714669557 lineto
128.39244967122167 -128.14951019461847 lineto
129.81903244534635 -125.473810171756 lineto
131.24561521947103 -122.72992134664477 lineto
132.67219799359572 -119.91611320020557 lineto
134.0987807677204 -117.03060758439375 lineto
135.52536354184508 -114.07156284587731 lineto
136.95194631596976 -111.03712145500246 lineto
138.37852909009445 -107.92534650050624 lineto
139.80511186421913 -104.73428519480387 lineto
141.2316946383438 -101.46189743054056 lineto
142.65827741246852 -98.10612722403962 lineto
144.0848601865932 -94.6648392100153 lineto
145.5114429607179 -91.13585833237721 lineto
146.93802573484257 -87.51695396790862 lineto
148.36460850896725 -83.80583198810545 lineto
149.79119128309193 -80.00013475917633 lineto
151.21777405721662 -76.09746495652534 lineto
152.6443568313413 -72.09533793578647 lineto
154.07093960546598 -67.99122936178917 lineto
155.49752237959066 -63.782535517753736 lineto
156.92410515371537 -59.46659711977408 lineto
158.35068792784006 -55.04067550233496 lineto
159.77727070196474 -50.50196849463385 lineto
161.20385347608942 -45.84760645150045 lineto
162.6304362502141 -41.07463637707483 lineto
164.05701902433879 -36.18003780112935 lineto
165.48360179846347 -31.160714840907662 lineto
166.91018457258815 -26.01348429388336 lineto
167.6234759596505 -23.390890567533614 lineto
168.33676734671283 -20.73509151408182 lineto
169.0500587337752 -18.04566641099955 lineto
169.76335012083752 -15.322189574407806 lineto
170.47664150789987 -12.564230359077019 lineto
171.1899328949622 -9.771353158427049 lineto
171.90322428202455 -6.943114427716844 lineto
172.6165156690869 -4.079066901192419 lineto
173.32980705614924 -1.1787574835128742 lineto
174.0430984432116 1.7582732463846729 lineto
174.75638983027392 4.732490415116259 lineto
stroke
newpath
0.0 0.2 0.8 setrgbcolor
0.0 0.2 0.8 setrgbcolor
0.0 0.2 0.8 setrgbcolor
1.5 setlinewidth
10.0 setmiterlimit
1 setlinejoin
1 setlinecap
[ ] 0 setdash
newpath
10.835526048901773 -225.53826680915623 moveto
10.835526048901773 -225.53826680915623 lineto
10.372191472690336 -228.78160884263627 lineto
10.269228230463696 -229.19346181154282 10.11478337172655 -229.65679638315146 9.9088568964789 -230.17161257127057 curveto
9.9088568964789 -230.37753905572387 9.85737527536558 -230.53198390985818 9.754412037741755 -230.63494714748202 curveto
9.548485553288474 -231.14976335861522 9.239595835814184 -231.45865306228106 8.827742885318882 -231.5616162999049 curveto
8.827742885318882 -231.5616162999049 8.776261264205562 -231.5616162999049 8.673298026581737 -231.5616162999049 curveto
8.364408299901815 -231.5616162999049 8.10700020814366 -231.45865305767825 7.90107373289601 -231.2527265824306 curveto
7.7981104906693695 -231.14976334020395 7.746628874158865 -231.04680010258014 7.746628874158865 -230.9438368649563 curveto
7.746628874158865 -230.63494713827637 7.901073737498826 -230.42902066763156 8.209963450370301 -230.32605743000772 curveto
8.209963450370301 -230.32605743000772 8.261445071483621 -230.32605743000772 8.364408309107446 -230.32605743000772 curveto
8.570334793560727 -230.32605743000772 8.673298026581737 -230.37753905112103 8.673298026581737 -230.48050228874487 curveto
8.673298026581737 -230.58346553097152 8.673298026581737 -230.63494714748202 8.673298026581737 -230.63494714748202 curveto
8.673298026581737 -230.8408736319353 8.570334784355097 -230.9953184860696 8.364408309107446 -231.09828172369345 curveto
8.364408309107446 -231.09828172369345 8.312926687994127 -231.14976334480676 8.209963450370301 -231.2527265824306 curveto
8.312926692596943 -231.35568982465725 8.467371551334086 -231.40717144116775 8.673298026581737 -231.40717144116775 curveto
8.982187753261659 -231.40717144116775 9.188114223906492 -231.04680009337451 9.291077461530318 -230.32605743000772 curveto
9.394040703756959 -230.22309418778107 9.445522320267465 -230.06864932904395 9.445522320267465 -229.8627228537963 curveto
9.445522320267465 -229.553833136322 lineto
10.21774661395319 -225.53826680915623 lineto
9.59996717900461 -225.53826680915623 lineto
9.394040694551327 -225.53826680915623 9.291077461530318 -225.53826680915623 9.291077461530318 -225.53826680915623 curveto
9.291077461530318 -225.53826680915623 lineto
9.291077461530318 -225.53826680915623 lineto
9.291077461530318 -225.43530356692958 9.342559082643639 -225.33234032930577 9.445522320267465 -225.22937709168193 curveto
9.445522320267465 -225.22937709168193 lineto
9.59996717900461 -225.22937709168193 lineto
10.372191472690336 -225.22937709168193 lineto
10.475154714916975 -224.40567115386878 10.5781179525408 -223.89085497955813 10.681081190164626 -223.68492850431048 curveto
10.887007674617907 -223.06714905095063 11.195897392092197 -222.7067777307743 11.607750342587499 -222.60381449315045 curveto
11.71071358481414 -222.60381449315045 11.813676822437966 -222.60381449315045 11.916640060061791 -222.60381449315045 curveto
12.225529786741712 -222.60381449315045 12.482937878499866 -222.7067777353771 12.688864353747517 -222.91270421062475 curveto
12.688864353747517 -222.91270421062475 lineto
12.688864353747517 -223.0156674528514 12.688864353747517 -223.11863069047521 12.688864353747517 -223.22159392809903 curveto
12.688864353747517 -223.53048365477895 12.585901111520876 -223.7364101254238 12.379974636273225 -223.83937336304763 curveto
12.379974636273225 -223.83937336304763 12.328493015159905 -223.83937336304763 12.225529777536082 -223.83937336304763 curveto
12.0196032930828 -223.83937336304763 11.916640060061791 -223.78789174193432 11.916640060061791 -223.68492850431048 curveto
11.81367681783515 -223.58196526208383 11.762195201324644 -223.53048364557333 11.762195201324644 -223.53048364557333 curveto
11.762195201324644 -223.32455716112003 11.865158443551284 -223.17011230698571 12.071084918798935 -223.0671490693619 curveto
12.174048161025576 -223.0671490693619 12.277011398649401 -223.0156674482486 12.379974636273225 -222.91270421062475 curveto
12.277011394046585 -222.8097409683981 12.122566535309442 -222.7582593518876 11.916640060061791 -222.7582593518876 curveto
11.710713575608509 -222.7582593518876 11.55626872147418 -222.86122259411425 11.453305483850354 -223.0671490693619 curveto
11.350342241623714 -223.17011231158853 11.247379003999889 -223.53048365477895 11.144415766376063 -224.1482630805219 curveto
10.989970907638916 -225.22937709168193 lineto
11.762195201324644 -225.22937709168193 lineto
11.968121685777925 -225.22937709168193 12.071084918798935 -225.28085871279524 12.071084918798935 -225.38382195041908 curveto
12.071084918798935 -225.48678519264573 12.019603297685615 -225.53826680915623 11.916640060061791 -225.53826680915623 curveto
11.916640060061791 -225.53826680915623 lineto
11.762195201324644 -225.53826680915623 lineto
10.835526048901773 -225.53826680915623 lineto
closepath
fill
newpath
1.5 setlinewidth
10.0 setmiterlimit
1 setlinejoin
1 setlinecap
[ ] 0 setdash
newpath
15.365934298527977 -231.87050601737917 moveto
15.365934298527977 -231.87050601737917 lineto
15.365934298527977 -231.97346925960582 15.365934298527977 -232.02495087611632 15.365934298527977 -232.02495087611632 curveto
15.262971056301335 -232.02495087611632 15.05704457645087 -231.87050601277636 14.748154863579396 -231.5616162999049 curveto
14.336301894672832 -231.14976333099833 14.027412186404174 -230.68642875938968 13.821485711156523 -230.17161257127057 curveto
13.306669500023322 -229.2449433912308 13.049261417470797 -228.21531101038974 13.049261417470797 -227.08271539652768 curveto
13.049261417470797 -225.95011973203464 13.255187901924078 -224.9204873603992 13.667040852419378 -223.99381822178475 curveto
14.078893821325941 -223.27307552619828 14.542228392934561 -222.70677772617148 15.057044581053686 -222.29492477567618 curveto
15.160007823280328 -222.19196153344953 15.262971060904151 -222.14047991693903 15.365934298527977 -222.14047991693903 curveto
15.365934298527977 -222.14047991693903 15.365934298527977 -222.19196153805234 15.365934298527977 -222.29492477567618 curveto
15.365934298527977 -222.29492477567618 15.314452677414657 -222.3464063967895 15.211489439790832 -222.4493696344133 curveto
14.181857017524425 -223.4790020566797 13.667040852419378 -225.02345064405117 13.667040852419378 -227.08271539652768 curveto
13.667040852419378 -229.14198024106048 14.181857063552581 -230.68642878240377 15.211489439790832 -231.71606115864202 curveto
15.314452682017471 -231.81902440086867 15.365934298527977 -231.87050601737917 15.365934298527977 -231.87050601737917 curveto
closepath
fill
newpath
1.5 setlinewidth
10.0 setmiterlimit
1 setlinejoin
1 setlinecap
[ ] 0 setdash
newpath
19.20990648660642 -226.61938082031622 moveto
18.901016769132127 -227.8549396902134 lineto
18.798053526905488 -228.3697559013466 18.746571910394984 -228.67864560501243 18.746571910394984 -228.78160884263627 curveto
18.746571910394984 -229.0904985693162 18.849535152621623 -229.296425039961 19.055461627869274 -229.39938827758485 curveto
19.158424870095917 -229.39938827758485 19.26138810771974 -229.39938827758485 19.364351345343565 -229.39938827758485 curveto
19.673241072023487 -229.39938827758485 19.93064916378164 -229.2449434142449 20.136575639029292 -228.93605370137342 curveto
20.342502123482575 -228.73012721692012 20.496946977616904 -228.47271912055916 20.59991021524073 -228.1638294076877 curveto
20.59991021524073 -228.06086616546105 20.651391836354048 -228.00938454895055 20.754355073977873 -228.00938454895055 curveto
20.857318316204516 -228.00938454895055 20.90879993271502 -228.06086617006386 20.90879993271502 -228.1638294076877 curveto
20.90879993271502 -228.26679264991432 20.80583669048838 -228.47271912976478 20.59991021524073 -228.78160884263627 curveto
20.188057246334164 -229.39938829599612 19.776204295838866 -229.70827799505915 19.364351345343565 -229.70827799505915 curveto
18.84953513421036 -229.70827799505915 18.489163809431197 -229.50235151060588 18.283237334183546 -229.09049856011057 curveto
18.283237334183546 -228.98753531788392 18.283237334183546 -228.93605370137342 18.283237334183546 -228.93605370137342 curveto
18.077310849730267 -229.24494342805335 17.819902753369295 -229.45086989869816 17.511013040497822 -229.553833136322 curveto
17.40804979827118 -229.65679637854865 17.305086560647354 -229.70827799505915 17.202123323023528 -229.70827799505915 curveto
16.790270354116966 -229.70827799505915 16.481380645848308 -229.5538331317192 16.275454170600657 -229.2449434188477 curveto
16.275454170600657 -229.2449434188477 16.275454170600657 -229.14198017662108 16.275454170600657 -228.93605370137342 curveto
16.275454170600657 -228.73012721692012 16.378417412827297 -228.5756823627858 16.584343888074947 -228.47271912516197 curveto
16.68730713030159 -228.47271912516197 16.738788746812094 -228.47271912516197 16.738788746812094 -228.47271912516197 curveto
16.944715231265377 -228.47271912516197 17.099160085399703 -228.52420074627528 17.202123323023528 -228.62716398389912 curveto
17.202123323023528 -228.73012722612577 17.202123323023528 -228.78160884263627 17.202123323023528 -228.78160884263627 curveto
17.202123323023528 -228.98753532708957 17.09916008079689 -229.1419801812239 16.893233605549238 -229.2449434188477 curveto
16.7902703633226 -229.2449434188477 16.738788746812094 -229.2449434188477 16.738788746812094 -229.2449434188477 curveto
16.841751989038734 -229.34790666107435 16.996196847775877 -229.39938827758485 17.202123323023528 -229.39938827758485 curveto
17.51101304970345 -229.39938827758485 17.768421141461605 -229.19346179313158 17.974347616709256 -228.78160884263627 curveto
18.0773108589359 -228.67864560040962 18.128792475446403 -228.5756823627858 18.128792475446403 -228.47271912516197 curveto
18.43768220212632 -227.13419697621566 18.592127051657837 -226.31049109823914 18.592127051657837 -226.00160138536765 curveto
18.592127051657837 -225.5897484164611 18.437682188317876 -225.38382195041908 18.128792475446403 -225.38382195041908 curveto
17.81990274876648 -225.38382195041908 17.511013035895004 -225.58974843487235 17.202123323023528 -226.00160138536765 curveto
17.202123323023528 -226.00160138536765 lineto
17.202123323023528 -226.00160138536765 17.202123323023528 -226.00160138536765 17.202123323023528 -226.00160138536765 curveto
17.09916008079689 -226.1045646275943 16.996196843173063 -226.25900948633145 16.893233605549238 -226.4649359615791 curveto
16.893233605549238 -226.4649359615791 16.893233605549238 -226.5164175826924 16.893233605549238 -226.61938082031622 curveto
16.738788746812094 -226.77382567905337 lineto
16.738788746812094 -226.77382567905337 16.738788746812094 -226.77382567905337 16.738788746812094 -226.77382567905337 curveto
16.63582550458545 -226.77382567905337 16.584343888074947 -226.77382567905337 16.584343888074947 -226.77382567905337 curveto
16.584343888074947 -226.5678991946001 16.687307130301587 -226.31049109823914 16.893233605549238 -226.00160138536765 curveto
17.20212333222916 -225.48678517423446 17.613976287327276 -225.22937709168193 18.128792475446403 -225.22937709168193 curveto
18.643608686579604 -225.22937709168193 19.00398001135877 -225.48678519724854 19.20990648660642 -226.00160138536765 curveto
19.4158329710597 -225.5897484164611 19.673241067420673 -225.33234032930577 19.982130780292145 -225.22937709168193 curveto
20.08509402251879 -225.22937709168193 20.188057260142614 -225.22937709168193 20.29102049776644 -225.22937709168193 curveto
20.702873466673 -225.22937709168193 20.960281553828338 -225.33234033390858 21.063244791452163 -225.53826680915623 curveto
21.166208033678807 -225.64123005138288 21.21768965018931 -225.7441932890067 21.21768965018931 -225.8471565266305 curveto
21.21768965018931 -226.15604625331042 21.06324478684935 -226.31049110284195 20.754355073977873 -226.31049110284195 curveto
20.754355073977873 -226.4134543450686 20.702873452864555 -226.4649359615791 20.59991021524073 -226.4649359615791 curveto
20.393983730787447 -226.4649359615791 20.29102049776644 -226.36197271935245 20.29102049776644 -226.1560462441048 curveto
20.29102049776644 -226.1560462441048 20.29102049776644 -226.1045646229915 20.29102049776644 -226.00160138536765 curveto
20.29102049776644 -225.79567490091438 20.39398373999308 -225.64123004678007 20.59991021524073 -225.53826680915623 curveto
20.59991021524073 -225.53826680915623 20.651391836354048 -225.53826680915623 20.754355073977873 -225.53826680915623 curveto
20.651391831751233 -225.43530356692958 20.49694697301409 -225.38382195041908 20.29102049776644 -225.38382195041908 curveto
19.776204286633234 -225.38382195041908 19.46731458296739 -225.7441932982123 19.364351345343565 -226.4649359615791 curveto
19.261388103116925 -226.4649359615791 19.20990648660642 -226.5164175826924 19.20990648660642 -226.61938082031622 curveto
closepath
fill
newpath
1.5 setlinewidth
10.0 setmiterlimit
1 setlinejoin
1 setlinecap
[ ] 0 setdash
newpath
24.395823412776164 -227.08271539652768 moveto
24.395823412776164 -227.08271539652768 lineto
24.395823412776164 -228.2153110610207 24.18989692832288 -229.24494343265616 23.778043977827583 -230.17161257127057 curveto
23.46915425114766 -230.89235526685707 23.057301296049545 -231.45865306688387 22.542485107930418 -231.87050601737917 curveto
22.439521865703778 -231.97346925960582 22.336558628079953 -232.02495087611632 22.233595390456127 -232.02495087611632 curveto
22.233595390456127 -232.02495087611632 22.233595390456127 -231.973469255003 22.233595390456127 -231.87050601737917 curveto
22.233595390456127 -231.87050601737917 22.233595390456127 -231.81902439626586 22.233595390456127 -231.71606115864202 curveto
23.366191054949173 -230.68642873637563 23.932488836564726 -229.14198014900418 23.932488836564726 -227.08271539652768 curveto
23.932488836564726 -225.02345055199484 23.417672625431525 -223.47900201065156 22.388040249193274 -222.4493696344133 curveto
22.388040249193274 -222.4493696344133 lineto
22.28507700696663 -222.34640639218668 22.233595390456127 -222.29492477567618 22.233595390456127 -222.29492477567618 curveto
22.233595390456127 -222.19196153344953 22.233595390456127 -222.14047991693903 22.233595390456127 -222.14047991693903 curveto
22.33655863268277 -222.14047991693903 22.542485112533235 -222.294924780279 22.851374825404708 -222.60381449315045 curveto
23.263227794311273 -223.015667462057 23.572117502579932 -223.47900203366564 23.778043977827583 -223.99381822178475 curveto
24.189896946734144 -224.92048740182452 24.395823412776164 -225.9501197826656 24.395823412776164 -227.08271539652768 curveto
closepath
fill
newpath
1.5 setlinewidth
10.0 setmiterlimit
1 setlinejoin
1 setlinecap
[ ] 0 setdash
newpath
35.00105668473949 -226.31049110284195 moveto
29.132152052727964 -226.31049110284195 lineto
28.92622556827468 -226.31049110284195 28.823262335253673 -226.25900948172864 28.823262335253673 -226.1560462441048 curveto
28.823262335253673 -226.05308300187815 28.926225577480313 -226.00160138536765 29.132152052727964 -226.00160138536765 curveto
35.00105668473949 -226.00160138536765 lineto
35.206983169192775 -226.00160138536765 35.30994640221378 -226.05308300648096 35.30994640221378 -226.1560462441048 curveto
35.30994640221378 -226.25900948633145 35.20698315998714 -226.31049110284195 35.00105668473949 -226.31049110284195 curveto
closepath
35.00105668473949 -228.1638294076877 moveto
29.132152052727964 -228.1638294076877 lineto
28.92622556827468 -228.1638294076877 28.823262335253673 -228.1123477865744 28.823262335253673 -228.00938454895055 curveto
28.823262335253673 -227.9064213067239 28.926225577480313 -227.8549396902134 29.132152052727964 -227.8549396902134 curveto
35.00105668473949 -227.8549396902134 lineto
35.206983169192775 -227.8549396902134 35.30994640221378 -227.9064213113267 35.30994640221378 -228.00938454895055 curveto
35.30994640221378 -228.1123477911772 35.20698315998714 -228.1638294076877 35.00105668473949 -228.1638294076877 curveto
closepath
fill
newpath
0.0 0.2 0.8 setrgbcolor
1.5 setlinewidth
10.0 setmiterlimit
1 setlinejoin
1 setlinecap
[ ] 0 setdash
newpath
40.49246976459291 -227.23716025526483 moveto
40.029135188381474 -227.23716025526483 lineto
39.92617194615484 -227.64901322417137 39.87469032964433 -228.00938455355336 39.87469032964433 -228.31827426642482 curveto
39.87469032964433 -228.83309047755804 39.977653571870974 -229.1934618023372 40.183580047118625 -229.39938827758485 curveto
40.389506531571904 -229.39938827758485 40.54395138570624 -229.39938827758485 40.64691462333006 -229.39938827758485 curveto
41.2646940766899 -229.39938827758485 41.77951026020621 -229.19346179313158 42.19136321070151 -228.78160884263627 curveto
42.3972896951548 -228.67864560040962 42.55173454928912 -228.5756823627858 42.65469778691295 -228.47271912516197 curveto
42.65469778691295 -228.36975588293532 42.70617940802627 -228.31827426642482 42.8091426456501 -228.31827426642482 curveto
42.8091426456501 -228.31827426642482 42.860624266763416 -228.36975588753813 42.96358750438724 -228.47271912516197 curveto
42.96358750438724 -228.57568236738862 42.80914264104728 -228.73012722612577 42.500252928175804 -228.93605370137342 curveto
41.9854367170426 -229.45086991250662 41.36765728669684 -229.70827799505915 40.64691462333006 -229.70827799505915 curveto
40.02913516997022 -229.70827799505915 39.617282228680544 -229.45086988949254 39.41135575343289 -228.93605370137342 curveto
39.205429268979614 -228.6271639746935 39.10246603595861 -228.2667926407087 39.10246603595861 -227.8549396902134 curveto
39.10246603595861 -227.03123375240025 39.41135576263853 -226.3619727147496 40.029135188381474 -225.8471565266305 curveto
40.54395139951468 -225.43530355772396 41.11024920874713 -225.22937709168193 41.72802863449008 -225.22937709168193 curveto
42.139881603396645 -225.22937709168193 42.4487713116653 -225.3838219550219 42.65469778691295 -225.69271166789338 curveto
42.75766102913959 -225.79567491012 42.8091426456501 -225.8986381477438 42.8091426456501 -226.00160138536765 curveto
42.8091426456501 -226.31049111204757 42.65469778231014 -226.61938082491906 42.34580806943866 -226.92827053779052 curveto
42.34580806943866 -226.92827053779052 lineto
42.24284482721202 -226.92827053779052 42.13988158958819 -226.97975215890384 42.03691835196437 -227.08271539652768 curveto
41.6250653830578 -227.18567863875433 41.110249190335864 -227.23716025526483 40.49246976459291 -227.23716025526483 curveto
closepath
40.029135188381474 -227.08271539652768 moveto
40.49246976459291 -227.08271539652768 lineto
41.7280286713126 -227.08271539652768 42.34580806943866 -226.72234404873444 42.34580806943866 -226.00160138536765 curveto
42.34580806943866 -225.79567490091438 42.24284482721202 -225.64123004678007 42.03691835196437 -225.53826680915623 curveto
42.03691835196437 -225.53826680915623 lineto
41.93395510973773 -225.43530356692958 41.830991872113906 -225.38382195041908 41.72802863449008 -225.38382195041908 curveto
41.316175665583515 -225.38382195041908 40.95580433620153 -225.53826681375904 40.64691462333006 -225.8471565266305 curveto
40.33802489665014 -226.15604625331042 40.1320984260053 -226.56789920840856 40.029135188381474 -227.08271539652768 curveto
closepath
fill
newpath
0.0 0.2 0.8 setrgbcolor
1.5 setlinewidth
10.0 setmiterlimit
1 setlinejoin
1 setlinecap
[ ] 0 setdash
newpath
45.51194931598848 -223.41850361671743 moveto
45.29572651743873 -224.28339481091643 lineto
45.2236522491075 -224.6437661525726 45.187615118163855 -224.85998894145644 45.187615118163855 -224.9320632065657 curveto
45.187615118163855 -225.14828601155938 45.25968938649508 -225.29243453855594 45.403837916713606 -225.3645088036652 curveto
45.475912185044834 -225.3645088036652 45.5479864501541 -225.3645088036652 45.62006071526336 -225.3645088036652 curveto
45.836283520257055 -225.3645088036652 46.01646918141922 -225.25639740116836 46.16061771163774 -225.04017460584058 curveto
46.304766248300204 -224.8960260691781 46.41287764435311 -224.71584040479397 46.48495190946237 -224.49961760946618 curveto
46.48495190946237 -224.42754334113496 46.520989043627985 -224.39150621019132 46.59306330873724 -224.39150621019132 curveto
46.66513757706847 -224.39150621019132 46.70117470801212 -224.42754334435693 46.70117470801212 -224.49961760946618 curveto
46.70117470801212 -224.57169187779743 46.62910043968089 -224.7158404112379 46.48495190946237 -224.9320632065657 curveto
46.19665483613744 -225.3645088165531 45.9083577757004 -225.58073160221497 45.62006071526336 -225.58073160221497 curveto
45.2596893736072 -225.58073160221497 45.00742945055775 -225.4365830655525 44.86328092033923 -225.14828600511544 curveto
44.86328092033923 -225.07621173678422 44.86328092033923 -225.04017460584058 44.86328092033923 -225.04017460584058 curveto
44.719132383676765 -225.25639741083427 44.53894671929263 -225.4005459378308 44.32272392396485 -225.47262020294008 curveto
44.25064965563362 -225.54469447127133 44.17857539052436 -225.58073160221497 44.1065011254151 -225.58073160221497 curveto
43.818204052090174 -225.58073160221497 43.60198125998437 -225.4726201997181 43.45783272976585 -225.25639740439033 curveto
43.45783272976585 -225.25639740439033 43.45783272976585 -225.1843231360591 43.45783272976585 -225.04017460584058 curveto
43.45783272976585 -224.8960260691781 43.529906998097076 -224.78791467312521 43.6740555283156 -224.71584040801594 curveto
43.74612979664683 -224.71584040801594 43.782166927590474 -224.71584040801594 43.782166927590474 -224.71584040801594 curveto
43.92631546425294 -224.71584040801594 44.03442686030584 -224.75187754218155 44.1065011254151 -224.82395180729083 curveto
44.1065011254151 -224.89602607562205 44.1065011254151 -224.9320632065657 44.1065011254151 -224.9320632065657 curveto
44.1065011254151 -225.07621174322816 44.03442685708387 -225.18432313928105 43.89027832686535 -225.25639740439033 curveto
43.81820405853412 -225.25639740439033 43.782166927590474 -225.25639740439033 43.782166927590474 -225.25639740439033 curveto
43.8542411959217 -225.32847167272155 43.96235259519658 -225.3645088036652 44.1065011254151 -225.3645088036652 curveto
44.32272393040879 -225.3645088036652 44.502909591570955 -225.22036026700272 44.64705812178948 -224.9320632065657 curveto
44.719132390120706 -224.85998893823447 44.75516952106435 -224.78791467312521 44.75516952106435 -224.71584040801594 curveto
44.971392326058044 -223.77887491970995 45.07950371888898 -223.2022808149457 45.07950371888898 -222.98605801961793 curveto
45.07950371888898 -222.69776094629302 44.971392316392134 -222.55361242251843 44.75516952106435 -222.55361242251843 curveto
44.53894671607066 -222.55361242251843 44.32272392074288 -222.6977609591809 44.1065011254151 -222.98605801961793 curveto
44.1065011254151 -222.98605801961793 lineto
44.1065011254151 -222.98605801961793 44.1065011254151 -222.98605801961793 44.1065011254151 -222.98605801961793 curveto
44.03442685708387 -223.05813228794918 43.96235259197461 -223.16624368722404 43.89027832686535 -223.31039221744257 curveto
43.89027832686535 -223.31039221744257 43.89027832686535 -223.34642935160818 43.89027832686535 -223.41850361671743 curveto
43.782166927590474 -223.52661501599232 lineto
43.782166927590474 -223.52661501599232 43.782166927590474 -223.52661501599232 43.782166927590474 -223.52661501599232 curveto
43.710092659259246 -223.52661501599232 43.6740555283156 -223.52661501599232 43.6740555283156 -223.52661501599232 curveto
43.6740555283156 -223.38246647932985 43.74612979664683 -223.2022808149457 43.89027832686535 -222.98605801961793 curveto
44.10650113185904 -222.6256866779618 44.39479819551805 -222.44550102324357 44.75516952106435 -222.44550102324357 curveto
45.11554086272051 -222.44550102324357 45.36780078576996 -222.62568669407165 45.51194931598848 -222.98605801961793 curveto
45.656097852650944 -222.69776094629302 45.83628351703508 -222.51757528835282 46.052506312362866 -222.44550102324357 curveto
46.124580580694094 -222.44550102324357 46.19665484580336 -222.44550102324357 46.268729110912616 -222.44550102324357 curveto
46.55702618423754 -222.44550102324357 46.737211842177736 -222.5175752915748 46.809286107286994 -222.66172382179332 curveto
46.88136037561822 -222.73379809012454 46.91739750656187 -222.8058723552338 46.91739750656187 -222.87794662034307 curveto
46.91739750656187 -223.09416942533676 46.80928610406502 -223.20228081816768 46.59306330873724 -223.20228081816768 curveto
46.59306330873724 -223.27435508649893 46.557026174571625 -223.31039221744257 46.48495190946237 -223.31039221744257 curveto
46.340803372799904 -223.31039221744257 46.268729110912616 -223.23831794911135 46.268729110912616 -223.09416941889282 curveto
46.268729110912616 -223.09416941889282 46.268729110912616 -223.0581322847272 46.268729110912616 -222.98605801961793 curveto
46.268729110912616 -222.84190948295546 46.340803379243845 -222.73379808690257 46.48495190946237 -222.66172382179332 curveto
46.48495190946237 -222.66172382179332 46.520989043627985 -222.66172382179332 46.59306330873724 -222.66172382179332 curveto
46.520989040406015 -222.58964955346207 46.41287764113114 -222.55361242251843 46.268729110912616 -222.55361242251843 curveto
45.908357769256455 -222.55361242251843 45.692134980372614 -222.80587236167773 45.62006071526336 -223.31039221744257 curveto
45.54798644693213 -223.31039221744257 45.51194931598848 -223.34642935160818 45.51194931598848 -223.41850361671743 curveto
closepath
fill
newpath
0.0 0.2 0.8 setrgbcolor
0.0 0.2 0.8 setrgbcolor
0.0 0.2 0.8 setrgbcolor
0.0 0.2 0.8 setrgbcolor
0.0 0.39215687 0.0 setrgbcolor
1.5 setlinewidth
10.0 setmiterlimit
1 setlinejoin
1 setlinecap
[ ] 0 setdash
newpath
115.55320470409949 -286.55471741161386 moveto
116.97978747822418 -283.00867742617226 lineto
118.40637025234886 -279.67141107276115 lineto
119.83295302647355 -276.5197389215126 lineto
121.25953580059823 -273.5341013439353 lineto
122.68611857472291 -270.69785995475394 lineto
124.11270134884761 -267.9967578169676 lineto
125.53928412297229 -265.41852253380364 lineto
128.39244967122167 -260.58921533137345 lineto
131.24561521947103 -256.13917758107846 lineto
134.0987807677204 -252.01317555928117 lineto
136.95194631596976 -248.16716834923224 lineto
139.80511186421913 -244.56559299003825 lineto
142.65827741246852 -241.17922117321498 lineto
145.5114429607179 -237.98376212636643 lineto
148.36460850896725 -234.95884652858803 lineto
151.21777405721662 -232.0871850654097 lineto
154.07093960546598 -229.35399688121015 lineto
156.92410515371537 -226.74653328956194 lineto
159.77727070196474 -224.25374437047319 lineto
162.6304362502141 -221.865961443951 lineto
165.48360179846347 -219.5747065541395 lineto
168.33676734671283 -217.37245432449254 lineto
171.1899328949622 -215.25256845248623 lineto
174.0430984432116 -213.2090953174353 lineto
176.89626399146096 -211.23671635152758 lineto
179.74942953971032 -209.3306686582148 lineto
182.60259508795968 -207.48661800163808 lineto
185.45576063620905 -205.7006588066279 lineto
188.30892618445844 -203.96926652973858 lineto
191.1620917327078 -202.28917064867363 lineto
194.01525728095717 -200.65743404389502 lineto
196.86842282920654 -199.0713577406921 lineto
199.7215883774559 -197.5284491565379 lineto
202.5747539257053 -196.0264221010893 lineto
205.42791947395466 -194.56316502354326 lineto
208.28108502220402 -193.13672513631505 lineto
211.1342505704534 -191.74529253871626 lineto
213.98741611870275 -190.38720021695508 lineto
216.84058166695215 -189.06087641517055 lineto
219.6937472152015 -187.7648763880764 lineto
222.54691276345088 -186.49783477199546 lineto
225.40007831170024 -185.25851321382518 lineto
228.2532438599496 -184.04568923678488 lineto
231.10640940819897 -182.85826737466846 lineto
233.95957495644836 -181.69521566655715 lineto
236.81274050469773 -180.55553390417577 lineto
239.6659060529471 -179.43831713718018 lineto
242.51907160119646 -178.3426921678699 lineto
245.37223714944582 -177.26783342750988 lineto
248.22540269769522 -176.21299472897425 lineto
251.07856824594458 -175.17739813249347 lineto
253.93173379419395 -174.16039270887256 lineto
256.78489934244334 -173.16131165259483 lineto
259.6380648906927 -172.179535787109 lineto
262.49123043894207 -171.21446181218556 lineto
265.34439598719143 -170.2655499328825 lineto
268.1975615354408 -169.33226035425758 lineto
271.05072708369016 -168.41408503401237 lineto
273.9038926319395 -167.51053180617023 lineto
276.7570581801889 -166.6211720100418 lineto
279.61022372843826 -165.7455452322941 lineto
282.4633892766876 -164.88322281223773 lineto
285.31655482493704 -164.03383959447075 lineto
288.1697203731864 -163.1969827946256 lineto
291.0228859214358 -162.37230313362207 lineto
293.87605146968514 -161.55943545605814 lineto
296.7292170179345 -160.75807811181912 lineto
299.58238256618387 -159.96788182182473 lineto
302.43554811443323 -159.18854493596032 lineto
305.2887136626826 -158.41976580411114 lineto
308.14187921093196 -157.66129040512797 lineto
310.9950447591813 -156.91281708889608 lineto
313.84821030743075 -156.17410771058803 lineto
316.7013758556801 -155.44489237273277 lineto
319.5545414039295 -154.72494880682476 lineto
322.40770695217884 -154.01402299171468 lineto
325.2608725004282 -153.31190853521886 lineto
328.11403804867757 -152.61836729250982 lineto
330.96720359692694 -151.93322462404748 lineto
333.8203691451763 -151.25625826132628 lineto
336.67353469342567 -150.58727768848428 lineto
339.52670024167503 -149.92609238965952 lineto
342.3798657899244 -149.27254360163377 lineto
345.2330313381738 -148.62644080854506 lineto
348.0861968864232 -147.98760937085333 lineto
350.93936243467255 -147.35590640166208 lineto
353.7925279829219 -146.73115726143126 lineto
356.6456935311713 -146.1132190632644 lineto
359.49885907942064 -145.50194892026508 lineto
362.35202462767 -144.897188069215 lineto
365.20519017591937 -144.29882537586133 lineto
stroke
newpath
0.0 0.39215687 0.0 setrgbcolor
0.0 0.39215687 0.0 setrgbcolor
0.0 0.39215687 0.0 setrgbcolor
1.5 setlinewidth
10.0 setmiterlimit
1 setlinejoin
1 setlinecap
[ ] 0 setdash
newpath
141.45522977672852 -262.78385486470415 moveto
141.45522977672852 -262.78385486470415 lineto
140.3741157655685 -267.10831090934425 lineto
140.27115252334184 -267.5201638782508 140.01374442237807 -267.88053520763276 139.60189147188277 -268.1894249205043 curveto
139.1900385029762 -268.3953514049575 138.72670393136755 -268.4983146379785 138.21188774324844 -268.4983146379785 curveto
137.49114504766197 -268.4983146379785 137.07929211097513 -268.34386977463856 136.9763288733513 -268.0349800617671 curveto
136.9763288733513 -268.0349800617671 136.9763288733513 -267.98349844065376 136.9763288733513 -267.88053520303 curveto
136.9763288733513 -267.6746087185767 137.0792921155779 -267.52016386444234 137.28521859082556 -267.4172006268185 curveto
137.38818183305222 -267.4172006268185 137.43966344956272 -267.4172006268185 137.43966344956272 -267.4172006268185 curveto
137.64558993401602 -267.4172006268185 137.80003478815033 -267.46868224793184 137.90299802577417 -267.5716454855557 curveto
137.90299802577417 -267.5716454855557 137.90299802577417 -267.623127106669 137.90299802577417 -267.7260903442928 curveto
137.90299802577417 -267.9320168287461 137.80003478354752 -268.08646168288044 137.59410830829987 -268.1894249205043 curveto
137.59410830829987 -268.1894249205043 137.54262668718656 -268.1894249205043 137.43966344956272 -268.1894249205043 curveto
137.64558993401602 -268.2923881627309 137.90299803037698 -268.3438697792414 138.21188774324844 -268.3438697792414 curveto
138.93263043883493 -268.3438697792414 139.44744661774843 -267.98349843144814 139.75633633061992 -267.2627557680814 curveto
140.0652260480942 -265.87275203944705 lineto
140.0652260480942 -265.87275203944705 lineto
139.75633632141427 -266.18164176612703 139.39596498742947 -266.38756823677187 138.98411203693416 -266.49053147439565 curveto
138.98411203693416 -266.49053147439565 138.93263041582085 -266.49053147439565 138.82966717819704 -266.49053147439565 curveto
138.41781420929047 -266.49053147439565 138.05744287990848 -266.28460498994235 137.74855316703702 -265.87275203944705 curveto
137.64558992481037 -265.5638623127671 137.59410830829987 -265.25497259989567 137.59410830829987 -264.9460828870242 curveto
137.59410830829987 -264.22534019143774 137.85151641386648 -263.55607914918426 138.3663326019856 -262.93829972344133 curveto
138.77818557089213 -262.4234835123081 139.24152014250078 -262.1660754297556 139.75633633061992 -262.1660754297556 curveto
139.91078118935704 -262.1660754297556 lineto
140.21967091603696 -262.1660754297556 140.4770790077951 -262.32052029309557 140.68300548304276 -262.62941000596703 curveto
140.8374503417799 -262.78385486470415 lineto
140.8374503417799 -262.47496513802423 140.94041358400656 -262.32052028849273 141.14634005925421 -262.32052028849273 curveto
141.35226654370751 -262.32052028849273 141.45522977672852 -262.42348353071935 141.45522977672852 -262.62941000596703 curveto
141.45522977672852 -262.78385486470415 lineto
closepath
140.21967090683134 -265.2549726044985 moveto
140.21967090683134 -265.2549726044985 lineto
140.68300548304276 -263.40163429965276 lineto
140.68300548304276 -263.2986710574261 140.68300548304276 -263.2471894409156 140.68300548304276 -263.2471894409156 curveto
140.68300548304276 -263.04126295646233 140.63152386192945 -262.886818102328 140.52856062430564 -262.78385486470415 curveto
140.52856062430564 -262.78385486470415 lineto
140.425597382079 -262.57792838025085 140.32263414445518 -262.47496514722985 140.21967090683134 -262.47496514722985 curveto
140.1167076646047 -262.37200190500323 140.01374442698088 -262.32052028849273 139.91078118935704 -262.32052028849273 curveto
139.60189146267712 -262.32052028849273 139.29300174980565 -262.52644677294603 138.98411203693416 -262.93829972344133 curveto
138.88114879470754 -263.04126296566795 138.82966717819704 -263.1442262032918 138.82966717819704 -263.2471894409156 curveto
138.62374069374374 -263.6590424098222 138.46929583960943 -264.22534022365744 138.3663326019856 -264.9460828870242 curveto
138.26336935975894 -265.0490461292508 138.21188774324844 -265.20349098798795 138.21188774324844 -265.4094174632356 curveto
138.21188774324844 -265.8212704321422 138.3663326065884 -266.07867851929757 138.6752223194599 -266.18164175692135 curveto
138.6752223194599 -266.28460499914803 138.7267039405732 -266.33608661565853 138.82966717819704 -266.33608661565853 curveto
139.13855690487696 -266.33608661565853 139.44744661774843 -266.18164175231857 139.75633633061992 -265.87275203944705 curveto
139.9622628150732 -265.6668255549938 140.1167076692075 -265.4608990797462 140.21967090683134 -265.2549726044985 curveto
closepath
fill
newpath
1.5 setlinewidth
10.0 setmiterlimit
1 setlinejoin
1 setlinecap
[ ] 0 setdash
newpath
144.77980995672934 -268.8072043554528 moveto
144.77980995672934 -268.8072043554528 lineto
144.77980995672934 -268.9101675976795 144.77980995672934 -268.96164921419 144.77980995672934 -268.96164921419 curveto
144.6768467145027 -268.96164921419 144.47092023465223 -268.80720435085004 144.16203052178076 -268.4983146379785 curveto
143.75017755287422 -268.086461669072 143.44128784460554 -267.6231270974634 143.2353613693579 -267.10831090934425 curveto
142.7205451582247 -266.1816417293045 142.46313707567217 -265.1520093484634 142.46313707567217 -264.0194137346013 curveto
142.46313707567217 -262.8868180701083 142.66906356012544 -261.85718569847285 143.08091651062074 -260.9305165598584 curveto
143.49276947952728 -260.20977386427194 143.95610405113592 -259.64347606424514 144.47092023925507 -259.23162311374983 curveto
144.5738834814817 -259.12865987152315 144.6768467191055 -259.07717825501265 144.77980995672934 -259.07717825501265 curveto
144.77980995672934 -259.07717825501265 144.77980995672934 -259.128659876126 144.77980995672934 -259.23162311374983 curveto
144.77980995672934 -259.23162311374983 144.72832833561603 -259.2831047348632 144.6253650979922 -259.38606797248696 curveto
143.5957326757258 -260.41570039475334 143.08091651062074 -261.9601489821248 143.08091651062074 -264.0194137346013 curveto
143.08091651062074 -266.07867857913413 143.59573272175393 -267.6231271204775 144.6253650979922 -268.6527594967157 curveto
144.72832834021884 -268.7557227389423 144.77980995672934 -268.8072043554528 144.77980995672934 -268.8072043554528 curveto
closepath
fill
newpath
1.5 setlinewidth
10.0 setmiterlimit
1 setlinejoin
1 setlinecap
[ ] 0 setdash
newpath
148.6237845014493 -263.5560791583899 moveto
148.31489478397503 -264.791638028287 lineto
148.21193154174838 -265.30645423942025 148.16044992523788 -265.61534394308615 148.16044992523788 -265.7183071807099 curveto
148.16044992523788 -266.02719690738985 148.2634131674645 -266.2331233780347 148.46933964271216 -266.33608661565853 curveto
148.5723028849388 -266.33608661565853 148.67526612256262 -266.33608661565853 148.77822936018646 -266.33608661565853 curveto
149.08711908686638 -266.33608661565853 149.34452717862453 -266.18164175231857 149.55045365387218 -265.87275203944705 curveto
149.75638013832548 -265.6668255549938 149.9108249924598 -265.40941745863284 150.01378823008363 -265.1005277457613 curveto
150.01378823008363 -264.9975645035347 150.06526985119694 -264.9460828870242 150.16823308882076 -264.9460828870242 curveto
150.2711963310474 -264.9460828870242 150.3226779475579 -264.99756450813754 150.3226779475579 -265.1005277457613 curveto
150.3226779475579 -265.203490987988 150.21971470533128 -265.40941746783847 150.01378823008363 -265.7183071807099 curveto
149.60193526117706 -266.3360866340698 149.19008231068176 -266.6449763331328 148.77822936018646 -266.6449763331328 curveto
148.26341314905326 -266.6449763331328 147.90304182427408 -266.43904984867953 147.69711534902643 -266.02719689818423 curveto
147.69711534902643 -265.92423365595755 147.69711534902643 -265.87275203944705 147.69711534902643 -265.87275203944705 curveto
147.49118886457316 -266.18164176612703 147.2337807682122 -266.38756823677187 146.9248910553407 -266.49053147439565 curveto
146.82192781311406 -266.5934947166223 146.71896457549025 -266.6449763331328 146.61600133786644 -266.6449763331328 curveto
146.20414836895986 -266.6449763331328 145.8952586606912 -266.4905314697928 145.68933218544356 -266.18164175692135 curveto
145.68933218544356 -266.18164175692135 145.68933218544356 -266.07867851469473 145.68933218544356 -265.87275203944705 curveto
145.68933218544356 -265.6668255549938 145.79229542767018 -265.51238070085947 145.99822190291783 -265.4094174632356 curveto
146.10118514514448 -265.4094174632356 146.15266676165498 -265.4094174632356 146.15266676165498 -265.4094174632356 curveto
146.35859324610828 -265.4094174632356 146.5130381002426 -265.46089908434897 146.61600133786644 -265.5638623219728 curveto
146.61600133786644 -265.6668255641994 146.61600133786644 -265.7183071807099 146.61600133786644 -265.7183071807099 curveto
146.61600133786644 -265.92423366516323 146.51303809563979 -266.07867851929757 146.30711162039213 -266.18164175692135 curveto
146.20414837816548 -266.18164175692135 146.15266676165498 -266.18164175692135 146.15266676165498 -266.18164175692135 curveto
146.25563000388163 -266.28460499914803 146.41007486261879 -266.33608661565853 146.61600133786644 -266.33608661565853 curveto
146.92489106454636 -266.33608661565853 147.1822991563045 -266.13016013120523 147.38822563155216 -265.7183071807099 curveto
147.49118887377878 -265.6153439384833 147.54267049028928 -265.51238070085947 147.54267049028928 -265.4094174632356 curveto
147.8515602169692 -264.0708953142893 148.00600506650073 -263.2471894363128 148.00600506650073 -262.93829972344133 curveto
148.00600506650073 -262.52644675453473 147.85156020316077 -262.32052028849273 147.54267049028928 -262.32052028849273 curveto
147.23378076360936 -262.32052028849273 146.9248910507379 -262.52644677294603 146.61600133786644 -262.93829972344133 curveto
146.61600133786644 -262.93829972344133 lineto
146.61600133786644 -262.93829972344133 146.61600133786644 -262.93829972344133 146.61600133786644 -262.93829972344133 curveto
146.51303809563979 -263.04126296566795 146.41007485801597 -263.1957078244051 146.30711162039213 -263.40163429965276 curveto
146.30711162039213 -263.40163429965276 146.30711162039213 -263.4531159207661 146.30711162039213 -263.5560791583899 curveto
146.15266676165498 -263.71052401712706 lineto
146.15266676165498 -263.71052401712706 146.15266676165498 -263.71052401712706 146.15266676165498 -263.71052401712706 curveto
146.04970351942833 -263.71052401712706 145.99822190291783 -263.71052401712706 145.99822190291783 -263.71052401712706 curveto
145.99822190291783 -263.50459753267376 146.10118514514448 -263.2471894363128 146.30711162039213 -262.93829972344133 curveto
146.61600134707206 -262.4234835123081 147.02785430217017 -262.1660754297556 147.54267049028928 -262.1660754297556 curveto
148.0574867014225 -262.1660754297556 148.41785802620166 -262.4234835353222 148.6237845014493 -262.93829972344133 curveto
148.8297109859026 -262.52644675453473 149.08711908226357 -262.2690386673794 149.39600879513503 -262.1660754297556 curveto
149.49897203736168 -262.1660754297556 149.6019352749855 -262.1660754297556 149.70489851260933 -262.1660754297556 curveto
150.11675148151588 -262.1660754297556 150.37415956867122 -262.26903867198223 150.47712280629506 -262.47496514722985 curveto
150.5800860485217 -262.57792838945653 150.6315676650322 -262.68089162708037 150.6315676650322 -262.78385486470415 curveto
150.6315676650322 -263.0927445913841 150.47712280169225 -263.2471894409156 150.16823308882076 -263.2471894409156 curveto
150.16823308882076 -263.35015268314226 150.11675146770745 -263.40163429965276 150.01378823008363 -263.40163429965276 curveto
149.80786174563033 -263.40163429965276 149.70489851260933 -263.29867105742613 149.70489851260933 -263.09274458217845 curveto
149.70489851260933 -263.09274458217845 149.70489851260933 -263.0412629610651 149.70489851260933 -262.93829972344133 curveto
149.70489851260933 -262.73237323898803 149.80786175483598 -262.5779283848537 150.01378823008363 -262.47496514722985 curveto
150.01378823008363 -262.47496514722985 150.06526985119694 -262.47496514722985 150.16823308882076 -262.47496514722985 curveto
150.06526984659413 -262.37200190500323 149.91082498785698 -262.32052028849273 149.70489851260933 -262.32052028849273 curveto
149.19008230147614 -262.32052028849273 148.8811925978103 -262.680891636286 148.77822936018646 -263.40163429965276 curveto
148.6752661179598 -263.40163429965276 148.6237845014493 -263.4531159207661 148.6237845014493 -263.5560791583899 curveto
closepath
fill
newpath
1.5 setlinewidth
10.0 setmiterlimit
1 setlinejoin
1 setlinecap
[ ] 0 setdash
newpath
153.8097061409021 -264.0194137346013 moveto
153.8097061409021 -264.0194137346013 lineto
153.8097061409021 -265.15200939909437 153.6037796564488 -266.1816417707298 153.1919267059535 -267.10831090934425 curveto
152.88303697927358 -267.8290536049307 152.47118402417547 -268.3953514049575 151.95636783605636 -268.8072043554528 curveto
151.8534045938297 -268.9101675976795 151.7504413562059 -268.96164921419 151.64747811858206 -268.96164921419 curveto
151.64747811858206 -268.96164921419 151.64747811858206 -268.91016759307666 151.64747811858206 -268.8072043554528 curveto
151.64747811858206 -268.8072043554528 151.64747811858206 -268.7557227343395 151.64747811858206 -268.6527594967157 curveto
152.7800737830751 -267.6231270744493 153.34637156469066 -266.0786784870778 153.34637156469066 -264.0194137346013 curveto
153.34637156469066 -261.9601488900685 152.83155535355746 -260.4157003487252 151.8019229773192 -259.38606797248696 curveto
151.8019229773192 -259.38606797248696 lineto
151.69895973509256 -259.28310473026033 151.64747811858206 -259.23162311374983 151.64747811858206 -259.23162311374983 curveto
151.64747811858206 -259.12865987152315 151.64747811858206 -259.07717825501265 151.64747811858206 -259.07717825501265 curveto
151.7504413608087 -259.07717825501265 151.95636784065917 -259.2316231183526 152.26525755353066 -259.54051283122413 curveto
152.6771105224372 -259.9523658001307 152.98600023070586 -260.41570037173926 153.1919267059535 -260.9305165598584 curveto
153.60377967486008 -261.85718573989817 153.8097061409021 -262.88681812073924 153.8097061409021 -264.0194137346013 curveto
closepath
fill
newpath
1.5 setlinewidth
10.0 setmiterlimit
1 setlinejoin
1 setlinecap
[ ] 0 setdash
newpath
164.41494176950695 -263.2471894409156 moveto
158.54603713749543 -263.2471894409156 lineto
158.34011065304213 -263.2471894409156 158.23714742002113 -263.19570781980224 158.23714742002113 -263.09274458217845 curveto
158.23714742002113 -262.98978133995183 158.34011066224778 -262.93829972344133 158.54603713749543 -262.93829972344133 curveto
164.41494176950695 -262.93829972344133 lineto
164.62086825396025 -262.93829972344133 164.72383148698125 -262.9897813445547 164.72383148698125 -263.09274458217845 curveto
164.72383148698125 -263.1957078244051 164.6208682447546 -263.2471894409156 164.41494176950695 -263.2471894409156 curveto
closepath
164.41494176950695 -265.1005277457613 moveto
158.54603713749543 -265.1005277457613 lineto
158.34011065304213 -265.1005277457613 158.23714742002113 -265.049046124648 158.23714742002113 -264.9460828870242 curveto
158.23714742002113 -264.8431196447975 158.34011066224778 -264.791638028287 158.54603713749543 -264.791638028287 curveto
164.41494176950695 -264.791638028287 lineto
164.62086825396025 -264.791638028287 164.72383148698125 -264.84311964940036 164.72383148698125 -264.9460828870242 curveto
164.72383148698125 -265.0490461292508 164.6208682447546 -265.1005277457613 164.41494176950695 -265.1005277457613 curveto
closepath
fill
newpath
0.0 0.39215687 0.0 setrgbcolor
1.5 setlinewidth
10.0 setmiterlimit
1 setlinejoin
1 setlinecap
[ ] 0 setdash
newpath
169.75190527734017 -259.69495768996126 moveto
169.75190527734017 -265.7183071807099 lineto
169.75190527734017 -265.92423366516323 169.80338689845348 -266.07867851929757 169.90635013607732 -266.18164175692135 curveto
170.00931337830397 -266.18164175692135 170.21523985815443 -266.18164175692135 170.5241295710259 -266.18164175692135 curveto
170.5241295710259 -266.49053147439565 lineto
169.44301555986587 -266.49053147439565 lineto
169.34005231763925 -266.49053147439565 168.97968097444883 -266.49053147439565 168.36190154870587 -266.49053147439565 curveto
168.36190154870587 -266.18164175692135 lineto
168.77375451761242 -266.18164175692135 169.03116260476776 -266.130160135808 169.1341258423916 -266.02719689818423 curveto
169.1341258423916 -266.02719689818423 lineto
169.1341258423916 -266.02719689818423 169.1341258423916 -265.9242336559576 169.1341258423916 -265.7183071807099 curveto
169.1341258423916 -260.6216268423841 lineto
169.1341258423916 -260.3127371157042 169.0826442212783 -260.1582922661727 168.97968098365445 -260.1582922661727 curveto
168.97968098365445 -260.1582922661727 lineto
168.8767177414278 -260.05532902394606 168.77375450380399 -260.00384740743556 168.67079126618015 -260.00384740743556 curveto
168.36190154870587 -260.00384740743556 lineto
168.36190154870587 -259.69495768996126 lineto
169.75190527734017 -259.69495768996126 lineto
closepath
fill
newpath
1.5 setlinewidth
10.0 setmiterlimit
1 setlinejoin
1 setlinecap
[ ] 0 setdash
newpath
171.8798205991107 -263.09274458217845 moveto
171.8798205991107 -262.78385485549853 171.8283389779974 -262.62941000596703 171.72537574037355 -262.62941000596703 curveto
171.6224124981469 -262.52644676374035 171.46796763940975 -262.47496514722985 171.2620411641621 -262.47496514722985 curveto
171.10759630542498 -262.47496514722985 lineto
171.10759630542498 -262.1660754297556 lineto
172.49760003405927 -262.1660754297556 lineto
172.49760003405927 -263.09274458217845 lineto
172.8064897607392 -262.4749651288186 173.32130595806393 -262.1660754297556 174.04204862143072 -262.1660754297556 curveto
174.45390159033727 -262.1660754297556 174.76279129860595 -262.26903867198223 174.9687177738536 -262.47496514722985 curveto
175.1746442583069 -262.68089163168315 175.2776074913279 -262.98978134915745 175.2776074913279 -263.40163429965276 curveto
175.2776074913279 -263.5045975418794 175.2776074913279 -263.71052402172984 175.2776074913279 -264.0194137346013 curveto
175.2776074913279 -265.87275203944705 lineto
175.2776074913279 -266.07867852390035 175.38057073355452 -266.18164175692135 175.58649720880217 -266.18164175692135 curveto
175.68946045102882 -266.18164175692135 175.84390530976597 -266.18164175692135 176.04983178501362 -266.18164175692135 curveto
176.04983178501362 -266.49053147439565 lineto
175.43205233165378 -266.49053147439565 175.07168101147744 -266.49053147439565 174.9687177738536 -266.49053147439565 curveto
174.9687177738536 -266.49053147439565 174.60834642606036 -266.49053147439565 173.88760376269357 -266.49053147439565 curveto
173.88760376269357 -266.18164175692135 lineto
174.29945673160015 -266.18164175692135 174.50538319764217 -266.130160135808 174.50538319764217 -266.02719689818423 curveto
174.50538319764217 -266.02719689818423 lineto
174.6083464398688 -266.02719689818423 174.6598280563793 -265.9242336559576 174.6598280563793 -265.7183071807099 curveto
174.6598280563793 -263.40163429965276 lineto
174.6598280563793 -262.7838548462929 174.45390157192602 -262.4234835261165 174.04204862143072 -262.32052028849273 curveto
174.04204862143072 -262.32052028849273 173.9905670003174 -262.32052028849273 173.88760376269357 -262.32052028849273 curveto
173.47575079378703 -262.32052028849273 173.16686108551835 -262.52644677294603 172.9609346102707 -262.93829972344133 curveto
172.65204488359078 -263.1442262078946 172.49760003405927 -263.4531159253689 172.49760003405927 -263.8649688758642 curveto
172.49760003405927 -265.7183071807099 lineto
172.49760003405927 -265.92423366516323 172.54908165517259 -266.07867851929757 172.65204489279643 -266.18164175692135 curveto
172.75500813502308 -266.18164175692135 172.96093461487354 -266.18164175692135 173.269824327745 -266.18164175692135 curveto
173.269824327745 -266.49053147439565 lineto
172.65204487438515 -266.49053147439565 172.2916735542088 -266.49053147439565 172.18871031658497 -266.49053147439565 curveto
172.18871031658497 -266.49053147439565 171.82833896879174 -266.49053147439565 171.10759630542498 -266.49053147439565 curveto
171.10759630542498 -266.18164175692135 lineto
171.51944927433152 -266.18164175692135 171.72537574037355 -266.130160135808 171.72537574037355 -266.02719689818423 curveto
171.8798205991107 -266.02719689818423 lineto
171.8798205991107 -266.02719689818423 171.8798205991107 -265.9242336559576 171.8798205991107 -265.7183071807099 curveto
171.8798205991107 -263.09274458217845 lineto
closepath
fill
newpath
0.0 0.39215687 0.0 setrgbcolor
1.5 setlinewidth
10.0 setmiterlimit
1 setlinejoin
1 setlinecap
[ ] 0 setdash
newpath
179.53343813486893 -268.8072043554528 moveto
179.53343813486893 -268.8072043554528 lineto
179.53343813486893 -268.9101675976795 179.53343813486893 -268.96164921419 179.53343813486893 -268.96164921419 curveto
179.43047489264228 -268.96164921419 179.22454841279182 -268.80720435085004 178.91565869992036 -268.4983146379785 curveto
178.5038057310138 -268.086461669072 178.19491602274513 -267.6231270974634 177.98898954749748 -267.10831090934425 curveto
177.4741733363643 -266.1816417293045 177.21676525381176 -265.1520093484634 177.21676525381176 -264.0194137346013 curveto
177.21676525381176 -262.8868180701083 177.42269173826503 -261.85718569847285 177.83454468876033 -260.9305165598584 curveto
178.24639765766688 -260.20977386427194 178.70973222927552 -259.64347606424514 179.22454841739466 -259.23162311374983 curveto
179.32751165962128 -259.12865987152315 179.4304748972451 -259.07717825501265 179.53343813486893 -259.07717825501265 curveto
179.53343813486893 -259.07717825501265 179.53343813486893 -259.128659876126 179.53343813486893 -259.23162311374983 curveto
179.53343813486893 -259.23162311374983 179.48195651375562 -259.2831047348632 179.37899327613178 -259.38606797248696 curveto
178.3493608538654 -260.41570039475334 177.83454468876033 -261.9601489821248 177.83454468876033 -264.0194137346013 curveto
177.83454468876033 -266.07867857913413 178.34936089989353 -267.6231271204775 179.37899327613178 -268.6527594967157 curveto
179.48195651835843 -268.7557227389423 179.53343813486893 -268.8072043554528 179.53343813486893 -268.8072043554528 curveto
closepath
fill
newpath
1.5 setlinewidth
10.0 setmiterlimit
1 setlinejoin
1 setlinecap
[ ] 0 setdash
newpath
183.37740325302283 -263.5560791583899 moveto
183.06851353554856 -264.791638028287 lineto
182.9655502933219 -265.30645423942025 182.9140686768114 -265.61534394308615 182.9140686768114 -265.7183071807099 curveto
182.9140686768114 -266.02719690738985 183.01703191903803 -266.2331233780347 183.22295839428568 -266.33608661565853 curveto
183.32592163651233 -266.33608661565853 183.42888487413614 -266.33608661565853 183.53184811175998 -266.33608661565853 curveto
183.8407378384399 -266.33608661565853 184.09814593019806 -266.18164175231857 184.3040724054457 -265.87275203944705 curveto
184.509998889899 -265.6668255549938 184.66444374403332 -265.40941745863284 184.76740698165716 -265.1005277457613 curveto
184.76740698165716 -264.9975645035347 184.81888860277047 -264.9460828870242 184.92185184039428 -264.9460828870242 curveto
185.02481508262093 -264.9460828870242 185.07629669913143 -264.99756450813754 185.07629669913143 -265.1005277457613 curveto
185.07629669913143 -265.203490987988 184.9733334569048 -265.40941746783847 184.76740698165716 -265.7183071807099 curveto
184.3555540127506 -266.3360866340698 183.9437010622553 -266.6449763331328 183.53184811175998 -266.6449763331328 curveto
183.0170319006268 -266.6449763331328 182.6566605758476 -266.43904984867953 182.45073410059996 -266.02719689818423 curveto
182.45073410059996 -265.92423365595755 182.45073410059996 -265.87275203944705 182.45073410059996 -265.87275203944705 curveto
182.2448076161467 -266.18164176612703 181.98739951978573 -266.38756823677187 181.67850980691424 -266.49053147439565 curveto
181.57554656468758 -266.5934947166223 181.47258332706377 -266.6449763331328 181.36962008943996 -266.6449763331328 curveto
180.9577671205334 -266.6449763331328 180.64887741226474 -266.4905314697928 180.4429509370171 -266.18164175692135 curveto
180.4429509370171 -266.18164175692135 180.4429509370171 -266.07867851469473 180.4429509370171 -265.87275203944705 curveto
180.4429509370171 -265.6668255549938 180.5459141792437 -265.51238070085947 180.75184065449136 -265.4094174632356 curveto
180.854803896718 -265.4094174632356 180.9062855132285 -265.4094174632356 180.9062855132285 -265.4094174632356 curveto
181.1122119976818 -265.4094174632356 181.26665685181612 -265.46089908434897 181.36962008943996 -265.5638623219728 curveto
181.36962008943996 -265.6668255641994 181.36962008943996 -265.7183071807099 181.36962008943996 -265.7183071807099 curveto
181.36962008943996 -265.92423366516323 181.2666568472133 -266.07867851929757 181.06073037196566 -266.18164175692135 curveto
180.957767129739 -266.18164175692135 180.9062855132285 -266.18164175692135 180.9062855132285 -266.18164175692135 curveto
181.00924875545516 -266.28460499914803 181.1636936141923 -266.33608661565853 181.36962008943996 -266.33608661565853 curveto
181.67850981611988 -266.33608661565853 181.93591790787804 -266.13016013120523 182.1418443831257 -265.7183071807099 curveto
182.2448076253523 -265.6153439384833 182.2962892418628 -265.51238070085947 182.2962892418628 -265.4094174632356 curveto
182.60517896854273 -264.0708953142893 182.75962381807426 -263.2471894363128 182.75962381807426 -262.93829972344133 curveto
182.75962381807426 -262.52644675453473 182.6051789547343 -262.32052028849273 182.2962892418628 -262.32052028849273 curveto
181.9873995151829 -262.32052028849273 181.67850980231142 -262.52644677294603 181.36962008943996 -262.93829972344133 curveto
181.36962008943996 -262.93829972344133 lineto
181.36962008943996 -262.93829972344133 181.36962008943996 -262.93829972344133 181.36962008943996 -262.93829972344133 curveto
181.2666568472133 -263.04126296566795 181.1636936095895 -263.1957078244051 181.06073037196566 -263.40163429965276 curveto
181.06073037196566 -263.40163429965276 181.06073037196566 -263.4531159207661 181.06073037196566 -263.5560791583899 curveto
180.9062855132285 -263.71052401712706 lineto
180.9062855132285 -263.71052401712706 180.9062855132285 -263.71052401712706 180.9062855132285 -263.71052401712706 curveto
180.80332227100186 -263.71052401712706 180.75184065449136 -263.71052401712706 180.75184065449136 -263.71052401712706 curveto
180.75184065449136 -263.50459753267376 180.854803896718 -263.2471894363128 181.06073037196566 -262.93829972344133 curveto
181.36962009864558 -262.4234835123081 181.7814730537437 -262.1660754297556 182.2962892418628 -262.1660754297556 curveto
182.81110545299603 -262.1660754297556 183.17147677777518 -262.4234835353222 183.37740325302283 -262.93829972344133 curveto
183.58332973747613 -262.52644675453473 183.8407378338371 -262.2690386673794 184.14962754670856 -262.1660754297556 curveto
184.2525907889352 -262.1660754297556 184.35555402655902 -262.1660754297556 184.45851726418286 -262.1660754297556 curveto
184.8703702330894 -262.1660754297556 185.12777832024474 -262.26903867198223 185.23074155786858 -262.47496514722985 curveto
185.33370480009523 -262.57792838945653 185.38518641660573 -262.68089162708037 185.38518641660573 -262.78385486470415 curveto
185.38518641660573 -263.0927445913841 185.23074155326577 -263.2471894409156 184.92185184039428 -263.2471894409156 curveto
184.92185184039428 -263.35015268314226 184.87037021928097 -263.40163429965276 184.76740698165716 -263.40163429965276 curveto
184.56148049720386 -263.40163429965276 184.45851726418286 -263.29867105742613 184.45851726418286 -263.09274458217845 curveto
184.45851726418286 -263.09274458217845 184.45851726418286 -263.0412629610651 184.45851726418286 -262.93829972344133 curveto
184.45851726418286 -262.73237323898803 184.5614805064095 -262.5779283848537 184.76740698165716 -262.47496514722985 curveto
184.76740698165716 -262.47496514722985 184.81888860277047 -262.47496514722985 184.92185184039428 -262.47496514722985 curveto
184.81888859816766 -262.37200190500323 184.6644437394305 -262.32052028849273 184.45851726418286 -262.32052028849273 curveto
183.94370105304967 -262.32052028849273 183.63481134938382 -262.680891636286 183.53184811175998 -263.40163429965276 curveto
183.42888486953333 -263.40163429965276 183.37740325302283 -263.4531159207661 183.37740325302283 -263.5560791583899 curveto
closepath
fill
newpath
1.5 setlinewidth
10.0 setmiterlimit
1 setlinejoin
1 setlinecap
[ ] 0 setdash
newpath
188.56331546590954 -264.0194137346013 moveto
188.56331546590954 -264.0194137346013 lineto
188.56331546590954 -265.15200939909437 188.35738898145624 -266.1816417707298 187.94553603096094 -267.10831090934425 curveto
187.63664630428102 -267.8290536049307 187.2247933491829 -268.3953514049575 186.7099771610638 -268.8072043554528 curveto
186.60701391883714 -268.9101675976795 186.50405068121333 -268.96164921419 186.4010874435895 -268.96164921419 curveto
186.4010874435895 -268.96164921419 186.4010874435895 -268.91016759307666 186.4010874435895 -268.8072043554528 curveto
186.4010874435895 -268.8072043554528 186.4010874435895 -268.7557227343395 186.4010874435895 -268.6527594967157 curveto
187.53368310808253 -267.6231270744493 188.0999808896981 -266.0786784870778 188.0999808896981 -264.0194137346013 curveto
188.0999808896981 -261.9601488900685 187.5851646785649 -260.4157003487252 186.55553230232664 -259.38606797248696 curveto
186.55553230232664 -259.38606797248696 lineto
186.4525690601 -259.28310473026033 186.4010874435895 -259.23162311374983 186.4010874435895 -259.23162311374983 curveto
186.4010874435895 -259.12865987152315 186.4010874435895 -259.07717825501265 186.4010874435895 -259.07717825501265 curveto
186.50405068581614 -259.07717825501265 186.7099771656666 -259.2316231183526 187.0188668785381 -259.54051283122413 curveto
187.43071984744464 -259.9523658001307 187.7396095557133 -260.41570037173926 187.94553603096094 -260.9305165598584 curveto
188.3573889998675 -261.85718573989817 188.56331546590954 -262.88681812073924 188.56331546590954 -264.0194137346013 curveto
closepath
fill
newpath
0.0 0.39215687 0.0 setrgbcolor
0.0 0.39215687 0.0 setrgbcolor
1.0 0.0 0.0 setrgbcolor
2.0 setlinewidth
10.0 setmiterlimit
1 setlinejoin
1 setlinecap
[ ] 0 setdash
newpath
133.13640576750765 -125.27552285029243 moveto
134.0987807677204 -122.65950985934016 lineto
135.52536354184508 -118.78165474770543 lineto
136.95194631596976 -114.9038075742316 lineto
138.37852909009445 -111.02595246259686 lineto
139.80511186421913 -107.14809735096213 lineto
141.2316946383438 -103.2702422393274 lineto
142.65827741246852 -99.39238712769266 lineto
144.0848601865932 -95.51453201605793 lineto
145.5114429607179 -91.63667690442318 lineto
146.93802573484257 -87.75882973094936 lineto
148.36460850896725 -83.88097461931463 lineto
149.79119128309193 -80.0031195076799 lineto
151.21777405721662 -76.12526439604515 lineto
152.6443568313413 -72.24740928441042 lineto
154.07093960546598 -68.36955417277568 lineto
155.49752237959066 -64.4917030302214 lineto
156.92410515371537 -60.61384791858667 lineto
158.35068792784006 -56.735992806951934 lineto
159.77727070196474 -52.8581376953172 lineto
161.20385347608942 -48.98028655276292 lineto
162.6304362502141 -45.10243144112818 lineto
164.05701902433879 -41.224576329493445 lineto
165.48360179846347 -37.34672518693917 lineto
167.15215559355988 -32.81113192285646 lineto
stroke
newpath
1.0 0.0 0.0 setrgbcolor
2.0 setlinewidth
10.0 setmiterlimit
1 setlinejoin
1 setlinecap
[ ] 0 setdash
newpath
206.83719705728745 -191.43832385618308 moveto
208.28108502220402 -190.90714975680308 lineto
211.1342505704534 -189.85753436814866 lineto
213.98741611870275 -188.80790310317244 lineto
216.84058166695215 -187.75828771451802 lineto
219.6937472152015 -186.7086723258636 lineto
222.54691276345088 -185.65904106088735 lineto
225.40007831170024 -184.60942567223293 lineto
228.2532438599496 -183.5598102835785 lineto
231.10640940819897 -182.5101790186023 lineto
233.95957495644836 -181.46056362994787 lineto
236.81274050469773 -180.41094824129345 lineto
239.6659060529471 -179.3613169763172 lineto
242.51907160119646 -178.31170158766278 lineto
245.37223714944582 -177.26208619900837 lineto
248.22540269769522 -176.21245493403214 lineto
251.07856824594458 -175.16283954537772 lineto
253.93173379419395 -174.11320828040147 lineto
256.78489934244334 -173.06359289174705 lineto
259.6380648906927 -172.01397750309263 lineto
262.49123043894207 -170.9643462381164 lineto
265.34439598719143 -169.914730849462 lineto
268.1975615354408 -168.86511546080757 lineto
271.05072708369016 -167.81548419583132 lineto
273.9038926319395 -166.7658688071769 lineto
276.7570581801889 -165.71625341852248 lineto
279.61022372843826 -164.66662215354626 lineto
282.4633892766876 -163.61700676489184 lineto
285.31655482493704 -162.56739137623742 lineto
286.2072799847426 -162.23970409371947 lineto
stroke
newpath
0.0 0.0 0.0 setrgbcolor
1.0 setlinewidth
10.0 setmiterlimit
1 setlinejoin
1 setlinecap
[ ] 0 setdash
newpath
43.07376339052068 -283.52824593429636 moveto
329.20318589302184 2.6011765682045542 lineto
stroke
newpath
0.0 0.0 0.0 setrgbcolor
1.0 setlinewidth
10.0 setmiterlimit
1 setlinejoin
1 setlinecap
[ ] 0 setdash
newpath
66.08614218594695 -274.208718011026 moveto
66.8014657422032 -272.60330434783725 lineto
65.09444361931897 -268.18943285866516 lineto
65.96014769592455 -268.18943285866516 lineto
67.22415693453644 -271.5140616599016 lineto
68.57351727929256 -268.18943285866516 lineto
69.329484219427 -268.18943285866516 lineto
66.91933155544997 -274.208718011026 lineto
closepath
70.09357983633708 -271.2498796646933 moveto
70.09357983633708 -270.64835758329605 lineto
74.90575648751552 -270.64835758329605 lineto
74.90575648751552 -271.2498796646933 lineto
closepath
70.09357983633708 -269.74607446120007 moveto
70.09357983633708 -269.14455237980275 lineto
74.90575648751552 -269.14455237980275 lineto
74.90575648751552 -269.74607446120007 lineto
closepath
76.3120175697011 -272.60330434783725 moveto
77.99058932387061 -270.32321051227046 lineto
76.36078963035494 -268.18943285866516 lineto
77.31184481310473 -268.18943285866516 lineto
78.60024008204354 -269.8883263047738 lineto
79.76670519934778 -268.18943285866516 lineto
80.54705816980915 -268.18943285866516 lineto
79.01886693598897 -270.42888331035374 lineto
80.6811813366072 -272.60330434783725 lineto
79.7301261538574 -272.60330434783725 lineto
78.40108750104038 -270.85563884107484 lineto
77.11675657048939 -272.60330434783725 lineto
closepath
fill
newpath
