%!PS-Adobe-3.0 EPSF-3.0
%%Creator: EpsGraphics 1.0.0 by Thomas Abeel, http://www.sourceforge.net/epsgraphics/
%%Title: GeoGebra, http://www.geogebra.org/
%%CreationDate: Sat Aug 16 15:20:06 CEST 2014
%%BoundingBox: 0 0 274 242
%%DocumentData: Clean7Bit
%%LanguageLevel: 2
%%DocumentProcessColors: Black
%%ColorUsage: Color
%%Origin: 0 0
%%Pages: 1
%%Page: 1 1
%%EndComments

gsave
0.0 242.0 translate
0.0 0.0 0.0 setrgbcolor
0.0 0.0 0.0 setrgbcolor
gsave
newpath
0.0 -0.0 moveto
274.25470443352776 -0.0 lineto
274.25470443352776 -242.76789144531907 lineto
0.0 -242.76789144531907 lineto
0.0 -0.0 lineto
closepath
clip
newpath
1.0 1.0 1.0 setrgbcolor
newpath
0.0 -0.0 moveto
274.25470443352776 -0.0 lineto
274.25470443352776 -242.76789144531907 lineto
0.0 -242.76789144531907 lineto
0.0 -0.0 lineto
closepath
fill
newpath
0.0 0.0 0.0 setrgbcolor
1.0 setlinewidth
10.0 setmiterlimit
0 setlinejoin
0 setlinecap
[ ] 0 setdash
newpath
136.82367875594215 -0.9126612460350341 moveto
136.82367875594215 -242.76789144531907 lineto
stroke
newpath
1.0 setlinewidth
10.0 setmiterlimit
0 setlinejoin
0 setlinecap
[ ] 0 setdash
newpath
137.0518440674509 -0.45633062301751703 moveto
135.4546868868896 -1.8253224920700681 lineto
stroke
newpath
1.0 setlinewidth
10.0 setmiterlimit
0 setlinejoin
0 setlinecap
[ ] 0 setdash
newpath
136.59551344443338 -0.45633062301751703 moveto
138.1926706249947 -1.8253224920700681 lineto
stroke
newpath
1.0 setlinewidth
10.0 setmiterlimit
0 setlinejoin
0 setlinecap
[ ] 0 setdash
newpath
0.0 -129.94403455251654 moveto
273.3420431874927 -129.94403455251654 lineto
stroke
newpath
1.0 setlinewidth
10.0 setmiterlimit
0 setlinejoin
0 setlinecap
[ ] 0 setdash
newpath
273.7983738105102 -130.17219986402532 moveto
272.4293819414577 -128.575042683464 lineto
stroke
newpath
1.0 setlinewidth
10.0 setmiterlimit
0 setlinejoin
0 setlinecap
[ ] 0 setdash
newpath
273.7983738105102 -129.7158692410078 moveto
272.4293819414577 -131.3130264215691 lineto
stroke
newpath
0.0 0.0 0.0 setrgbcolor
1.0 setlinewidth
10.0 setmiterlimit
0 setlinejoin
0 setlinecap
[ ] 0 setdash
newpath
21.681497853194585 -134.7766256187 moveto
21.681497853194585 -134.47359356435243 lineto
23.4952338255396 -134.47359356435243 lineto
23.4952338255396 -134.7766256187 lineto
closepath
25.447116763837183 -135.98652565922006 moveto
25.447116763837183 -135.05291955060514 lineto
23.96315096828217 -135.05291955060514 lineto
23.96315096828217 -134.72092119694494 lineto
25.447116763837183 -132.68882389132006 lineto
25.859329484824688 -132.68882389132006 lineto
25.859329484824688 -134.6941830745025 lineto
26.300508505124824 -134.6941830745025 lineto
26.300508505124824 -135.05291955060514 lineto
25.859329484824688 -135.05291955060514 lineto
25.859329484824688 -135.98652565922006 lineto
closepath
24.393189104231297 -134.6941830745025 moveto
25.47608306314982 -134.6941830745025 lineto
25.47608306314982 -133.22804269390912 lineto
closepath
fill
newpath
1.0 setlinewidth
10.0 setmiterlimit
0 setlinejoin
0 setlinecap
[ ] 0 setdash
newpath
23.4378519842886 -129.94403455251654 moveto
23.4378519842886 -131.76935704458663 lineto
stroke
newpath
0.0 0.0 0.0 setrgbcolor
1.0 setlinewidth
10.0 setmiterlimit
0 setlinejoin
0 setlinecap
[ ] 0 setdash
newpath
49.97399648028064 -134.7766256187 moveto
49.97399648028064 -134.47359356435243 lineto
51.787732452625654 -134.47359356435243 lineto
51.787732452625654 -134.7766256187 lineto
closepath
52.485151812999106 -135.96201571364784 moveto
52.485151812999106 -135.55203116953055 lineto
52.80006748670631 -135.67680907798058 53.04813783823746 -135.73919802662758 53.229362887646815 -135.73919802662758 curveto
53.438811519687924 -135.73919802662758 53.60926704597532 -135.67792316087088 53.74072947935834 -135.55537343483584 curveto
53.872191918618185 -135.43282370332244 53.93792313237128 -135.27425178347895 53.93792313237128 -135.07965767304756 curveto
53.93792313237128 -134.61619687023318 53.613352025272114 -134.3844664895443 52.96420984009269 -134.3844664895443 curveto
52.79041204421688 -134.3844664895443 lineto
52.79041204421688 -134.08811896580735 lineto
52.94415624826087 -134.08589078893715 lineto
53.55319127760027 -134.08589078893715 53.85770876504398 -133.8712430773773 53.85770876504398 -133.44194767344857 curveto
53.85770876504398 -133.1047502303753 53.6571728407493 -132.93615152391254 53.256101010089246 -132.93615152391254 curveto
53.03625421901064 -132.93615152391254 52.79412566839387 -132.99779775249203 52.529715350403166 -133.1210902041394 curveto
52.529715350403166 -132.73784378246452 lineto
52.789669326340714 -132.65020215629127 53.04219603420206 -132.60638134712255 53.287295486272086 -132.60638134712255 curveto
53.961690372418644 -132.60638134712255 54.29888778534412 -132.86113624354135 54.29888778534412 -133.37064601360208 curveto
54.29888778534412 -133.7583488005718 54.06938556087354 -134.03464272337948 53.61038113245148 -134.1995278093175 curveto
54.14217269465515 -134.32282026647644 54.40806845198406 -134.6139687140149 54.40806845198406 -135.07297314243695 curveto
54.40806845198406 -135.38343246227095 54.30557231290011 -135.6270464601281 54.10058004389608 -135.80381515586345 curveto
53.89558776572818 -135.98058385950097 53.614094755233964 -136.06896820341757 53.256101010089246 -136.06896820341757 curveto
53.05259418321242 -136.06896820341757 52.79561111895448 -136.03331737243184 52.485151812999106 -135.96201571364784 curveto
closepath
fill
newpath
1.0 setlinewidth
10.0 setmiterlimit
0 setlinejoin
0 setlinecap
[ ] 0 setdash
newpath
51.784308677201984 -129.94403455251654 moveto
51.784308677201984 -131.76935704458663 lineto
stroke
newpath
0.0 0.0 0.0 setrgbcolor
1.0 setlinewidth
10.0 setmiterlimit
0 setlinejoin
0 setlinecap
[ ] 0 setdash
newpath
78.2664951073667 -134.7766256187 moveto
78.2664951073667 -134.47359356435243 lineto
80.08023107971171 -134.47359356435243 lineto
80.08023107971171 -134.7766256187 lineto
closepath
80.69297971901746 -135.98652565922006 moveto
80.69297971901746 -135.60105106067502 lineto
80.82072853004962 -135.3024753511696 81.0791970489853 -134.97716153177225 81.46838526984801 -134.6251095915262 curveto
81.72016925618091 -134.40006372763574 lineto
82.04399763763455 -134.1074298232946 82.20591181388511 -133.81702410897185 82.20591181388511 -133.52884657138648 curveto
82.20591181388511 -133.3446506112936 82.15057875329269 -133.1998191186483 82.03991263705501 -133.09435208169694 curveto
81.92924651587016 -132.98888504003085 81.77735912630524 -132.93615152391254 81.58425046709854 -132.93615152391254 curveto
81.3554909682735 -132.93615152391254 81.08588156917033 -133.02453587573132 80.77542226321496 -133.20130457146666 curveto
80.77542226321496 -132.81360179605142 lineto
81.0680561675561 -132.67545482598175 81.35846188187885 -132.60638134712255 81.64663941946422 -132.60638134712255 curveto
81.95561328800714 -132.60638134712255 82.20368363980391 -132.68956661942255 82.39085049411193 -132.85593715658524 curveto
82.57801735678696 -133.02230770118527 82.67160077975747 -133.24289721047208 82.67160077975747 -133.51770568703546 curveto
82.67160077975747 -133.715270708748 82.62443770126595 -133.89055395226262 82.5301115484996 -134.0435554284033 curveto
82.43578539151655 -134.19655691138368 82.26013078056403 -134.38223831592796 82.00314771869665 -134.600599645954 curveto
81.83380627656125 -134.74543114251716 lineto
81.48175432057725 -135.04400685202256 81.27824750943837 -135.32921348656097 81.2232858141257 -135.60105106067502 curveto
82.65600354166605 -135.60105106067502 lineto
82.65600354166605 -135.98652565922006 lineto
closepath
fill
newpath
1.0 setlinewidth
10.0 setmiterlimit
0 setlinejoin
0 setlinecap
[ ] 0 setdash
newpath
80.13076537011537 -129.94403455251654 moveto
80.13076537011537 -131.76935704458663 lineto
stroke
newpath
0.0 0.0 0.0 setrgbcolor
1.0 setlinewidth
10.0 setmiterlimit
0 setlinejoin
0 setlinecap
[ ] 0 setdash
newpath
106.55899373445276 -134.7766256187 moveto
106.55899373445276 -134.47359356435243 lineto
108.37272970679777 -134.47359356435243 lineto
108.37272970679777 -134.7766256187 lineto
closepath
109.2929667541915 -135.98652565922006 moveto
109.2929667541915 -135.65675548243007 lineto
109.9525071077715 -135.65675548243007 lineto
109.9525071077715 -133.0542448980333 lineto
109.2929667541915 -133.2191299864283 lineto
109.2929667541915 -132.8804471021575 lineto
110.39368612807164 -132.60638134712255 lineto
110.39368612807164 -135.65675548243007 lineto
111.05322648165163 -135.65675548243007 lineto
111.05322648165163 -135.98652565922006 lineto
closepath
fill
newpath
1.0 setlinewidth
10.0 setmiterlimit
0 setlinejoin
0 setlinecap
[ ] 0 setdash
newpath
108.47722206302876 -129.94403455251654 moveto
108.47722206302876 -131.76935704458663 lineto
stroke
newpath
0.0 0.0 0.0 setrgbcolor
1.0 setlinewidth
10.0 setmiterlimit
0 setlinejoin
0 setlinecap
[ ] 0 setdash
newpath
140.61132957101285 -136.06896820341757 moveto
140.27116122535742 -136.06896820341757 139.99598138889309 -135.9089108268046 139.78579004060273 -135.58879608788888 curveto
139.57559868291608 -135.26868133466292 139.47050301346906 -134.85089817335927 139.47050301346906 -134.33544659839987 curveto
139.47050301346906 -133.81553864652477 139.5763414179579 -133.39738413132977 139.78801821747294 -133.08098302047574 curveto
139.99969502645067 -132.76458189547745 140.27858849688667 -132.60638134712255 140.62469863223407 -132.60638134712255 curveto
140.97080878305377 -132.60638134712255 141.24970224748014 -132.76458190962168 141.46137904699518 -133.08098302047574 curveto
141.6730558559729 -133.397384145474 141.77889425099906 -133.81331049282986 141.77889425099906 -134.32876206778926 curveto
141.77889425099906 -134.85758272741077 141.6730558465102 -135.2798222332578 141.46137904699518 -135.5954806184995 curveto
141.24970223801745 -135.91113901785224 140.96635241370822 -136.06896820341757 140.61132957101285 -136.06896820341757 curveto
closepath
140.61578592475325 -135.73919802662758 moveto
141.08073217885868 -135.73919802662758 141.31320528512668 -135.26682451606678 141.31320528512668 -134.32207753717864 curveto
141.31320528512668 -133.39812683413203 141.08370306065612 -132.93615152391254 140.62469863223407 -132.93615152391254 curveto
140.16717963458396 -132.93615152391254 139.9384201562116 -133.40258322930907 139.9384201562116 -134.33544659839987 curveto
139.9384201562116 -135.27128091177505 140.1642087524545 -135.73919802662758 140.61578592475325 -135.73919802662758 curveto
closepath
fill
newpath
1.0 setlinewidth
10.0 setmiterlimit
0 setlinejoin
0 setlinecap
[ ] 0 setdash
newpath
136.82367875594215 -129.94403455251654 moveto
136.82367875594215 -131.76935704458663 lineto
stroke
newpath
0.0 0.0 0.0 setrgbcolor
1.0 setlinewidth
10.0 setmiterlimit
0 setlinejoin
0 setlinecap
[ ] 0 setdash
newpath
164.96530276232858 -135.98652565922006 moveto
164.96530276232858 -135.65675548243007 lineto
165.62484311590856 -135.65675548243007 lineto
165.62484311590856 -133.0542448980333 lineto
164.96530276232858 -133.2191299864283 lineto
164.96530276232858 -132.8804471021575 lineto
166.06602213620872 -132.60638134712255 lineto
166.06602213620872 -135.65675548243007 lineto
166.72556248978873 -135.65675548243007 lineto
166.72556248978873 -135.98652565922006 lineto
closepath
fill
newpath
1.0 setlinewidth
10.0 setmiterlimit
0 setlinejoin
0 setlinecap
[ ] 0 setdash
newpath
165.17013544885555 -129.94403455251654 moveto
165.17013544885555 -131.76935704458663 lineto
stroke
newpath
0.0 0.0 0.0 setrgbcolor
1.0 setlinewidth
10.0 setmiterlimit
0 setlinejoin
0 setlinecap
[ ] 0 setdash
newpath
192.95031298132665 -135.98652565922006 moveto
192.95031298132665 -135.60105106067502 lineto
193.07806179235882 -135.3024753511696 193.33653031129447 -134.97716153177225 193.7257185321572 -134.6251095915262 curveto
193.9775025184901 -134.40006372763574 lineto
194.30133089994374 -134.1074298232946 194.46324507619428 -133.81702410897185 194.46324507619428 -133.52884657138648 curveto
194.46324507619428 -133.3446506112936 194.40791201560185 -133.1998191186483 194.29724589936419 -133.09435208169694 curveto
194.18657977817935 -132.98888504003085 194.03469238861442 -132.93615152391254 193.84158372940774 -132.93615152391254 curveto
193.6128242305827 -132.93615152391254 193.34321483147954 -133.02453587573132 193.03275552552415 -133.20130457146666 curveto
193.03275552552415 -132.81360179605142 lineto
193.32538942986528 -132.67545482598175 193.61579514418804 -132.60638134712255 193.9039726817734 -132.60638134712255 curveto
194.21294655031633 -132.60638134712255 194.4610169021131 -132.68956661942255 194.64818375642113 -132.85593715658524 curveto
194.83535061909615 -133.02230770118527 194.92893404206666 -133.24289721047208 194.92893404206666 -133.51770568703546 curveto
194.92893404206666 -133.715270708748 194.88177096357515 -133.89055395226262 194.7874448108088 -134.0435554284033 curveto
194.69311865382576 -134.19655691138368 194.51746404287323 -134.38223831592796 194.26048098100586 -134.600599645954 curveto
194.09113953887044 -134.74543114251716 lineto
193.73908758288644 -135.04400685202256 193.53558077174756 -135.32921348656097 193.4806190764349 -135.60105106067502 curveto
194.91333680397526 -135.60105106067502 lineto
194.91333680397526 -135.98652565922006 lineto
closepath
fill
newpath
1.0 setlinewidth
10.0 setmiterlimit
0 setlinejoin
0 setlinecap
[ ] 0 setdash
newpath
193.5165921417689 -129.94403455251654 moveto
193.5165921417689 -131.76935704458663 lineto
stroke
newpath
0.0 0.0 0.0 setrgbcolor
1.0 setlinewidth
10.0 setmiterlimit
0 setlinejoin
0 setlinecap
[ ] 0 setdash
newpath
221.3274823294804 -135.96201571364784 moveto
221.3274823294804 -135.55203116953055 lineto
221.64239800318762 -135.67680907798058 221.89046835471876 -135.73919802662758 222.07169340412813 -135.73919802662758 curveto
222.28114203616923 -135.73919802662758 222.45159756245664 -135.67792316087088 222.58305999583965 -135.55537343483584 curveto
222.7145224350995 -135.43282370332244 222.78025364885258 -135.27425178347895 222.78025364885258 -135.07965767304756 curveto
222.78025364885258 -134.61619687023318 222.45568254175342 -134.3844664895443 221.806540356574 -134.3844664895443 curveto
221.63274256069818 -134.3844664895443 lineto
221.63274256069818 -134.08811896580735 lineto
221.78648676474216 -134.08589078893715 lineto
222.39552179408156 -134.08589078893715 222.70003928152528 -133.8712430773773 222.70003928152528 -133.44194767344857 curveto
222.70003928152528 -133.1047502303753 222.4995033572306 -132.93615152391254 222.09843152657055 -132.93615152391254 curveto
221.87858473549196 -132.93615152391254 221.6364561848752 -132.99779775249203 221.37204586688446 -133.1210902041394 curveto
221.37204586688446 -132.73784378246452 lineto
221.631999842822 -132.65020215629127 221.88452655068335 -132.60638134712255 222.12962600275338 -132.60638134712255 curveto
222.80402088889994 -132.60638134712255 223.14121830182543 -132.86113624354135 223.14121830182543 -133.37064601360208 curveto
223.14121830182543 -133.7583488005718 222.91171607735484 -134.03464272337948 222.4527116489328 -134.1995278093175 curveto
222.98450321113646 -134.32282026647644 223.25039896846536 -134.6139687140149 223.25039896846536 -135.07297314243695 curveto
223.25039896846536 -135.38343246227095 223.14790282938142 -135.6270464601281 222.94291056037738 -135.80381515586345 curveto
222.73791828220948 -135.98058385950097 222.45642527171526 -136.06896820341757 222.09843152657055 -136.06896820341757 curveto
221.89492469969372 -136.06896820341757 221.6379416354358 -136.03331737243184 221.3274823294804 -135.96201571364784 curveto
closepath
fill
newpath
1.0 setlinewidth
10.0 setmiterlimit
0 setlinejoin
0 setlinecap
[ ] 0 setdash
newpath
221.86304883468227 -129.94403455251654 moveto
221.86304883468227 -131.76935704458663 lineto
stroke
newpath
0.0 0.0 0.0 setrgbcolor
1.0 setlinewidth
10.0 setmiterlimit
0 setlinejoin
0 setlinecap
[ ] 0 setdash
newpath
250.8744445344906 -135.98652565922006 moveto
250.8744445344906 -135.05291955060514 lineto
249.3904787389356 -135.05291955060514 lineto
249.3904787389356 -134.72092119694494 lineto
250.8744445344906 -132.68882389132006 lineto
251.2866572554781 -132.68882389132006 lineto
251.2866572554781 -134.6941830745025 lineto
251.72783627577823 -134.6941830745025 lineto
251.72783627577823 -135.05291955060514 lineto
251.2866572554781 -135.05291955060514 lineto
251.2866572554781 -135.98652565922006 lineto
closepath
249.8205168748847 -134.6941830745025 moveto
250.90341083380324 -134.6941830745025 lineto
250.90341083380324 -133.22804269390912 lineto
closepath
fill
newpath
1.0 setlinewidth
10.0 setmiterlimit
0 setlinejoin
0 setlinecap
[ ] 0 setdash
newpath
250.20950552759567 -129.94403455251654 moveto
250.20950552759567 -131.76935704458663 lineto
stroke
newpath
0.0 0.0 0.0 setrgbcolor
1.0 setlinewidth
10.0 setmiterlimit
0 setlinejoin
0 setlinecap
[ ] 0 setdash
newpath
129.37552488532862 -215.5471458928005 moveto
129.37552488532862 -215.24411383845293 lineto
131.18926085767362 -215.24411383845293 lineto
131.18926085767362 -215.5471458928005 lineto
closepath
131.88668021804708 -216.73253598774835 moveto
131.88668021804708 -216.32255144363106 lineto
132.20159589175427 -216.44732935208108 132.4496662432854 -216.50971830072808 132.63089129269477 -216.50971830072808 curveto
132.84033992473587 -216.50971830072808 133.01079545102328 -216.44844343497138 133.1422578844063 -216.32589370893638 curveto
133.27372032366614 -216.20334397742295 133.33945153741925 -216.04477205757945 133.33945153741925 -215.8501779471481 curveto
133.33945153741925 -215.38671714433372 133.0148804303201 -215.15498676364484 132.36573824514065 -215.15498676364484 curveto
132.19194044926485 -215.15498676364484 lineto
132.19194044926485 -214.8586392399079 lineto
132.34568465330884 -214.85641106303768 lineto
132.95471968264823 -214.85641106303768 133.25923717009195 -214.6417633514778 133.25923717009195 -214.21246794754907 curveto
133.25923717009195 -213.87527050447582 133.05870124579727 -213.70667179801308 132.65762941513722 -213.70667179801308 curveto
132.4377826240586 -213.70667179801308 132.19565407344183 -213.76831802659254 131.93124375545113 -213.8916104782399 curveto
131.93124375545113 -213.50836405656503 lineto
132.19119773138866 -213.42072243039178 132.44372443925002 -213.37690162122306 132.68882389132006 -213.37690162122306 curveto
133.3632187774666 -213.37690162122306 133.70041619039208 -213.63165651764186 133.70041619039208 -214.1411662877026 curveto
133.70041619039208 -214.52886907467231 133.47091396592148 -214.80516299747998 133.01190953749943 -214.97004808341802 curveto
133.5437010997031 -215.09334054057697 133.809596857032 -215.38448898811544 133.809596857032 -215.84349341653748 curveto
133.809596857032 -216.15395273637148 133.70710071794807 -216.39756673422863 133.50210844894406 -216.57433542996398 curveto
133.29711617077615 -216.7511041336015 133.01562316028193 -216.8394884775181 132.65762941513722 -216.8394884775181 curveto
132.4541225882604 -216.8394884775181 132.19713952400247 -216.80383764653237 131.88668021804708 -216.73253598774835 curveto
closepath
fill
newpath
1.0 setlinewidth
10.0 setmiterlimit
0 setlinejoin
0 setlinecap
[ ] 0 setdash
newpath
134.99835626387207 -214.9834046312569 moveto
136.82367875594215 -214.9834046312569 lineto
stroke
newpath
0.0 0.0 0.0 setrgbcolor
1.0 setlinewidth
10.0 setmiterlimit
0 setlinejoin
0 setlinecap
[ ] 0 setdash
newpath
129.37552488532862 -186.79831664269693 moveto
129.37552488532862 -186.49528458834936 lineto
131.18926085767362 -186.49528458834936 lineto
131.18926085767362 -186.79831664269693 lineto
closepath
131.80200949697937 -188.00821668321703 moveto
131.80200949697937 -187.62274208467196 lineto
131.92975830801154 -187.32416637516653 132.1882268269472 -186.9988525557692 132.57741504780992 -186.64680061552315 curveto
132.82919903414282 -186.42175475163268 lineto
133.15302741559645 -186.12912084729155 133.314941591847 -185.8387151329688 133.314941591847 -185.55053759538342 curveto
133.314941591847 -185.36634163529052 133.25960853125457 -185.22151014264523 133.1489424150169 -185.11604310569388 curveto
133.03827629383207 -185.0105760640278 132.88638890426714 -184.9578425479095 132.69328024506046 -184.9578425479095 curveto
132.46452074623542 -184.9578425479095 132.19491134713226 -185.04622689972828 131.88445204117687 -185.22299559546363 curveto
131.88445204117687 -184.83529282004835 lineto
132.177085945518 -184.69714584997868 132.46749165984076 -184.6280723711195 132.75566919742613 -184.6280723711195 curveto
133.06464306596905 -184.6280723711195 133.31271341776582 -184.71125764341951 133.49988027207385 -184.8776281805822 curveto
133.68704713474887 -185.04399872518223 133.78063055771938 -185.26458823446902 133.78063055771938 -185.5393967110324 curveto
133.78063055771938 -185.73696173274496 133.73346747922784 -185.9122449762596 133.6391413264615 -186.06524645240026 curveto
133.54481516947845 -186.21824793538065 133.36916055852595 -186.4039293399249 133.11217749665857 -186.62229066995093 curveto
132.94283605452316 -186.7671221665141 lineto
132.59078409853916 -187.0656978760195 132.38727728740028 -187.3509045105579 132.3323155920876 -187.62274208467196 curveto
133.76503331962797 -187.62274208467196 lineto
133.76503331962797 -188.00821668321703 lineto
closepath
fill
newpath
1.0 setlinewidth
10.0 setmiterlimit
0 setlinejoin
0 setlinecap
[ ] 0 setdash
newpath
134.99835626387207 -186.63694793834344 moveto
136.82367875594215 -186.63694793834344 lineto
stroke
newpath
0.0 0.0 0.0 setrgbcolor
1.0 setlinewidth
10.0 setmiterlimit
0 setlinejoin
0 setlinecap
[ ] 0 setdash
newpath
129.37552488532862 -158.50581801561088 moveto
129.37552488532862 -158.20278596126332 lineto
131.18926085767362 -158.20278596126332 lineto
131.18926085767362 -158.50581801561088 lineto
closepath
132.10949790506734 -159.71571805613095 moveto
132.10949790506734 -159.38594787934096 lineto
132.76903825864736 -159.38594787934096 lineto
132.76903825864736 -156.78343729494418 lineto
132.10949790506734 -156.9483223833392 lineto
132.10949790506734 -156.60963949906838 lineto
133.21021727894748 -156.33557374403344 lineto
133.21021727894748 -159.38594787934096 lineto
133.8697576325275 -159.38594787934096 lineto
133.8697576325275 -159.71571805613095 lineto
closepath
fill
newpath
1.0 setlinewidth
10.0 setmiterlimit
0 setlinejoin
0 setlinecap
[ ] 0 setdash
newpath
134.99835626387207 -158.29049124543002 moveto
136.82367875594215 -158.29049124543002 lineto
stroke
newpath
0.0 0.0 0.0 setrgbcolor
1.0 setlinewidth
10.0 setmiterlimit
0 setlinejoin
0 setlinecap
[ ] 0 setdash
newpath
132.85370897971507 -128.7676782351373 moveto
132.51354063405964 -128.7676782351373 132.2383607975953 -128.60762085852434 132.02816944930495 -128.28750611960862 curveto
131.8179780916183 -127.96739136638267 131.71288242217125 -127.549608205079 131.71288242217125 -127.03415663011958 curveto
131.71288242217125 -126.51424867824448 131.81872082666013 -126.0960941630495 132.03039762617516 -125.77969305219546 curveto
132.2420744351529 -125.46329192719718 132.5209679055889 -125.30509137884228 132.86707804093626 -125.30509137884228 curveto
133.213188191756 -125.30509137884228 133.49208165618236 -125.46329194134141 133.7037584556974 -125.77969305219546 curveto
133.91543526467512 -126.09609417719373 134.02127365970128 -126.51202052454957 134.02127365970128 -127.02747209950898 curveto
134.02127365970128 -127.55629275913051 133.91543525521243 -127.97853226497752 133.7037584556974 -128.29419065021924 curveto
133.49208164671967 -128.60984904957198 133.20873182241044 -128.7676782351373 132.85370897971507 -128.7676782351373 curveto
closepath
132.85816533345545 -128.4379080583473 moveto
133.3231115875609 -128.4379080583473 133.5555846938289 -127.96553454778649 133.5555846938289 -127.02078756889837 curveto
133.5555846938289 -126.09683686585177 133.3260824693583 -125.63486155563228 132.86707804093626 -125.63486155563228 curveto
132.40955904328618 -125.63486155563228 132.18079956491383 -126.1012932610288 132.18079956491383 -127.03415663011958 curveto
132.18079956491383 -127.96999094349475 132.40658816115672 -128.4379080583473 132.85816533345545 -128.4379080583473 curveto
closepath
fill
newpath
1.0 setlinewidth
10.0 setmiterlimit
0 setlinejoin
0 setlinecap
[ ] 0 setdash
newpath
134.99835626387207 -129.9440345525166 moveto
136.82367875594215 -129.9440345525166 lineto
stroke
newpath
0.0 0.0 0.0 setrgbcolor
1.0 setlinewidth
10.0 setmiterlimit
0 setlinejoin
0 setlinecap
[ ] 0 setdash
newpath
132.10949790506734 -103.13072080195884 moveto
132.10949790506734 -102.80095062516885 lineto
132.76903825864736 -102.80095062516885 lineto
132.76903825864736 -100.19844004077207 lineto
132.10949790506734 -100.36332512916707 lineto
132.10949790506734 -100.02464224489626 lineto
133.21021727894748 -99.75057648986133 lineto
133.21021727894748 -102.80095062516885 lineto
133.8697576325275 -102.80095062516885 lineto
133.8697576325275 -103.13072080195884 lineto
closepath
fill
newpath
1.0 setlinewidth
10.0 setmiterlimit
0 setlinejoin
0 setlinecap
[ ] 0 setdash
newpath
134.99835626387207 -101.59757785960316 moveto
136.82367875594215 -101.59757785960316 lineto
stroke
newpath
0.0 0.0 0.0 setrgbcolor
1.0 setlinewidth
10.0 setmiterlimit
0 setlinejoin
0 setlinecap
[ ] 0 setdash
newpath
131.80200949697937 -74.8382221748728 moveto
131.80200949697937 -74.45274757632772 lineto
131.92975830801154 -74.15417186682231 132.1882268269472 -73.82885804742497 132.57741504780992 -73.47680610717893 curveto
132.82919903414282 -73.25176024328846 lineto
133.15302741559645 -72.95912633894733 133.314941591847 -72.66872062462457 133.314941591847 -72.3805430870392 curveto
133.314941591847 -72.1963471269463 133.25960853125457 -72.05151563430101 133.1489424150169 -71.94604859734966 curveto
133.03827629383207 -71.84058155568357 132.88638890426714 -71.78784803956528 132.69328024506046 -71.78784803956528 curveto
132.46452074623542 -71.78784803956528 132.19491134713226 -71.87623239138404 131.88445204117687 -72.0530010871194 curveto
131.88445204117687 -71.66529831170412 lineto
132.177085945518 -71.52715134163445 132.46749165984076 -71.45807786277527 132.75566919742613 -71.45807786277527 curveto
133.06464306596905 -71.45807786277527 133.31271341776582 -71.54126313507528 133.49988027207385 -71.70763367223798 curveto
133.68704713474887 -71.874004216838 133.78063055771938 -72.09459372612481 133.78063055771938 -72.36940220268818 curveto
133.78063055771938 -72.56696722440073 133.73346747922784 -72.74225046791534 133.6391413264615 -72.89525194405603 curveto
133.54481516947845 -73.04825342703641 133.36916055852595 -73.23393483158067 133.11217749665857 -73.4522961616067 curveto
132.94283605452316 -73.59712765816988 lineto
132.59078409853916 -73.8957033676753 132.38727728740028 -74.18091000221368 132.3323155920876 -74.45274757632772 curveto
133.76503331962797 -74.45274757632772 lineto
133.76503331962797 -74.8382221748728 lineto
closepath
fill
newpath
1.0 setlinewidth
10.0 setmiterlimit
0 setlinejoin
0 setlinecap
[ ] 0 setdash
newpath
134.99835626387207 -73.25112116668973 moveto
136.82367875594215 -73.25112116668973 lineto
stroke
newpath
0.0 0.0 0.0 setrgbcolor
1.0 setlinewidth
10.0 setmiterlimit
0 setlinejoin
0 setlinecap
[ ] 0 setdash
newpath
131.88668021804708 -46.52121360221451 moveto
131.88668021804708 -46.11122905809721 lineto
132.20159589175427 -46.23600696654723 132.4496662432854 -46.298395915194234 132.63089129269477 -46.298395915194234 curveto
132.84033992473587 -46.298395915194234 133.01079545102328 -46.237121049437526 133.1422578844063 -46.11457132340251 curveto
133.27372032366614 -45.9920215918891 133.33945153741925 -45.83344967204559 133.33945153741925 -45.63885556161423 curveto
133.33945153741925 -45.175394758799854 133.0148804303201 -44.94366437811098 132.36573824514065 -44.94366437811098 curveto
132.19194044926485 -44.94366437811098 lineto
132.19194044926485 -44.64731685437402 lineto
132.34568465330884 -44.645088677503814 lineto
132.95471968264823 -44.645088677503814 133.25923717009195 -44.43044096594395 133.25923717009195 -44.00114556201523 curveto
133.25923717009195 -43.66394811894195 133.05870124579727 -43.495349412479214 132.65762941513722 -43.495349412479214 curveto
132.4377826240586 -43.495349412479214 132.19565407344183 -43.55699564105869 131.93124375545113 -43.68028809270604 curveto
131.93124375545113 -43.297041671031174 lineto
132.19119773138866 -43.209400044857944 132.44372443925002 -43.165579235689215 132.68882389132006 -43.165579235689215 curveto
133.3632187774666 -43.165579235689215 133.70041619039208 -43.42033413210801 133.70041619039208 -43.92984390216874 curveto
133.70041619039208 -44.31754668913846 133.47091396592148 -44.593840611946135 133.01190953749943 -44.75872569788416 curveto
133.5437010997031 -44.882018155043106 133.809596857032 -45.17316660258156 133.809596857032 -45.63217103100362 curveto
133.809596857032 -45.94263035083761 133.70710071794807 -46.18624434869476 133.50210844894406 -46.36301304443011 curveto
133.29711617077615 -46.53978174806765 133.01562316028193 -46.62816609198424 132.65762941513722 -46.62816609198424 curveto
132.4541225882604 -46.62816609198424 132.19713952400247 -46.59251526099852 131.88668021804708 -46.52121360221451 curveto
closepath
fill
newpath
1.0 setlinewidth
10.0 setmiterlimit
0 setlinejoin
0 setlinecap
[ ] 0 setdash
newpath
134.99835626387207 -44.904664473776286 moveto
136.82367875594215 -44.904664473776286 lineto
stroke
newpath
0.0 0.0 0.0 setrgbcolor
1.0 setlinewidth
10.0 setmiterlimit
0 setlinejoin
0 setlinecap
[ ] 0 setdash
newpath
133.1411437959712 -18.25322492070068 moveto
133.1411437959712 -17.319618812085743 lineto
131.6571780004162 -17.319618812085743 lineto
131.6571780004162 -16.987620458425535 lineto
133.1411437959712 -14.955523152800655 lineto
133.5533565169587 -14.955523152800655 lineto
133.5533565169587 -16.960882335983104 lineto
133.99453553725886 -16.960882335983104 lineto
133.99453553725886 -17.319618812085743 lineto
133.5533565169587 -17.319618812085743 lineto
133.5533565169587 -18.25322492070068 lineto
closepath
132.08721613636533 -16.960882335983104 moveto
133.17011009528383 -16.960882335983104 lineto
133.17011009528383 -15.494741955389713 lineto
closepath
fill
newpath
1.0 setlinewidth
10.0 setmiterlimit
0 setlinejoin
0 setlinecap
[ ] 0 setdash
newpath
134.99835626387207 -16.55820778086285 moveto
136.82367875594215 -16.55820778086285 lineto
stroke
newpath
1.0 0.0 0.0 setrgbcolor
2.0 setlinewidth
10.0 setmiterlimit
1 setlinejoin
1 setlinecap
[ ] 0 setdash
newpath
23.43785130807916 -55.830111819705586 moveto
25.209506071314582 -51.85465783383801 lineto
26.98115909378682 -48.34226426144124 lineto
28.75281211625906 -45.29667722487829 lineto
30.52446687949448 -42.71921970416585 lineto
32.29611816120354 -40.60887161208054 lineto
34.06777292443896 -38.962276757211605 lineto
35.83942768767438 -37.77382988211995 lineto
36.72525332852891 -37.34905929555304 lineto
37.61107896938344 -37.03573236775986 lineto
39.38273373261886 -36.738072308585295 lineto
39.82564655304613 -36.73111970044499 lineto
40.26855937347339 -36.75075550911365 lineto
41.15438849585428 -36.86891851376159 lineto
42.92603977756334 -37.414404063798095 lineto
43.81186889994423 -37.837809892032006 lineto
44.69769454079876 -38.35885860854983 lineto
46.46934930403418 -39.684898886902864 lineto
48.24100058574324 -41.37355058019688 lineto
50.01265534897866 -43.404398017858625 lineto
51.78431011221408 -45.75569558624549 lineto
53.55596139392314 -48.404513952752524 lineto
55.32761615715856 -51.32688977144598 lineto
57.09927092039398 -54.497957981064935 lineto
58.8709256836294 -57.89211543676022 lineto
60.642576965338456 -61.48317061572787 lineto
62.41422824704752 -65.24448635978989 lineto
64.1858864918093 -69.14913654408042 lineto
65.95753777351835 -73.17007667183736 lineto
67.72918905522742 -77.28026920935137 lineto
69.5008472999892 -81.45284373617834 lineto
71.27249858169826 -85.66125709535197 lineto
73.04414986340731 -89.87941872833274 lineto
74.8158081081691 -94.08182993606226 lineto
76.58745938987816 -98.24373706612313 lineto
78.35911067158722 -102.34124988463515 lineto
80.13076195329627 -106.35145994815153 lineto
81.90242019805805 -110.25255201250245 lineto
83.67407147976712 -114.02394329384941 lineto
85.44572276147618 -117.64636006226517 lineto
87.21738100623796 -121.10191423531363 lineto
88.98903228794701 -124.37421478689333 lineto
90.76068356965608 -127.44847219302835 lineto
92.53234181441786 -130.3114845057627 lineto
94.30399309612692 -132.9517626881094 lineto
96.07564437783597 -135.35953061405047 lineto
97.84730262259775 -137.52679469906403 lineto
99.61895390430682 -139.44737175233524 lineto
101.39060518601588 -141.11687505065098 lineto
103.16226343077766 -142.53271433839953 lineto
104.93391471248671 -143.6941515319927 lineto
106.70556599419578 -144.6022032371275 lineto
108.47722423895756 -145.259696453208 lineto
110.24887552066662 -145.67114323839638 lineto
112.02052680237567 -145.84276856182373 lineto
113.79218504713745 -145.78246852527388 lineto
115.56383632884652 -145.4996293238125 lineto
117.33548761055557 -145.0051829502091 lineto
119.10713889226464 -144.31149578609325 lineto
120.8787901739737 -143.4322014886895 lineto
122.65045538178819 -142.38221491692278 lineto
124.42210666349726 -141.17755109204768 lineto
126.19375794520631 -139.83525556712124 lineto
127.96540922691537 -138.37327909205405 lineto
129.73706050862444 -136.8103383525558 lineto
131.5087117903335 -135.1658463396081 lineto
133.280376998148 -133.45968953177757 lineto
135.05202827985707 -131.71222789521565 lineto
136.8236795615661 -129.94403028765538 lineto
138.59533084327518 -128.1758466062006 lineto
140.36698212498425 -126.42837104353322 lineto
142.1386334066933 -124.72222816180812 lineto
143.91029861450778 -123.077722222755 lineto
145.68194989621685 -121.51479540936218 lineto
147.45360117792592 -120.05280500818955 lineto
149.225252459635 -118.71052340936855 lineto
150.99690374134403 -117.50585958449345 lineto
152.7685550230531 -116.45586604967401 lineto
154.5402202308676 -115.576578715323 lineto
156.31187151257666 -114.88287762510168 lineto
158.08352279428573 -114.3884451776037 lineto
159.85517407599477 -114.10560597614234 lineto
161.62682535770384 -114.04529201348704 lineto
163.3984766394129 -114.21693126301984 lineto
165.1701418472274 -114.62837804820822 lineto
166.94179312893647 -115.285864301236 lineto
168.7134444106455 -116.19391600637081 lineto
170.48509569235458 -117.35534623691126 lineto
172.25674697406365 -118.77119945076527 lineto
174.0283982557727 -120.44068882297553 lineto
175.8000634635872 -122.36126587624676 lineto
177.57171474529625 -124.52854388736576 lineto
179.34336602700532 -126.93631181330682 lineto
181.11501730871439 -129.57658999565353 lineto
182.88666859042343 -132.4396023083879 lineto
184.6583198721325 -135.51384578841746 lineto
186.42997115384156 -138.7861602661026 lineto
188.20163636165606 -142.24171443915105 lineto
189.97328764336513 -145.86411728146138 lineto
191.74493892507417 -149.63551552586105 lineto
193.51659020678323 -153.536607590212 lineto
195.2882414884923 -157.54682461678107 lineto
197.05989277020134 -161.64433047224037 lineto
198.83155797801587 -165.80624456535395 lineto
200.6032092597249 -170.0086557730835 lineto
202.37486054143397 -174.22680347995882 lineto
204.14651182314304 -178.43521683913244 lineto
205.91816310485208 -182.60779832901213 lineto
207.68981438656115 -186.71799086652612 lineto
209.46147959437565 -190.7389309942831 lineto
211.23313087608472 -194.64358814162634 lineto
213.00478215779378 -198.40490388568836 lineto
214.77643343950282 -201.995959064656 lineto
216.5480847212119 -205.39011303882492 lineto
218.31973600292096 -208.56118472997025 lineto
220.09140121073546 -211.48355010408463 lineto
221.86305249244452 -214.13237891517073 lineto
223.63470377415356 -216.4836764835576 lineto
225.40635505586263 -218.51452043969297 lineto
227.1780063375717 -220.203172132987 lineto
228.94965761928074 -221.52921589286638 lineto
230.72132282709526 -222.47367043761813 lineto
231.60714846794977 -222.79729920190962 lineto
232.4929741088043 -223.01915598765464 lineto
234.26461146440792 -223.14999174825184 lineto
234.70754517399337 -223.11624879477372 lineto
235.1504510313679 -223.05551704895524 lineto
236.03629059832787 -222.85233517060365 lineto
237.80794188003694 -222.11423765624355 lineto
238.69375359478602 -221.57684317346698 lineto
239.579593161746 -220.9257977442046 lineto
241.35124444345504 -219.2792028893357 lineto
243.1228957251641 -217.16885479725036 lineto
244.89454700687318 -214.59139727653795 lineto
246.66619828858222 -211.5457997953959 lineto
248.4378495702913 -208.03341318605186 lineto
250.20950085200036 -204.05795571865792 lineto
stroke
newpath
1.0 0.0 0.0 setrgbcolor
2.0 setlinewidth
10.0 setmiterlimit
1 setlinejoin
1 setlinecap
[ ] 0 setdash
newpath
30.198926757231504 -59.375565966414 moveto
30.2604244388491 -58.9183440726484 lineto
30.565239043777012 -59.06272993814057 30.86559728120544 -59.134922864432106 31.16149916515908 -59.134922864432106 curveto
31.755085501071335 -59.134922864432106 32.051878642492085 -58.820304280983116 32.051878642492085 -58.19106714221423 curveto
32.051878642492085 -57.73384524844863 lineto
31.857581613619907 -58.14026472168585 31.538506684983457 -58.3434744401361 31.094653859052997 -58.3434744401361 curveto
30.747058256942218 -58.3434744401361 30.470764332341613 -58.21691399013679 30.265772063337586 -57.963793101453554 curveto
30.06077978516969 -57.71067220145493 29.95828365524961 -57.36931550608204 29.95828365524961 -56.939723011908384 curveto
29.95828365524961 -56.49765270768544 30.075040126727846 -56.13757933449174 30.308553059245476 -55.859502865234106 curveto
30.54206600220195 -55.581426383545484 30.844206784367096 -55.44238815513216 31.214975410043944 -55.44238815513216 curveto
31.539397972014005 -55.44238815513216 31.818365709974454 -55.57429622977933 32.051878642492085 -55.83811236728016 curveto
32.051878642492085 -55.506559648994 lineto
32.58129346685225 -55.506559648994 lineto
32.58129346685225 -57.61887132194617 lineto
32.58129346685225 -58.07341941701412 32.55767479132421 -58.409874114121976 32.5104374423798 -58.628235444148004 curveto
32.46320009132372 -58.846596783935546 32.374518651358414 -59.02529656448996 32.2443931240776 -59.164334799118784 curveto
32.014445264219695 -59.40854299137097 31.657045693867317 -59.53064707658011 31.17219441413605 -59.53064707658011 curveto
30.8335115197717 -59.53064707658011 30.509088972941946 -59.47895337165082 30.198926757231504 -59.375565966414 curveto
closepath
32.051878642492085 -57.404966342406716 moveto
32.051878642492085 -56.199077020253 lineto
31.820148241084897 -55.958433911099384 31.567918622220077 -55.83811236728016 31.29518977737124 -55.83811236728016 curveto
31.05276412666834 -55.83811236728016 30.862923462506647 -55.93526088171625 30.725667769347424 -56.12955790190268 curveto
30.5884120700524 -56.32385493077486 30.519784226540693 -56.59034488370737 30.519784226540693 -56.92902776293141 curveto
30.519784226540693 -57.565395096026535 30.743493190976093 -57.88357873412626 31.190911099845753 -57.88357873412626 curveto
31.49572570477367 -57.88357873412626 31.78271488058245 -57.72404126546516 32.051878642492085 -57.404966342406716 curveto
closepath
fill
newpath
0.0 0.0 0.0 setrgbcolor
1.0 setlinewidth
10.0 setmiterlimit
1 setlinejoin
0 setlinecap
[ 1.0 3.0 ] 0 setdash
newpath
-2.281653115087585 -36.74332153615623 moveto
276.53635754861534 -36.74332153615623 lineto
stroke
newpath
0.0 0.0 0.0 setrgbcolor
1.0 setlinewidth
10.0 setmiterlimit
1 setlinejoin
0 setlinecap
[ 1.0 3.0 ] 0 setdash
newpath
37.92980922608686 -34.68112734933129 moveto
37.92980922608686 -30.723885227851262 lineto
38.70788858916165 -30.723885227851262 lineto
39.804151609301385 -33.7854002475098 lineto
40.93250037637205 -30.723885227851262 lineto
41.627691559875295 -30.723885227851262 lineto
41.627691559875295 -34.68112734933129 lineto
41.103624360003614 -34.68112734933129 lineto
41.103624360003614 -31.461857407262404 lineto
40.01270896435236 -34.41641993715121 lineto
39.46992507877098 -34.41641993715121 lineto
38.41109543005065 -31.453835970529674 lineto
38.41109543005065 -34.68112734933129 lineto
closepath
44.159791755173664 -34.312141259625726 moveto
43.84428190095003 -34.60269553215935 43.54035858090115 -34.74797265543737 43.24802177988671 -34.74797265543737 curveto
43.0073786707331 -34.74797265543737 42.80773402797064 -34.67266027498004 42.64908783717622 -34.52203552079882 curveto
42.49044163928976 -34.37141075988415 42.41111854743857 -34.181124456231316 42.41111854743857 -33.951176606652886 curveto
42.41111854743857 -33.63388421087997 42.5443635282477 -33.39012166819917 42.81085347795294 -33.21988895785235 curveto
43.07734343957121 -33.04965623989553 43.45925295459271 -32.96453988852712 43.95658202461118 -32.96453988852712 curveto
44.08225120009061 -32.96453988852712 lineto
44.08225120009061 -32.614270484531254 lineto
44.08225120009061 -32.27737013171619 43.90934466980986 -32.10891997036927 43.563531624707416 -32.10891997036927 curveto
43.285455143018794 -32.10891997036927 42.98509690439508 -32.194481964735004 42.66245689839744 -32.365605945816625 curveto
42.66245689839744 -31.929774550004975 lineto
43.01718266670536 -31.785388684512807 43.349626649789734 -31.71319575822127 43.659788865500175 -31.71319575822127 curveto
43.984211427470235 -31.71319575822127 44.223517615959075 -31.786279961742 44.37770745307949 -31.932448362249218 curveto
44.53189729709273 -32.078616769290676 44.60899221220653 -32.305890810290414 44.60899221220653 -32.614270484531254 curveto
44.60899221220653 -33.929786108698934 lineto
44.60899221220653 -34.231035630528275 44.70168437276941 -34.38166037797605 44.88706868560783 -34.38166037797605 curveto
44.91024172574855 -34.38166037797605 44.94411001414907 -34.378095294877475 44.988673550889075 -34.370965128999075 curveto
45.026106922308486 -34.66241066362159 lineto
44.90667663850632 -34.719451993198746 44.7747685691981 -34.74797265543737 44.63038271016048 -34.74797265543737 curveto
44.384391976359005 -34.74797265543737 44.227528331018476 -34.60269551917056 44.159791755173664 -34.312141259625726 curveto
closepath
44.08225120009061 -34.026043349491694 moveto
44.08225120009061 -33.27470210885934 lineto
43.90577959197056 -33.26935448437085 lineto
43.61700786098622 -33.26935448437085 43.383494930938845 -33.3241676370114 43.20524078397882 -33.43379393739181 curveto
43.02698662905022 -33.5434202426729 42.9378595595545 -33.68736046787708 42.9378595595545 -33.8656146148371 curveto
42.9378595595545 -33.99217506483641 42.982423098286645 -34.099127552135876 43.07155017176666 -34.18647208414629 curveto
43.160677249230964 -34.27381662006131 43.26941227975312 -34.31748888411421 43.397755265564335 -34.31748888411421 curveto
43.61700787612652 -34.31748888411421 43.84517318463378 -34.22034036967812 44.08225120009061 -34.026043349491694 curveto
closepath
45.39509301201405 -34.68112734933129 moveto
46.49937746888652 -33.181118680310824 lineto
45.42717875894497 -31.77736725208311 lineto
46.052850824097895 -31.77736725208311 lineto
46.90044930552301 -32.89502077017679 lineto
47.66783341962083 -31.77736725208311 lineto
48.181205370515535 -31.77736725208311 lineto
47.175851966680064 -33.250637798661145 lineto
48.26944117457556 -34.68112734933129 lineto
47.643769109422635 -34.68112734933129 lineto
46.76943250555509 -33.53138808430669 lineto
45.92450783637422 -34.68112734933129 lineto
closepath
49.04484672540611 -34.68112734933129 moveto
49.04484672540611 -31.77736725208311 lineto
49.57158773752203 -31.77736725208311 lineto
49.57158773752203 -34.68112734933129 lineto
closepath
49.04484672540611 -31.250626239967186 moveto
49.04484672540611 -30.723885227851262 lineto
49.57158773752203 -30.723885227851262 lineto
49.57158773752203 -31.250626239967186 lineto
closepath
50.62774357399812 -34.68112734933129 moveto
50.62774357399812 -31.77736725208311 lineto
51.154484586114044 -31.77736725208311 lineto
51.154484586114044 -32.322824949908735 lineto
51.41117056921124 -31.916405476671514 51.7409407443544 -31.71319575822127 52.14379511648405 -31.71319575822127 curveto
52.532389174228406 -31.71319575822127 52.79709657692588 -31.916405494839882 52.937917353024304 -32.322824949908735 curveto
53.187473169924345 -31.914622935122228 53.511895720738394 -31.71052194597703 53.91118500992885 -31.71052194597703 curveto
54.16787099302604 -31.71052194597703 54.36662436429668 -31.785834326434365 54.5074451403951 -31.936459080615585 curveto
54.648265922788696 -32.08708384153026 54.718676307690316 -32.297869372999884 54.718676307690316 -32.56881567637912 curveto
54.718676307690316 -34.68112734933129 lineto
54.18926148333015 -34.68112734933129 lineto
54.18926148333015 -32.65170385595066 lineto
54.18926148333015 -32.32015112778345 54.05824467945762 -32.15437477852141 53.796211083426385 -32.15437477852141 curveto
53.523482226385624 -32.15437477852141 53.23738431991714 -32.34778053661895 52.937917353024304 -32.7345920355222 curveto
52.937917353024304 -34.68112734933129 lineto
52.40850252866414 -34.68112734933129 lineto
52.40850252866414 -32.65170385595066 lineto
52.40850252866414 -32.318368586234165 52.27481191246768 -32.15170096627717 52.00743069202765 -32.15170096627717 curveto
51.74183200118402 -32.15170096627717 51.457516635946085 -32.34599799514935 51.154484586114044 -32.7345920355222 curveto
51.154484586114044 -34.68112734933129 lineto
closepath
57.555591098832416 -34.68112734933129 moveto
57.555591098832416 -34.135669651505665 lineto
57.27573207559451 -34.54387166629217 56.93615792296619 -34.74797265543737 56.53686863377573 -34.74797265543737 curveto
56.28374773377711 -34.74797265543737 56.08232055002318 -34.66820392110682 55.93258706657676 -34.508666459577604 curveto
55.78285357643673 -34.3491289909165 55.70798683806032 -34.133887105972086 55.70798683806032 -33.86294080259285 curveto
55.70798683806032 -31.77736725208311 lineto
56.23472785017624 -31.77736725208311 lineto
56.23472785017624 -33.691816818961286 lineto
56.23472785017624 -33.90928688797419 56.26636796267607 -34.063922357653084 56.32964818484688 -34.15572324333749 curveto
56.39292840984653 -34.24752413312572 56.49854399381289 -34.29342457391602 56.646494935789704 -34.29342457391602 curveto
56.96735241466119 -34.29342457391602 57.27038446369638 -34.08219340032562 57.555591098832416 -33.65973107203037 curveto
57.555591098832416 -31.77736725208311 lineto
58.08233211094834 -31.77736725208311 lineto
58.08233211094834 -34.68112734933129 lineto
closepath
59.13848794742443 -34.68112734933129 moveto
59.13848794742443 -31.77736725208311 lineto
59.66522895954035 -31.77736725208311 lineto
59.66522895954035 -32.322824949908735 lineto
59.92191494263754 -31.916405476671514 60.25168511778071 -31.71319575822127 60.65453948991036 -31.71319575822127 curveto
61.04313354765472 -31.71319575822127 61.307840950352194 -31.916405494839882 61.44866172645061 -32.322824949908735 curveto
61.69821754335066 -31.914622935122228 62.02264009416471 -31.71052194597703 62.421929383355156 -31.71052194597703 curveto
62.67861536645235 -31.71052194597703 62.87736873772299 -31.785834326434365 63.018189513821405 -31.936459080615585 curveto
63.159010296215 -32.08708384153026 63.22942068111662 -32.297869372999884 63.22942068111662 -32.56881567637912 curveto
63.22942068111662 -34.68112734933129 lineto
62.700005856756455 -34.68112734933129 lineto
62.700005856756455 -32.65170385595066 lineto
62.700005856756455 -32.32015112778345 62.56898905288393 -32.15437477852141 62.3069554568527 -32.15437477852141 curveto
62.03422659981193 -32.15437477852141 61.748128693343446 -32.34778053661895 61.44866172645061 -32.7345920355222 curveto
61.44866172645061 -34.68112734933129 lineto
60.91924690209044 -34.68112734933129 lineto
60.91924690209044 -32.65170385595066 lineto
60.91924690209044 -32.318368586234165 60.78555628589399 -32.15170096627717 60.51817506545395 -32.15170096627717 curveto
60.252576374610335 -32.15170096627717 59.96826100937239 -32.34599799514935 59.66522895954035 -32.7345920355222 curveto
59.66522895954035 -34.68112734933129 lineto
closepath
fill
newpath
0.0 0.0 0.0 setrgbcolor
1.0 setlinewidth
10.0 setmiterlimit
1 setlinejoin
0 setlinecap
[ 1.0 3.0 ] 0 setdash
newpath
-2.281653115087585 -223.1557529249636 moveto
276.53635754861534 -223.1557529249636 lineto
stroke
newpath
0.0 0.0 0.0 setrgbcolor
1.0 setlinewidth
10.0 setmiterlimit
1 setlinejoin
0 setlinecap
[ 1.0 3.0 ] 0 setdash
newpath
37.92980922608686 -229.53430337781106 moveto
37.92980922608686 -225.57706125633104 lineto
38.70788858916165 -225.57706125633104 lineto
39.804151609301385 -228.63857627598958 lineto
40.93250037637205 -225.57706125633104 lineto
41.627691559875295 -225.57706125633104 lineto
41.627691559875295 -229.53430337781106 lineto
41.103624360003614 -229.53430337781106 lineto
41.103624360003614 -226.31503343574218 lineto
40.01270896435236 -229.269595965631 lineto
39.46992507877098 -229.269595965631 lineto
38.41109543005065 -226.30701199900946 lineto
38.41109543005065 -229.53430337781106 lineto
closepath
42.66245689839744 -229.53430337781106 moveto
42.66245689839744 -226.63054328056288 lineto
43.18919791051336 -226.63054328056288 lineto
43.18919791051336 -229.53430337781106 lineto
closepath
42.66245689839744 -226.10380226844697 moveto
42.66245689839744 -225.57706125633104 lineto
43.18919791051336 -225.57706125633104 lineto
43.18919791051336 -226.10380226844697 lineto
closepath
44.24535374698945 -229.53430337781106 moveto
44.24535374698945 -226.63054328056288 lineto
44.77209475910537 -226.63054328056288 lineto
44.77209475910537 -227.17600097838852 lineto
45.05017124079399 -226.76958150515128 45.39063666427665 -226.56637178670104 45.7934910364063 -226.56637178670104 curveto
46.04482939485563 -226.56637178670104 46.24536530791462 -226.64614052103158 46.395098791361036 -226.8056779825608 curveto
46.54483228150106 -226.9652154512219 46.619699019877466 -227.17956606539167 46.619699019877466 -227.44872982730132 curveto
46.619699019877466 -229.53430337781106 lineto
46.092958007761546 -229.53430337781106 lineto
46.092958007761546 -227.61985381093288 lineto
46.092958007761546 -227.4041662834693 46.061317895261716 -227.25042208448534 45.998037673090906 -227.15862119880092 curveto
45.934757448091254 -227.06682030901268 45.830033134899544 -227.0209198682224 45.68386473439232 -227.0209198682224 curveto
45.361224713971545 -227.0209198682224 45.05730139424141 -227.23215104181278 44.77209475910537 -227.65461337010805 curveto
44.77209475910537 -229.53430337781106 lineto
closepath
47.643769109422635 -229.53430337781106 moveto
47.643769109422635 -226.63054328056288 lineto
48.17051012153856 -226.63054328056288 lineto
48.17051012153856 -229.53430337781106 lineto
closepath
47.643769109422635 -226.10380226844697 moveto
47.643769109422635 -225.57706125633104 lineto
48.17051012153856 -225.57706125633104 lineto
48.17051012153856 -226.10380226844697 lineto
closepath
49.22666595801465 -229.53430337781106 moveto
49.22666595801465 -226.63054328056288 lineto
49.75340697013057 -226.63054328056288 lineto
49.75340697013057 -227.17600097838852 lineto
50.01009295322776 -226.76958150515128 50.33986312837093 -226.56637178670104 50.74271750050058 -226.56637178670104 curveto
51.13131155824494 -226.56637178670104 51.39601896094241 -226.76958152331966 51.53683973704083 -227.17600097838852 curveto
51.78639555394088 -226.76779896360202 52.11081810475493 -226.5636979744568 52.510107393945376 -226.5636979744568 curveto
52.76679337704257 -226.5636979744568 52.96554674831321 -226.63901035491415 53.106367524411624 -226.78963510909537 curveto
53.24718830680522 -226.94025987001004 53.31759869170684 -227.15104540147965 53.31759869170684 -227.4219917048589 curveto
53.31759869170684 -229.53430337781106 lineto
52.788183867346675 -229.53430337781106 lineto
52.788183867346675 -227.50487988443044 lineto
52.788183867346675 -227.17332715626324 52.65716706347415 -227.0075508070012 52.39513346744292 -227.0075508070012 curveto
52.12240461040215 -227.0075508070012 51.836306703933666 -227.20095656509872 51.53683973704083 -227.58776806400198 curveto
51.53683973704083 -229.53430337781106 lineto
51.00742491268066 -229.53430337781106 lineto
51.00742491268066 -227.50487988443044 lineto
51.00742491268066 -227.17154461471392 50.87373429648421 -227.00487699475693 50.60635307604417 -227.00487699475693 curveto
50.340754385200555 -227.00487699475693 50.05643901996261 -227.19917402362913 49.75340697013057 -227.58776806400198 curveto
49.75340697013057 -229.53430337781106 lineto
closepath
56.15451348284895 -229.53430337781106 moveto
56.15451348284895 -228.98884567998545 lineto
55.87465445961104 -229.39704769477194 55.535080306982714 -229.60114868391716 55.135791017792265 -229.60114868391716 curveto
54.882670117793644 -229.60114868391716 54.6812429340397 -229.52137994958662 54.53150945059328 -229.3618424880574 curveto
54.38177596045326 -229.20230501939628 54.306909222076854 -228.98706313445186 54.306909222076854 -228.71611683107264 curveto
54.306909222076854 -226.63054328056288 lineto
54.833650234192774 -226.63054328056288 lineto
54.833650234192774 -228.54499284744105 lineto
54.833650234192774 -228.76246291645396 54.8652903466926 -228.91709838613284 54.92857056886341 -229.00889927181726 curveto
54.991850793863065 -229.10070016160552 55.09746637782942 -229.1466006023958 55.245417319806236 -229.1466006023958 curveto
55.566274798677725 -229.1466006023958 55.86930684771291 -228.93536942880542 56.15451348284895 -228.51290710051015 curveto
56.15451348284895 -226.63054328056288 lineto
56.68125449496487 -226.63054328056288 lineto
56.68125449496487 -229.53430337781106 lineto
closepath
57.73741033144096 -229.53430337781106 moveto
57.73741033144096 -226.63054328056288 lineto
58.26415134355688 -226.63054328056288 lineto
58.26415134355688 -227.17600097838852 lineto
58.520837326654075 -226.76958150515128 58.850607501797235 -226.56637178670104 59.25346187392689 -226.56637178670104 curveto
59.64205593167125 -226.56637178670104 59.906763334368726 -226.76958152331966 60.04758411046714 -227.17600097838852 curveto
60.29713992736718 -226.76779896360202 60.62156247818123 -226.5636979744568 61.02085176737169 -226.5636979744568 curveto
61.27753775046888 -226.5636979744568 61.47629112173952 -226.63901035491415 61.61711189783794 -226.78963510909537 curveto
61.757932680231534 -226.94025987001004 61.828343065133154 -227.15104540147965 61.828343065133154 -227.4219917048589 curveto
61.828343065133154 -229.53430337781106 lineto
61.29892824077299 -229.53430337781106 lineto
61.29892824077299 -227.50487988443044 lineto
61.29892824077299 -227.17332715626324 61.16791143690046 -227.0075508070012 60.90587784086922 -227.0075508070012 curveto
60.63314898382846 -227.0075508070012 60.34705107735998 -227.20095656509872 60.04758411046714 -227.58776806400198 curveto
60.04758411046714 -229.53430337781106 lineto
59.518169286106975 -229.53430337781106 lineto
59.518169286106975 -227.50487988443044 lineto
59.518169286106975 -227.17154461471392 59.38447866991052 -227.00487699475693 59.117097449470485 -227.00487699475693 curveto
58.85149875862686 -227.00487699475693 58.56718339338892 -227.19917402362913 58.26415134355688 -227.58776806400198 curveto
58.26415134355688 -229.53430337781106 lineto
closepath
fill
newpath
grestore
grestore
showpage

%%EOF