%!PS-Adobe-3.0 EPSF-3.0
%%Creator: EpsGraphics2D 0.9.0 by Paul Mutton, http://www.jibble.org/
%%Title: GeoGebra, http://www.geogebra.org
%%CreationDate: Wed Jul 13 20:27:46 CEST 2011
%%BoundingBox: 0 0 272 230
%%DocumentData: Clean7Bit
%%DocumentProcessColors: Black
%%ColorUsage: Color
%%Origin: 0 0
%%Pages: 1
%%Page: 1 1
%%EndComments

gsave
-0.0 230.0 translate
1.0 setlinewidth
10.0 setmiterlimit
0 setlinejoin
2 setlinecap
[ ] 0 setdash
gsave
newpath
0.0 -0.0 moveto
272.60303 -0.0 lineto
272.60303 -230.43475 lineto
0.0 -230.43475 lineto
0.0 -0.0 lineto
closepath
clip
newpath
1.0 1.0 1.0 setrgbcolor
newpath
0.0 -0.0 moveto
272.60303 -0.0 lineto
272.60303 -230.43475 lineto
0.0 -230.43475 lineto
0.0 -0.0 lineto
closepath
fill
newpath
0.0 0.0 0.0 setrgbcolor
newpath
22.88275 -173.13304 moveto
22.88275 -172.82524 lineto
24.729609 -172.82524 lineto
24.729609 -173.13304 lineto
closepath
25.472095 -174.1875 moveto
25.472095 -173.80482 lineto
25.766039 -173.9213 25.997591 -173.97952 26.166748 -173.97952 curveto
26.36225 -173.97952 26.521353 -173.92233 26.64406 -173.80794 curveto
26.76677 -173.69354 26.828123 -173.54553 26.828123 -173.3639 curveto
26.828123 -172.9313 26.525166 -172.71501 25.91925 -172.71501 curveto
25.757027 -172.71501 lineto
25.757027 -172.4384 lineto
25.900534 -172.43631 lineto
26.469011 -172.43631 26.75325 -172.23596 26.75325 -171.83525 curveto
26.75325 -171.52051 26.566069 -171.36314 26.191704 -171.36314 curveto
25.986498 -171.36314 25.760492 -171.42068 25.51369 -171.53577 curveto
25.51369 -171.17804 lineto
25.756334 -171.09624 25.992044 -171.05533 26.220821 -171.05533 curveto
26.850306 -171.05533 27.165049 -171.29312 27.165049 -171.76869 curveto
27.165049 -172.13058 26.95083 -172.38847 26.522392 -172.54239 curveto
27.01877 -172.65747 27.26696 -172.92923 27.26696 -173.35767 curveto
27.26696 -173.64745 27.17129 -173.87485 26.979948 -174.03984 curveto
26.788607 -174.20483 26.525858 -174.28734 26.191704 -174.28734 curveto
26.001749 -174.28734 25.76188 -174.25406 25.472095 -174.1875 curveto
closepath
fill
newpath
1.0 setlinewidth
10.0 setmiterlimit
0 setlinejoin
0 setlinecap
[ ] 0 setdash
newpath
24.785154 -168.53767 moveto
24.785154 -170.24146 lineto
stroke
newpath
newpath
50.994938 -173.13304 moveto
50.994938 -172.82524 lineto
52.841797 -172.82524 lineto
52.841797 -173.13304 lineto
closepath
53.505253 -174.21037 moveto
53.505253 -173.85057 lineto
53.624493 -173.57188 53.86575 -173.26823 54.22902 -172.93962 curveto
54.46404 -172.72957 lineto
54.766304 -172.45642 54.917435 -172.18535 54.917435 -171.91637 curveto
54.917435 -171.74443 54.865788 -171.60924 54.76249 -171.5108 curveto
54.65919 -171.41237 54.517418 -171.36314 54.33717 -171.36314 curveto
54.123642 -171.36314 53.871986 -171.44565 53.582203 -171.61064 curveto
53.582203 -171.24875 lineto
53.85535 -171.1198 54.12642 -171.05533 54.395405 -171.05533 curveto
54.683804 -171.05533 54.915356 -171.13298 55.090057 -171.28827 curveto
55.26476 -171.44356 55.35211 -171.64946 55.35211 -171.90596 curveto
55.35211 -172.09036 55.30809 -172.25398 55.220043 -172.3968 curveto
55.131996 -172.53961 54.96804 -172.71294 54.728172 -172.91675 curveto
54.570107 -173.05194 lineto
54.241497 -173.33063 54.051544 -173.59683 54.000244 -173.85057 curveto
55.33755 -173.85057 lineto
55.33755 -174.21037 lineto
closepath
fill
newpath
1.0 setlinewidth
10.0 setmiterlimit
0 setlinejoin
0 setlinecap
[ ] 0 setdash
newpath
53.13161 -168.53767 moveto
53.13161 -170.24146 lineto
stroke
newpath
newpath
79.533066 -173.13304 moveto
79.533066 -172.82524 lineto
81.37993 -172.82524 lineto
81.37993 -173.13304 lineto
closepath
82.33039 -174.21037 moveto
82.33039 -173.90257 lineto
82.946014 -173.90257 lineto
82.946014 -171.47337 lineto
82.33039 -171.62727 lineto
82.33039 -171.31114 lineto
83.35781 -171.05533 lineto
83.35781 -173.90257 lineto
83.973434 -173.90257 lineto
83.973434 -174.21037 lineto
closepath
fill
newpath
1.0 setlinewidth
10.0 setmiterlimit
0 setlinejoin
0 setlinecap
[ ] 0 setdash
newpath
81.478065 -168.53767 moveto
81.478065 -170.24146 lineto
stroke
newpath
newpath
113.35804 -174.28734 moveto
113.04053 -174.28734 112.78367 -174.13794 112.58748 -173.83914 curveto
112.39128 -173.54034 112.29318 -173.15038 112.29318 -172.66925 curveto
112.29318 -172.18398 112.391975 -171.79366 112.589554 -171.49832 curveto
112.78713 -171.20299 113.047455 -171.05533 113.37052 -171.05533 curveto
113.69358 -171.05533 113.9539 -171.20299 114.15148 -171.49832 curveto
114.34906 -171.79366 114.44785 -172.18188 114.44785 -172.66301 curveto
114.44785 -173.15662 114.34906 -173.55074 114.15148 -173.84538 curveto
113.9539 -174.14001 113.68942 -174.28734 113.35804 -174.28734 curveto
closepath
113.3622 -173.97952 moveto
113.79618 -173.97952 114.013176 -173.5386 114.013176 -172.65677 curveto
114.013176 -171.79436 113.79896 -171.36314 113.37052 -171.36314 curveto
112.94347 -171.36314 112.72994 -171.79851 112.72994 -172.66925 curveto
112.72994 -173.54277 112.9407 -173.97952 113.3622 -173.97952 curveto
closepath
fill
newpath
1.0 setlinewidth
10.0 setmiterlimit
0 setlinejoin
0 setlinecap
[ ] 0 setdash
newpath
109.824524 -168.53767 moveto
109.824524 -170.24146 lineto
stroke
newpath
newpath
137.79398 -174.21037 moveto
137.79398 -173.90257 lineto
138.4096 -173.90257 lineto
138.4096 -171.47337 lineto
137.79398 -171.62727 lineto
137.79398 -171.31114 lineto
138.8214 -171.05533 lineto
138.8214 -173.90257 lineto
139.43703 -173.90257 lineto
139.43703 -174.21037 lineto
closepath
fill
newpath
1.0 setlinewidth
10.0 setmiterlimit
0 setlinejoin
0 setlinecap
[ ] 0 setdash
newpath
138.17097 -168.53767 moveto
138.17097 -170.24146 lineto
stroke
newpath
newpath
165.61916 -174.21037 moveto
165.61916 -173.85057 lineto
165.7384 -173.57188 165.97966 -173.26823 166.34293 -172.93962 curveto
166.57794 -172.72957 lineto
166.8802 -172.45642 167.03134 -172.18535 167.03134 -171.91637 curveto
167.03134 -171.74443 166.97969 -171.60924 166.87639 -171.5108 curveto
166.7731 -171.41237 166.63133 -171.36314 166.45108 -171.36314 curveto
166.23755 -171.36314 165.98589 -171.44565 165.6961 -171.61064 curveto
165.6961 -171.24875 lineto
165.96925 -171.1198 166.24033 -171.05533 166.50931 -171.05533 curveto
166.79771 -171.05533 167.02927 -171.13298 167.20396 -171.28827 curveto
167.37866 -171.44356 167.46602 -171.64946 167.46602 -171.90596 curveto
167.46602 -172.09036 167.422 -172.25398 167.33395 -172.3968 curveto
167.24591 -172.53961 167.08195 -172.71294 166.84207 -172.91675 curveto
166.68402 -173.05194 lineto
166.35541 -173.33063 166.16545 -173.59683 166.11415 -173.85057 curveto
167.45146 -173.85057 lineto
167.45146 -174.21037 lineto
closepath
fill
newpath
1.0 setlinewidth
10.0 setmiterlimit
0 setlinejoin
0 setlinecap
[ ] 0 setdash
newpath
166.51744 -168.53767 moveto
166.51744 -170.24146 lineto
stroke
newpath
newpath
194.23633 -174.1875 moveto
194.23633 -173.80482 lineto
194.53026 -173.9213 194.76181 -173.97952 194.93097 -173.97952 curveto
195.12648 -173.97952 195.28558 -173.92233 195.40828 -173.80794 curveto
195.53099 -173.69354 195.59235 -173.54553 195.59235 -173.3639 curveto
195.59235 -172.9313 195.28938 -172.71501 194.68347 -172.71501 curveto
194.52126 -172.71501 lineto
194.52126 -172.4384 lineto
194.66476 -172.43631 lineto
195.23323 -172.43631 195.51747 -172.23596 195.51747 -171.83525 curveto
195.51747 -171.52051 195.33029 -171.36314 194.95593 -171.36314 curveto
194.75072 -171.36314 194.52472 -171.42068 194.27792 -171.53577 curveto
194.27792 -171.17804 lineto
194.52055 -171.09624 194.75627 -171.05533 194.98505 -171.05533 curveto
195.61453 -171.05533 195.92928 -171.29312 195.92928 -171.76869 curveto
195.92928 -172.13058 195.71506 -172.38847 195.28662 -172.54239 curveto
195.783 -172.65747 196.03119 -172.92923 196.03119 -173.35767 curveto
196.03119 -173.64745 195.93552 -173.87485 195.74417 -174.03984 curveto
195.55284 -174.20483 195.29008 -174.28734 194.95593 -174.28734 curveto
194.76598 -174.28734 194.52611 -174.25406 194.23633 -174.1875 curveto
closepath
fill
newpath
1.0 setlinewidth
10.0 setmiterlimit
0 setlinejoin
0 setlinecap
[ ] 0 setdash
newpath
194.86389 -168.53767 moveto
194.86389 -170.24146 lineto
stroke
newpath
newpath
223.51944 -174.21037 moveto
223.51944 -173.33894 lineto
222.1343 -173.33894 lineto
222.1343 -173.02905 lineto
223.51944 -171.13228 lineto
223.90419 -171.13228 lineto
223.90419 -173.0041 lineto
224.316 -173.0041 lineto
224.316 -173.33894 lineto
223.90419 -173.33894 lineto
223.90419 -174.21037 lineto
closepath
222.53569 -173.0041 moveto
223.54648 -173.0041 lineto
223.54648 -171.63559 lineto
closepath
fill
newpath
1.0 setlinewidth
10.0 setmiterlimit
0 setlinejoin
0 setlinecap
[ ] 0 setdash
newpath
223.21036 -168.53767 moveto
223.21036 -170.24146 lineto
stroke
newpath
newpath
250.97191 -174.22285 moveto
250.97191 -173.85681 lineto
251.17574 -173.93861 251.36986 -173.97952 251.55426 -173.97952 curveto
251.7567 -173.97952 251.9158 -173.9199 252.03157 -173.80066 curveto
252.14734 -173.68141 252.20523 -173.51712 252.20523 -173.30775 curveto
252.20523 -172.84604 251.88702 -172.61517 251.25061 -172.61517 curveto
251.17851 -172.61517 251.10294 -172.62003 251.02391 -172.62973 curveto
251.02391 -171.13228 lineto
252.58168 -171.13228 lineto
252.58168 -171.49 lineto
251.38371 -171.49 lineto
251.38371 -172.30113 lineto
251.77887 -172.30113 252.08737 -172.39195 252.30922 -172.57358 curveto
252.53107 -172.75522 252.64198 -173.00688 252.64198 -173.32855 curveto
252.64198 -173.62804 252.5411 -173.86272 252.33937 -174.03256 curveto
252.13763 -174.20241 251.85791 -174.28734 251.50018 -174.28734 curveto
251.3449 -174.28734 251.1688 -174.26584 250.97191 -174.22285 curveto
closepath
fill
newpath
1.0 setlinewidth
10.0 setmiterlimit
0 setlinejoin
0 setlinecap
[ ] 0 setdash
newpath
251.55681 -168.53767 moveto
251.55681 -170.24146 lineto
stroke
newpath
1.0 setlinewidth
10.0 setmiterlimit
0 setlinejoin
0 setlinecap
[ ] 0 setdash
newpath
0.0 -168.53767 moveto
272.60303 -168.53767 lineto
stroke
newpath
newpath
272.1771 -168.53767 moveto
270.89926 -167.25986 lineto
stroke
newpath
newpath
272.1771 -168.53767 moveto
270.89926 -169.8155 lineto
stroke
newpath
newpath
104.87372 -28.124668 moveto
104.87372 -27.758623 lineto
105.07754 -27.840427 105.27165 -27.88133 105.45606 -27.88133 curveto
105.65849 -27.88133 105.817604 -27.82171 105.93338 -27.702469 curveto
106.04916 -27.583227 106.10704 -27.418922 106.10704 -27.209557 curveto
106.10704 -26.747843 105.78883 -26.516985 105.15241 -26.516985 curveto
105.080315 -26.516985 105.004745 -26.521837 104.92571 -26.531544 curveto
104.92571 -25.03409 lineto
106.48348 -25.03409 lineto
106.48348 -25.391815 lineto
105.28552 -25.391815 lineto
105.28552 -26.202936 lineto
105.68069 -26.202936 105.98919 -26.293755 106.21103 -26.47539 curveto
106.43288 -26.657024 106.5438 -26.90868 106.5438 -27.230354 curveto
106.5438 -27.529844 106.44293 -27.764515 106.24119 -27.934366 curveto
106.039444 -28.104216 105.75971 -28.18914 105.401985 -28.18914 curveto
105.2467 -28.18914 105.07061 -28.16765 104.87372 -28.124668 curveto
closepath
fill
newpath
1.0 setlinewidth
10.0 setmiterlimit
0 setlinejoin
0 setlinecap
[ ] 0 setdash
newpath
108.12076 -26.805397 moveto
109.824524 -26.805397 lineto
stroke
newpath
newpath
105.95937 -56.65032 moveto
105.95937 -55.778885 lineto
104.57423 -55.778885 lineto
104.57423 -55.468994 lineto
105.95937 -53.57222 lineto
106.34414 -53.57222 lineto
106.34414 -55.44404 lineto
106.755936 -55.44404 lineto
106.755936 -55.778885 lineto
106.34414 -55.778885 lineto
106.34414 -56.65032 lineto
closepath
104.97563 -55.44404 moveto
105.98641 -55.44404 lineto
105.98641 -54.07553 lineto
closepath
fill
newpath
1.0 setlinewidth
10.0 setmiterlimit
0 setlinejoin
0 setlinecap
[ ] 0 setdash
newpath
108.12076 -55.151855 moveto
109.824524 -55.151855 lineto
stroke
newpath
newpath
104.78845 -85.16557 moveto
104.78845 -84.78289 lineto
105.08239 -84.89936 105.31394 -84.957596 105.4831 -84.957596 curveto
105.678604 -84.957596 105.83771 -84.9004 105.96041 -84.78601 curveto
106.08312 -84.67162 106.14448 -84.523605 106.14448 -84.34197 curveto
106.14448 -83.90938 105.84152 -83.69308 105.2356 -83.69308 curveto
105.07338 -83.69308 lineto
105.07338 -83.416466 lineto
105.21689 -83.41438 lineto
105.78536 -83.41438 106.0696 -83.21403 106.0696 -82.813324 curveto
106.0696 -82.49858 105.88242 -82.34121 105.50806 -82.34121 curveto
105.30285 -82.34121 105.07685 -82.39875 104.83005 -82.51383 curveto
104.83005 -82.156105 lineto
105.072685 -82.0743 105.308395 -82.0334 105.53718 -82.0334 curveto
106.16666 -82.0334 106.4814 -82.271194 106.4814 -82.74677 curveto
106.4814 -83.10866 106.26718 -83.36655 105.838745 -83.520454 curveto
106.33512 -83.63554 106.58331 -83.907295 106.58331 -84.33573 curveto
106.58331 -84.62552 106.48764 -84.852905 106.2963 -85.01791 curveto
106.104965 -85.18291 105.84222 -85.2654 105.50806 -85.2654 curveto
105.31811 -85.2654 105.07824 -85.232124 104.78845 -85.16557 curveto
closepath
fill
newpath
1.0 setlinewidth
10.0 setmiterlimit
0 setlinejoin
0 setlinecap
[ ] 0 setdash
newpath
108.12076 -83.498314 moveto
109.824524 -83.498314 lineto
stroke
newpath
newpath
104.70942 -113.30064 moveto
104.70942 -112.940834 lineto
104.82866 -112.66214 105.06991 -112.35849 105.43318 -112.029884 curveto
105.668205 -111.819824 lineto
105.97047 -111.54668 106.1216 -111.27561 106.1216 -111.00662 curveto
106.1216 -110.834694 106.06995 -110.69951 105.96665 -110.60107 curveto
105.86336 -110.502625 105.72158 -110.4534 105.541336 -110.4534 curveto
105.32781 -110.4534 105.07616 -110.5359 104.78637 -110.70089 curveto
104.78637 -110.33901 lineto
105.05952 -110.21006 105.33058 -110.145584 105.59957 -110.145584 curveto
105.88797 -110.145584 106.119514 -110.22323 106.29422 -110.378525 curveto
106.468925 -110.53382 106.556274 -110.739716 106.556274 -110.99622 curveto
106.556274 -111.18063 106.51225 -111.34424 106.42421 -111.48705 curveto
106.33617 -111.62987 106.17221 -111.803185 105.932335 -112.007 curveto
105.77427 -112.14219 lineto
105.44566 -112.42088 105.25571 -112.6871 105.20441 -112.940834 curveto
106.54172 -112.940834 lineto
106.54172 -113.30064 lineto
closepath
fill
newpath
1.0 setlinewidth
10.0 setmiterlimit
0 setlinejoin
0 setlinecap
[ ] 0 setdash
newpath
108.12076 -111.844765 moveto
109.824524 -111.844765 lineto
stroke
newpath
newpath
104.99643 -141.83878 moveto
104.99643 -141.53096 lineto
105.612045 -141.53096 lineto
105.612045 -139.10176 lineto
104.99643 -139.25566 lineto
104.99643 -138.93953 lineto
106.02385 -138.68372 lineto
106.02385 -141.53096 lineto
106.639465 -141.53096 lineto
106.639465 -141.83878 lineto
closepath
fill
newpath
1.0 setlinewidth
10.0 setmiterlimit
0 setlinejoin
0 setlinecap
[ ] 0 setdash
newpath
108.12076 -140.19122 moveto
109.824524 -140.19122 lineto
stroke
newpath
newpath
105.69108 -167.47226 moveto
105.373566 -167.47226 105.11671 -167.32286 104.92052 -167.02406 curveto
104.72433 -166.72527 104.62623 -166.3353 104.62623 -165.85417 curveto
104.62623 -165.3689 104.72501 -164.97858 104.92259 -164.68324 curveto
105.12017 -164.38791 105.38049 -164.24025 105.70356 -164.24025 curveto
106.02662 -164.24025 106.28694 -164.38791 106.48452 -164.68324 curveto
106.6821 -164.97858 106.78089 -165.3668 106.78089 -165.84793 curveto
106.78089 -166.34154 106.6821 -166.73567 106.48452 -167.0303 curveto
106.28694 -167.32494 106.02246 -167.47226 105.69108 -167.47226 curveto
closepath
105.69524 -167.16444 moveto
106.12922 -167.16444 106.346214 -166.72353 106.346214 -165.84169 curveto
106.346214 -164.97928 106.131996 -164.54807 105.70356 -164.54807 curveto
105.276505 -164.54807 105.06298 -164.98343 105.06298 -165.85417 curveto
105.06298 -166.72769 105.273735 -167.16444 105.69524 -167.16444 curveto
closepath
fill
newpath
1.0 setlinewidth
10.0 setmiterlimit
0 setlinejoin
0 setlinecap
[ ] 0 setdash
newpath
108.12076 -168.53767 moveto
109.824524 -168.53767 lineto
stroke
newpath
newpath
102.10801 -197.41176 moveto
102.10801 -197.10394 lineto
103.954865 -197.10394 lineto
103.954865 -197.41176 lineto
closepath
104.905334 -198.48909 moveto
104.905334 -198.18127 lineto
105.52095 -198.18127 lineto
105.52095 -195.75208 lineto
104.905334 -195.90598 lineto
104.905334 -195.58986 lineto
105.932755 -195.33403 lineto
105.932755 -198.18127 lineto
106.54837 -198.18127 lineto
106.54837 -198.48909 lineto
closepath
fill
newpath
1.0 setlinewidth
10.0 setmiterlimit
0 setlinejoin
0 setlinecap
[ ] 0 setdash
newpath
108.12076 -196.88414 moveto
109.824524 -196.88414 lineto
stroke
newpath
newpath
102.10801 -225.52394 moveto
102.10801 -225.21613 lineto
103.954865 -225.21613 lineto
103.954865 -225.52394 lineto
closepath
104.618324 -226.60127 moveto
104.618324 -226.24147 lineto
104.737564 -225.96277 104.97881 -225.65912 105.34209 -225.33052 curveto
105.57711 -225.12047 lineto
105.87937 -224.84732 106.0305 -224.57625 106.0305 -224.30727 curveto
106.0305 -224.13533 105.97885 -224.00014 105.87556 -223.9017 curveto
105.77226 -223.80325 105.630486 -223.75403 105.45024 -223.75403 curveto
105.23672 -223.75403 104.98506 -223.83653 104.695274 -224.00153 curveto
104.695274 -223.63965 lineto
104.96842 -223.5107 105.23949 -223.44623 105.50848 -223.44623 curveto
105.796875 -223.44623 106.02842 -223.52388 106.203125 -223.67917 curveto
106.37783 -223.83446 106.46518 -224.04034 106.46518 -224.29686 curveto
106.46518 -224.48126 106.42116 -224.64488 106.333115 -224.78769 curveto
106.24507 -224.9305 106.081116 -225.10382 105.84124 -225.30765 curveto
105.683174 -225.44283 lineto
105.35457 -225.72153 105.16461 -225.98773 105.11331 -226.24147 curveto
106.45062 -226.24147 lineto
106.45062 -226.60127 lineto
closepath
fill
newpath
1.0 setlinewidth
10.0 setmiterlimit
0 setlinejoin
0 setlinecap
[ ] 0 setdash
newpath
108.12076 -225.23059 moveto
109.824524 -225.23059 lineto
stroke
newpath
newpath
109.824524 -0.0 moveto
109.824524 -230.43475 lineto
stroke
newpath
newpath
109.824524 -0.0 moveto
108.5467 -1.2778268 lineto
stroke
newpath
newpath
109.824524 -0.0 moveto
111.10235 -1.2778268 lineto
stroke
newpath
1.0 0.0 0.0 setrgbcolor
4.0 setlinewidth
10.0 setmiterlimit
1 setlinejoin
1 setlinecap
[ ] 0 setdash
newpath
73.74125 -233.83008 moveto
74.00747 -231.19502 lineto
74.27368 -228.58891 lineto
74.539894 -226.0116 lineto
74.80611 -223.463 lineto
75.07232 -220.94289 lineto
75.33854 -218.45119 lineto
75.60475 -215.98773 lineto
75.870964 -213.5524 lineto
76.13718 -211.14502 lineto
76.40339 -208.76547 lineto
76.6696 -206.41362 lineto
76.93582 -204.08931 lineto
77.202034 -201.7924 lineto
77.46825 -199.52277 lineto
77.73446 -197.28023 lineto
78.00067 -195.0647 lineto
78.26689 -192.876 lineto
78.533104 -190.714 lineto
78.79932 -188.57857 lineto
79.33174 -184.38683 lineto
79.864174 -180.2996 lineto
80.3966 -176.31583 lineto
80.92902 -172.43434 lineto
81.46146 -168.654 lineto
81.99388 -164.97374 lineto
82.52631 -161.39236 lineto
83.05874 -157.90878 lineto
83.59116 -154.52185 lineto
84.1236 -151.23047 lineto
84.65602 -148.03346 lineto
85.18845 -144.92976 lineto
85.72088 -141.9182 lineto
86.2533 -138.99768 lineto
86.785736 -136.16704 lineto
87.31816 -133.42517 lineto
87.850586 -130.77095 lineto
88.38302 -128.20325 lineto
88.91544 -125.720924 lineto
89.447876 -123.32286 lineto
89.9803 -121.00795 lineto
90.512726 -118.77504 lineto
91.57758 -114.55073 lineto
92.64244 -110.640915 lineto
93.7073 -107.03661 lineto
94.77215 -103.728775 lineto
95.837006 -100.70839 lineto
96.90186 -97.96646 lineto
97.96672 -95.49394 lineto
100.09643 -91.32113 lineto
102.22614 -88.117836 lineto
104.35585 -85.81191 lineto
105.42071 -84.97292 lineto
106.485565 -84.33124 lineto
107.550415 -83.87783 lineto
108.61527 -83.60368 lineto
109.68013 -83.49979 lineto
110.74499 -83.55711 lineto
111.80984 -83.76667 lineto
112.874695 -84.119415 lineto
115.00441 -85.21843 lineto
117.13412 -86.78205 lineto
119.26383 -88.73815 lineto
121.39354 -91.01458 lineto
123.523254 -93.539215 lineto
125.65296 -96.23993 lineto
127.78268 -99.04459 lineto
129.91238 -101.88108 lineto
132.0421 -104.67725 lineto
134.17181 -107.360985 lineto
136.30151 -109.860146 lineto
138.43123 -112.10261 lineto
140.56094 -114.01623 lineto
142.69066 -115.52891 lineto
144.82036 -116.56848 lineto
145.88522 -116.88833 lineto
146.95007 -117.062836 lineto
148.01494 -117.08302 lineto
149.07979 -116.93984 lineto
150.14464 -116.6243 lineto
151.2095 -116.127365 lineto
152.27435 -115.44003 lineto
153.3392 -114.55328 lineto
155.46892 -112.145454 lineto
157.59863 -108.831764 lineto
158.66348 -106.81267 lineto
159.72835 -104.540054 lineto
160.7932 -102.00492 lineto
161.85805 -99.19823 lineto
162.92291 -96.11098 lineto
163.98776 -92.73414 lineto
165.05263 -89.0587 lineto
166.11748 -85.07565 lineto
166.6499 -82.96596 lineto
167.18233 -80.77598 lineto
167.71477 -78.504585 lineto
168.2472 -76.15066 lineto
168.77962 -73.71306 lineto
169.31204 -71.19067 lineto
169.84447 -68.58236 lineto
170.3769 -65.887 lineto
170.90933 -63.10347 lineto
171.44176 -60.230637 lineto
171.97418 -57.267384 lineto
172.5066 -54.212566 lineto
173.03903 -51.06507 lineto
173.57147 -47.823765 lineto
174.1039 -44.487526 lineto
174.63632 -41.05522 lineto
175.16875 -37.52573 lineto
175.70117 -33.89792 lineto
176.23361 -30.170664 lineto
176.76604 -26.342836 lineto
177.29846 -22.413311 lineto
177.83089 -18.380962 lineto
178.36331 -14.24466 lineto
178.89575 -10.003279 lineto
179.16196 -7.8428316 lineto
179.42818 -5.655692 lineto
179.69438 -3.4417186 lineto
179.9606 -1.2007712 lineto
180.2268 1.0672914 lineto
180.49303 3.3626096 lineto
stroke
newpath
1.0 0.0 0.0 setrgbcolor
2.0 setlinewidth
10.0 setmiterlimit
1 setlinejoin
1 setlinecap
[ ] 0 setdash
newpath
73.74125 -233.83008 moveto
74.00747 -231.19502 lineto
74.27368 -228.58891 lineto
74.539894 -226.0116 lineto
74.80611 -223.463 lineto
75.07232 -220.94289 lineto
75.33854 -218.45119 lineto
75.60475 -215.98773 lineto
75.870964 -213.5524 lineto
76.13718 -211.14502 lineto
76.40339 -208.76547 lineto
76.6696 -206.41362 lineto
76.93582 -204.08931 lineto
77.202034 -201.7924 lineto
77.46825 -199.52277 lineto
77.73446 -197.28023 lineto
78.00067 -195.0647 lineto
78.26689 -192.876 lineto
78.533104 -190.714 lineto
78.79932 -188.57857 lineto
79.33174 -184.38683 lineto
79.864174 -180.2996 lineto
80.3966 -176.31583 lineto
80.92902 -172.43434 lineto
81.46146 -168.654 lineto
81.99388 -164.97374 lineto
82.52631 -161.39236 lineto
83.05874 -157.90878 lineto
83.59116 -154.52185 lineto
84.1236 -151.23047 lineto
84.65602 -148.03346 lineto
85.18845 -144.92976 lineto
85.72088 -141.9182 lineto
86.2533 -138.99768 lineto
86.785736 -136.16704 lineto
87.31816 -133.42517 lineto
87.850586 -130.77095 lineto
88.38302 -128.20325 lineto
88.91544 -125.720924 lineto
89.447876 -123.32286 lineto
89.9803 -121.00795 lineto
90.512726 -118.77504 lineto
91.57758 -114.55073 lineto
92.64244 -110.640915 lineto
93.7073 -107.03661 lineto
94.77215 -103.728775 lineto
95.837006 -100.70839 lineto
96.90186 -97.96646 lineto
97.96672 -95.49394 lineto
100.09643 -91.32113 lineto
102.22614 -88.117836 lineto
104.35585 -85.81191 lineto
105.42071 -84.97292 lineto
106.485565 -84.33124 lineto
107.550415 -83.87783 lineto
108.61527 -83.60368 lineto
109.68013 -83.49979 lineto
110.74499 -83.55711 lineto
111.80984 -83.76667 lineto
112.874695 -84.119415 lineto
115.00441 -85.21843 lineto
117.13412 -86.78205 lineto
119.26383 -88.73815 lineto
121.39354 -91.01458 lineto
123.523254 -93.539215 lineto
125.65296 -96.23993 lineto
127.78268 -99.04459 lineto
129.91238 -101.88108 lineto
132.0421 -104.67725 lineto
134.17181 -107.360985 lineto
136.30151 -109.860146 lineto
138.43123 -112.10261 lineto
140.56094 -114.01623 lineto
142.69066 -115.52891 lineto
144.82036 -116.56848 lineto
145.88522 -116.88833 lineto
146.95007 -117.062836 lineto
148.01494 -117.08302 lineto
149.07979 -116.93984 lineto
150.14464 -116.6243 lineto
151.2095 -116.127365 lineto
152.27435 -115.44003 lineto
153.3392 -114.55328 lineto
155.46892 -112.145454 lineto
157.59863 -108.831764 lineto
158.66348 -106.81267 lineto
159.72835 -104.540054 lineto
160.7932 -102.00492 lineto
161.85805 -99.19823 lineto
162.92291 -96.11098 lineto
163.98776 -92.73414 lineto
165.05263 -89.0587 lineto
166.11748 -85.07565 lineto
166.6499 -82.96596 lineto
167.18233 -80.77598 lineto
167.71477 -78.504585 lineto
168.2472 -76.15066 lineto
168.77962 -73.71306 lineto
169.31204 -71.19067 lineto
169.84447 -68.58236 lineto
170.3769 -65.887 lineto
170.90933 -63.10347 lineto
171.44176 -60.230637 lineto
171.97418 -57.267384 lineto
172.5066 -54.212566 lineto
173.03903 -51.06507 lineto
173.57147 -47.823765 lineto
174.1039 -44.487526 lineto
174.63632 -41.05522 lineto
175.16875 -37.52573 lineto
175.70117 -33.89792 lineto
176.23361 -30.170664 lineto
176.76604 -26.342836 lineto
177.29846 -22.413311 lineto
177.83089 -18.380962 lineto
178.36331 -14.24466 lineto
178.89575 -10.003279 lineto
179.16196 -7.8428316 lineto
179.42818 -5.655692 lineto
179.69438 -3.4417186 lineto
179.9606 -1.2007712 lineto
180.2268 1.0672914 lineto
180.49303 3.3626096 lineto
stroke
newpath
1.0 0.0 0.0 setrgbcolor
newpath
79.45154 -225.96402 moveto
79.45154 -228.30504 lineto
78.95738 -228.30504 lineto
78.95738 -225.96402 lineto
78.57304 -225.96402 lineto
78.57304 -225.59465 lineto
78.95738 -225.59465 lineto
78.95738 -225.2702 lineto
78.95738 -224.62463 79.251884 -224.30185 79.84088 -224.30185 curveto
80.0056 -224.30185 80.19278 -224.3293 80.40242 -224.38422 curveto
80.40242 -224.77354 lineto
80.18113 -224.70532 80.00394 -224.67122 79.87083 -224.67122 curveto
79.709435 -224.67122 79.599205 -224.7099 79.54014 -224.78728 curveto
79.48107 -224.86465 79.45154 -225.00815 79.45154 -225.21779 curveto
79.45154 -225.59465 lineto
80.12789 -225.59465 lineto
80.12789 -225.96402 lineto
closepath
fill
newpath
0.0 0.0 0.0 setrgbcolor
2.0 setlinewidth
10.0 setmiterlimit
1 setlinejoin
1 setlinecap
[ ] 0 setdash
newpath
65.443985 -232.56447 moveto
240.90074 2.1297112 lineto
stroke
newpath
0.0 0.0 0.0 setrgbcolor
newpath
156.74675 -112.145454 moveto
156.74675 -112.85118 156.17465 -113.42329 155.46892 -113.42329 curveto
154.7632 -113.42329 154.1911 -112.85118 154.1911 -112.145454 curveto
154.1911 -111.439735 154.7632 -110.86763 155.46892 -110.86763 curveto
156.17465 -110.86763 156.74675 -111.439735 156.74675 -112.145454 curveto
closepath
fill
newpath
0.0 0.0 0.0 setrgbcolor
1.0 setlinewidth
10.0 setmiterlimit
1 setlinejoin
1 setlinecap
[ ] 0 setdash
newpath
156.74675 -112.145454 moveto
156.74675 -112.85118 156.17465 -113.42329 155.46892 -113.42329 curveto
154.7632 -113.42329 154.1911 -112.85118 154.1911 -112.145454 curveto
154.1911 -111.439735 154.7632 -110.86763 155.46892 -110.86763 curveto
156.17465 -110.86763 156.74675 -111.439735 156.74675 -112.145454 curveto
closepath
stroke
newpath
0.0 0.0 0.0 setrgbcolor
newpath
159.77908 -115.43035 moveto
159.77908 -111.73663 lineto
160.50536 -111.73663 lineto
161.52861 -114.59427 lineto
162.58182 -111.73663 lineto
163.23071 -111.73663 lineto
163.23071 -115.43035 lineto
162.74155 -115.43035 lineto
162.74155 -112.42546 lineto
161.72328 -115.18327 lineto
161.21664 -115.18327 lineto
160.22833 -112.41798 lineto
160.22833 -115.43035 lineto
closepath
fill
newpath
newpath
165.04015 -117.63702 moveto
164.72263 -117.63702 164.46577 -117.48762 164.26958 -117.18882 curveto
164.07338 -116.89002 163.97528 -116.50006 163.97528 -116.01893 curveto
163.97528 -115.533646 164.07407 -115.14333 164.27165 -114.84801 curveto
164.46924 -114.55267 164.72955 -114.40501 165.05263 -114.40501 curveto
165.37569 -114.40501 165.636 -114.55267 165.83359 -114.84801 curveto
166.03117 -115.14333 166.12996 -115.53156 166.12996 -116.012695 curveto
166.12996 -116.506294 166.03117 -116.90041 165.83359 -117.19505 curveto
165.636 -117.48969 165.37152 -117.63702 165.04015 -117.63702 curveto
closepath
165.0443 -117.3292 moveto
165.47829 -117.3292 165.69528 -116.88828 165.69528 -116.006454 curveto
165.69528 -115.144035 165.48106 -114.71282 165.05263 -114.71282 curveto
164.62558 -114.71282 164.41205 -115.14819 164.41205 -116.01893 curveto
164.41205 -116.89244 164.6228 -117.3292 165.0443 -117.3292 curveto
closepath
fill
newpath
grestore
grestore
showpage

%%EOF