%!PS-Adobe-3.0 EPSF-3.0
%%Creator: EpsGraphics 1.0.0 by Thomas Abeel, http://www.sourceforge.net/epsgraphics/
%%Title: GeoGebra, https://www.geogebra.org/
%%CreationDate: Sun Aug 21 22:29:36 CEST 2016
%%BoundingBox: 0 0 368 175
%%DocumentData: Clean7Bit
%%LanguageLevel: 2
%%DocumentProcessColors: Black
%%ColorUsage: Color
%%Origin: 0 0
%%Pages: 1
%%Page: 1 1
%%EndComments

gsave
0.0 175.0 translate
0.0 0.0 0.0 setrgbcolor
0.0 0.0 0.0 setrgbcolor
gsave
newpath
0.0 -0.0 moveto
368.61623202849785 -0.0 lineto
368.61623202849785 -175.03475168648797 lineto
0.0 -175.03475168648797 lineto
0.0 -0.0 lineto
closepath
clip
newpath
1.0 1.0 1.0 setrgbcolor
newpath
0.0 -0.0 moveto
368.61623202849785 -0.0 lineto
368.61623202849785 -175.03475168648797 lineto
0.0 -175.03475168648797 lineto
0.0 -0.0 lineto
closepath
fill
newpath
0.0 0.0 0.0 setrgbcolor
1.0 setlinewidth
10.0 setmiterlimit
0 setlinejoin
0 setlinecap
[ ] 0 setdash
newpath
175.7993139127911 -1.159170540970119 moveto
175.7993139127911 -175.03475168648797 lineto
stroke
newpath
1.0 setlinewidth
10.0 setmiterlimit
0 setlinejoin
0 setlinecap
[ ] 0 setdash
newpath
175.7993139127911 -0.5795852704850595 moveto
173.48097283085087 -2.8979263524252974 lineto
stroke
newpath
1.0 setlinewidth
10.0 setmiterlimit
0 setlinejoin
0 setlinecap
[ ] 0 setdash
newpath
175.7993139127911 -0.5795852704850595 moveto
178.11765499473134 -2.8979263524252974 lineto
stroke
newpath
1.0 setlinewidth
10.0 setmiterlimit
0 setlinejoin
0 setlinecap
[ ] 0 setdash
newpath
0.0 -81.31912378068381 moveto
367.4570614875277 -81.31912378068381 lineto
stroke
newpath
1.0 setlinewidth
10.0 setmiterlimit
0 setlinejoin
0 setlinecap
[ ] 0 setdash
newpath
368.03664675801275 -81.31912378068381 moveto
365.71830567607253 -79.00078269874356 lineto
stroke
newpath
1.0 setlinewidth
10.0 setmiterlimit
0 setlinejoin
0 setlinecap
[ ] 0 setdash
newpath
368.03664675801275 -81.31912378068381 moveto
365.71830567607253 -83.63746486262404 lineto
stroke
newpath
0.0 0.0 0.0 setrgbcolor
1.5 setlinewidth
10.0 setmiterlimit
1 setlinejoin
1 setlinecap
[ ] 0 setdash
newpath
0.0 -137.7828051842765 moveto
2.8798143127226394 -137.75835216192405 lineto
5.759628625445279 -137.7312902276027 lineto
8.639442938167917 -137.70135406823087 lineto
11.519257250890558 -137.66823415188006 lineto
14.399071563613196 -137.6315855715442 lineto
17.278885876335835 -137.59105457644787 lineto
20.158700189058475 -137.54622550942992 lineto
23.038514501781115 -137.49663849448226 lineto
25.918328814503752 -137.4418071242887 lineto
28.798143127226393 -137.38116539760844 lineto
31.677957439949033 -137.31412078189268 lineto
34.55777175267167 -137.2400011506681 lineto
37.43758606539431 -137.1580636273062 lineto
40.31740037811695 -137.0675122725623 lineto
43.19721469083959 -136.96743617818962 lineto
46.07702900356223 -136.85687137332505 lineto
48.95684331628487 -136.73473891810352 lineto
51.836657629007505 -136.59985374742726 lineto
54.71647194173015 -136.45092467096595 lineto
57.596286254452785 -136.28652784184843 lineto
60.47610056717542 -136.1051156004321 lineto
63.355914879898066 -135.90499878676425 lineto
66.23572919262071 -135.68430252173505 lineto
69.11554350534334 -135.4410369572326 lineto
71.99535781806598 -135.17299999467977 lineto
74.87517213078863 -134.87780381634235 lineto
77.75498644351126 -134.552874885329 lineto
80.6348007562339 -134.1954185705137 lineto
83.51461506895654 -133.80245452161336 lineto
86.39442938167917 -133.3707282314939 lineto
89.27424369440182 -132.8968083176335 lineto
92.15405800712446 -132.37700692819826 lineto
95.03387231984709 -131.80740627335007 lineto
97.91368663256974 -131.18388515655502 lineto
100.79350094529238 -130.50208359950585 lineto
103.67331525801501 -129.75748243604622 lineto
106.55312957073765 -128.9453767808628 lineto
109.4329438834603 -128.06093793587073 lineto
112.31275819618293 -127.0992487652914 lineto
115.19257250890557 -126.05536560203802 lineto
118.07238682162821 -124.92438015410129 lineto
120.95220113435084 -123.70150794224335 lineto
123.83201544707349 -122.38217673769162 lineto
126.71182975979613 -120.96214153114079 lineto
129.59164407251876 -119.43760834552423 lineto
132.47145838524142 -117.80534920501603 lineto
135.35127269796405 -116.06286132287993 lineto
138.23108701068668 -114.20849975801012 lineto
141.11090132340934 -112.24162775901083 lineto
143.99071563613197 -110.16275826450641 lineto
146.8705299488546 -107.97368655968226 lineto
149.75034426157725 -105.67757871397859 lineto
152.63015857429988 -103.27911308140062 lineto
155.5099728870225 -100.78444492544105 lineto
158.38978719974517 -98.20128601300452 lineto
161.2696015124678 -95.5388603955607 lineto
164.14941582519043 -92.80776290883412 lineto
167.0292301379131 -90.01991495395716 lineto
169.90904445063572 -87.18829034061918 lineto
172.78885876335835 -84.32675609921752 lineto
175.668673076081 -81.44976294892903 lineto
178.54848738880364 -78.5721065159366 lineto
181.42830170152627 -75.70856473888432 lineto
184.30811601424892 -72.87364139956534 lineto
187.18793032697155 -70.08126543476271 lineto
190.06774463969418 -67.34451677939842 lineto
192.94755895241684 -64.67539642852935 lineto
195.82737326513947 -62.08464956195959 lineto
198.7071875778621 -59.581615200160805 lineto
201.58700189058476 -57.174133344693736 lineto
204.4668162033074 -54.86853171255412 lineto
207.34663051603002 -52.66959478297982 lineto
210.22644482875268 -50.58063012572122 lineto
213.1062591414753 -48.603556838735095 lineto
215.98607345419794 -46.73899398587847 lineto
218.8658877669206 -44.98641094098818 lineto
221.74570207964322 -43.344242356882894 lineto
224.62551639236585 -41.81006061886614 lineto
227.5053307050885 -40.380695235613004 lineto
230.38514501781114 -39.0524008707885 lineto
233.26495933053377 -37.82095904639547 lineto
236.14477364325643 -36.68182848685417 lineto
239.02458795597906 -35.63024240046552 lineto
241.9044022687017 -34.661299128047276 lineto
244.78421658142435 -33.77005500251265 lineto
247.66403089414698 -32.95158846619828 lineto
250.5438452068696 -32.2010575553653 lineto
253.42365951959226 -31.513752962815644 lineto
256.3034738323149 -30.885122358257824 lineto
259.1832881450375 -30.310803552442163 lineto
262.0631024577602 -29.78664660658426 lineto
264.94291677048284 -29.308720465192 lineto
267.82273108320544 -28.87331737795028 lineto
270.7025453959281 -28.47696616537507 lineto
273.58235970865076 -28.116421164101684 lineto
276.46217402137336 -27.78866001594244 lineto
279.341988334096 -27.490874824117252 lineto
282.2218026468187 -27.22047215325367 lineto
285.1016169595413 -26.97504870902102 lineto
287.98143127226393 -26.752397970957485 lineto
290.8612455849866 -26.550488083046613 lineto
293.7410598977092 -26.367450799005603 lineto
296.62087421043185 -26.201579271342943 lineto
299.5006885231545 -26.051305941934952 lineto
302.3805028358771 -25.91520254202578 lineto
305.26031714859977 -25.79196019374629 lineto
308.1401314613224 -25.680393831998753 lineto
311.019945774045 -25.579411251263988 lineto
313.8997600867677 -25.488028582197792 lineto
316.77957439949034 -25.405345971265138 lineto
319.65938871221294 -25.33054758074016 lineto
322.5392030249356 -25.26288832305208 lineto
325.41901733765826 -25.20169607172756 lineto
328.29883165038086 -25.146356184794268 lineto
331.1786459631035 -25.096315926665575 lineto
334.0584602758262 -25.05107341342882 lineto
336.9382745885488 -25.01016876907593 lineto
339.81808890127144 -24.97319075833045 lineto
342.6979032139941 -24.939763520993477 lineto
345.5777175267167 -24.90954878288599 lineto
348.45753183943935 -24.882239223021827 lineto
351.337346152162 -24.857556262665323 lineto
354.2171604648846 -24.835250065331326 lineto
357.0969747776073 -24.815088482073445 lineto
359.97678909032993 -24.796870317138158 lineto
362.85660340305253 -24.780405429483654 lineto
365.7364177157752 -24.765527998433946 lineto
368.61623202849785 -24.75208546896713 lineto
stroke
newpath
0.0 0.0 0.0 setrgbcolor
0.0 0.0 0.0 setrgbcolor
0.0 0.0 0.0 setrgbcolor
0.0 0.0 0.0 setrgbcolor
1.5 setlinewidth
10.0 setmiterlimit
1 setlinejoin
1 setlinecap
[ ] 0 setdash
newpath
11.745657574443912 -145.7838119885798 moveto
11.745657574443912 -145.7838119885798 lineto
11.745657574443912 -148.88097077773432 lineto
11.745657574443912 -149.6839378951491 11.975076750848139 -150.0854214179611 12.433915083144921 -150.0854214179611 curveto
12.433915083144921 -150.0854214179611 12.433915083144921 -150.0854214179611 12.433915083144921 -150.0854214179611 curveto
12.778043847751261 -150.0854214179611 13.007463008771733 -149.91335703565792 13.122172591845928 -149.56922828643533 curveto
13.236882180048042 -149.33980911003113 13.294236969021181 -149.11038994388272 13.294236969021181 -148.88097077773432 curveto
13.294236969021181 -148.19271326903333 lineto
13.466301346196433 -148.19271326903333 lineto
13.466301346196433 -148.88097077773432 lineto
13.466301346196433 -149.45451871874488 13.294236963893264 -149.91335704591376 12.950108214670678 -150.25748579513635 curveto
12.835398626468564 -150.37219538333846 12.663334249293312 -150.4295501723116 12.433915083144921 -150.4295501723116 curveto
11.860367142134354 -150.4295501723116 11.458883609066548 -150.20013099590736 11.229464442918157 -149.74129266361058 curveto
11.114754854716043 -149.51187348720637 11.057400065742904 -149.2250995269569 11.057400065742904 -148.88097077773432 curveto
11.057400065742904 -145.7838119885798 lineto
10.025013802691392 -145.7838119885798 lineto
10.025013802691392 -145.61174761140455 lineto
10.713271331904073 -145.61174761140455 11.172109653945018 -145.21026405269714 11.401528820093409 -144.40729697117777 curveto
11.401528820093409 -144.06316820657145 11.401528820093409 -143.77639425144991 11.401528820093409 -143.5469750853015 curveto
11.745657574443912 -143.5469750853015 lineto
11.745657574443912 -145.43968323422928 lineto
13.294236969021181 -145.43968323422928 lineto
13.294236969021181 -145.7838119885798 lineto
11.745657574443912 -145.7838119885798 lineto
closepath
fill
newpath
1.5 setlinewidth
10.0 setmiterlimit
1 setlinejoin
1 setlinecap
[ ] 0 setdash
newpath
19.12531941650272 -147.50445576033232 moveto
19.12531941650272 -149.56922828643533 lineto
19.12531941650272 -149.79864746283957 19.240029004704834 -149.91335704078585 19.469448170853227 -149.91335704078585 curveto
19.584157759055337 -149.91335704078585 19.75622213623059 -149.91335704078585 19.98564130237898 -149.91335704078585 curveto
19.98564130237898 -150.25748579513635 lineto
19.2973837731663 -150.25748579513635 18.89590024522641 -150.25748579513635 18.781190662152216 -150.25748579513635 curveto
18.781190662152216 -150.25748579513635 18.37970710344482 -150.25748579513635 17.576740021925453 -150.25748579513635 curveto
17.576740021925453 -149.91335704078585 lineto
18.035578374733905 -149.91335704078585 18.26499753062646 -149.8560022466848 18.26499753062646 -149.74129266361058 curveto
18.26499753062646 -149.74129266361058 lineto
18.379707118828573 -149.74129266361058 18.437061907801713 -149.62658307540846 18.437061907801713 -149.3971639092601 curveto
18.437061907801713 -146.8161982516313 lineto
18.437061907801713 -146.12794072241863 18.20764273139749 -145.72645719447874 17.748804399100706 -145.61174761140455 curveto
17.748804399100706 -145.61174761140455 17.691449604999647 -145.61174761140455 17.576740021925453 -145.61174761140455 curveto
17.117901669117 -145.61174761140455 16.77377292502233 -145.84116678780876 16.54435375887394 -146.30000512010554 curveto
16.2002249942676 -146.52942429650977 16.028160627348186 -146.8735530508603 16.028160627348186 -147.33239138315707 curveto
16.028160627348186 -149.3971639092601 lineto
16.028160627348186 -149.6265830856643 16.08551542144924 -149.79864745771164 16.200225004523436 -149.91335704078585 curveto
16.31493459272555 -149.91335704078585 16.54435376400186 -149.91335704078585 16.888482513224446 -149.91335704078585 curveto
16.888482513224446 -150.25748579513635 lineto
16.200224984011765 -150.25748579513635 15.798741456071875 -150.25748579513635 15.68403187299768 -150.25748579513635 curveto
15.68403187299768 -150.25748579513635 15.282548314290283 -150.25748579513635 14.479581232770915 -150.25748579513635 curveto
14.479581232770915 -149.91335704078585 lineto
14.93841958557937 -149.91335704078585 15.167838741471924 -149.8560022466848 15.167838741471924 -149.74129266361058 curveto
15.339903118647175 -149.74129266361058 lineto
15.339903118647175 -149.74129266361058 15.339903118647175 -149.62658307540846 15.339903118647175 -149.3971639092601 curveto
15.339903118647175 -143.71903946247676 lineto
15.339903118647175 -143.37491069787043 15.282548324546118 -143.20284633095102 15.167838741471924 -143.20284633095102 curveto
15.167838741471924 -143.20284633095102 lineto
15.053129153269811 -143.0881367427489 14.938419570195615 -143.03078195377577 14.82370998712142 -143.03078195377577 curveto
14.479581232770915 -143.03078195377577 lineto
14.479581232770915 -142.68665319942525 lineto
16.028160627348186 -142.68665319942525 lineto
16.028160627348186 -146.4720694972808 lineto
16.028160627348186 -146.4720694972808 lineto
16.25757980375241 -146.01323114447234 16.601708558102914 -145.66910240037768 17.060546890399696 -145.43968323422928 curveto
17.28996606680392 -145.43968323422928 17.519385232952313 -145.43968323422928 17.748804399100706 -145.43968323422928 curveto
18.20764275190916 -145.43968323422928 18.551771496003827 -145.5543928224314 18.781190662152216 -145.7838119885798 curveto
19.01060983855644 -146.013231164984 19.12531941650272 -146.35735991933453 19.12531941650272 -146.8161982516313 curveto
19.12531941650272 -146.93090783983342 19.12531941650272 -147.16032701110973 19.12531941650272 -147.50445576033232 curveto
closepath
fill
newpath
0.0 0.0 0.0 setrgbcolor
0.0 0.0 0.0 setrgbcolor
1.5 setlinewidth
10.0 setmiterlimit
1 setlinejoin
1 setlinecap
[ ] 0 setdash
newpath
25.702024448261994 -152.83845145276513 moveto
25.702024448261994 -152.83845145276513 lineto
25.702024448261994 -152.95316104096725 25.702024448261994 -153.01051582994037 25.702024448261994 -153.01051582994037 curveto
25.58731486005988 -153.01051582994037 25.35789568878357 -152.8384514476372 25.013766939560984 -152.49432269841463 curveto
24.55492858675253 -152.03548434560616 24.210799842657863 -151.51929121920833 23.981380676509474 -150.94574330383736 curveto
23.407832735498907 -149.91335701001833 23.121058790633214 -148.76626117414847 23.121058790633214 -147.50445576033232 curveto
23.121058790633214 -146.24265029010908 23.35047796703744 -145.09555446449505 23.80931629933422 -144.06316821682728 curveto
24.268154652142673 -143.26020109941248 24.78434777854051 -142.6292984001963 25.357895693911487 -142.1704600678995 curveto
25.4726052821136 -142.0557504796974 25.5873148651878 -141.99839569072424 25.702024448261994 -141.99839569072424 curveto
25.702024448261994 -141.99839569072424 25.702024448261994 -142.0557504848253 25.702024448261994 -142.1704600678995 curveto
25.702024448261994 -142.1704600678995 25.644669654160936 -142.22781486200057 25.52996007108674 -142.34252444507476 curveto
24.382864189065607 -143.4896203270959 23.80931629933422 -145.21026409884843 23.80931629933422 -147.50445576033232 curveto
23.80931629933422 -149.7986475243746 24.382864240344787 -151.51929124484792 25.52996007108674 -152.66638707558988 curveto
25.644669659288855 -152.781096663792 25.702024448261994 -152.83845145276513 25.702024448261994 -152.83845145276513 curveto
closepath
fill
newpath
1.5 setlinewidth
10.0 setmiterlimit
1 setlinejoin
1 setlinecap
[ ] 0 setdash
newpath
29.984528157539778 -146.98826262880655 moveto
29.64039940318927 -148.36477764620858 lineto
29.52568981498716 -148.93832558721914 29.46833502601402 -149.2824543261859 29.46833502601402 -149.3971639092601 curveto
29.46833502601402 -149.74129267386644 29.583044614216135 -149.9707118348869 29.812463780364524 -150.0854214179611 curveto
29.92717336856664 -150.0854214179611 30.041882951640833 -150.0854214179611 30.156592534715028 -150.0854214179611 curveto
30.50072129932137 -150.0854214179611 30.7874952544429 -149.91335703565792 31.016914420591288 -149.56922828643533 curveto
31.246333596995512 -149.33980911003113 31.41839796904285 -149.05303514978166 31.533107552117045 -148.70890640055907 curveto
31.533107552117045 -148.59419681235696 31.590462346218104 -148.53684202338383 31.705171929292298 -148.53684202338383 curveto
31.81988151749441 -148.53684202338383 31.877236306467548 -148.59419681748489 31.877236306467548 -148.70890640055907 curveto
31.877236306467548 -148.8236159887612 31.762526718265434 -149.0530351600375 31.533107552117045 -149.3971639092601 curveto
31.074269199308592 -150.08542143847276 30.61543086701181 -150.4295501723116 30.156592534715028 -150.4295501723116 curveto
29.58304459370446 -150.4295501723116 29.181561060636653 -150.20013099590736 28.952141894488264 -149.74129266361058 curveto
28.952141894488264 -149.62658307540846 28.952141894488264 -149.56922828643533 28.952141894488264 -149.56922828643533 curveto
28.72272271808404 -149.9133570510417 28.43594875783459 -150.14277621206216 28.091820008612004 -150.25748579513635 curveto
27.97711042040989 -150.37219538333846 27.862400837335695 -150.4295501723116 27.7476912542615 -150.4295501723116 curveto
27.288852901453044 -150.4295501723116 26.944724157358376 -150.25748579000842 26.715304991209987 -149.91335704078585 curveto
26.715304991209987 -149.91335704078585 26.715304991209987 -149.79864745258374 26.715304991209987 -149.56922828643533 curveto
26.715304991209987 -149.33980911003113 26.8300145794121 -149.16774473798378 27.05943374556049 -149.0530351549096 curveto
27.174143333762604 -149.0530351549096 27.231498122735744 -149.0530351549096 27.231498122735744 -149.0530351549096 curveto
27.460917299139968 -149.0530351549096 27.632981671187306 -149.11038994901065 27.7476912542615 -149.22509953208484 curveto
27.7476912542615 -149.33980912028696 27.7476912542615 -149.3971639092601 27.7476912542615 -149.3971639092601 curveto
27.7476912542615 -149.6265830856643 27.632981666059386 -149.79864745771164 27.403562499910997 -149.91335704078585 curveto
27.288852911708883 -149.91335704078585 27.231498122735744 -149.91335704078585 27.231498122735744 -149.91335704078585 curveto
27.346207710937858 -150.02806662898797 27.51827208811311 -150.0854214179611 27.7476912542615 -150.0854214179611 curveto
28.091820018867843 -150.0854214179611 28.37859397398937 -149.85600224155687 28.60801314013776 -149.3971639092601 curveto
28.72272272833987 -149.28245432105797 28.78007751731301 -149.16774473798378 28.78007751731301 -149.0530351549096 curveto
29.124206281919353 -147.56181050828212 29.296270648838767 -146.64413386932813 29.296270648838767 -146.30000512010554 curveto
29.296270648838767 -145.8411667672971 29.124206266535598 -145.61174761140455 28.78007751731301 -145.61174761140455 curveto
28.435948752706672 -145.61174761140455 28.091820003484088 -145.84116678780876 27.7476912542615 -146.30000512010554 curveto
27.7476912542615 -146.30000512010554 lineto
27.7476912542615 -146.30000512010554 27.7476912542615 -146.30000512010554 27.7476912542615 -146.30000512010554 curveto
27.632981666059386 -146.41471470830766 27.51827208298519 -146.58677908548293 27.403562499910997 -146.8161982516313 curveto
27.403562499910997 -146.8161982516313 27.403562499910997 -146.87355304573236 27.403562499910997 -146.98826262880655 curveto
27.231498122735744 -147.1603270059818 lineto
27.231498122735744 -147.1603270059818 27.231498122735744 -147.1603270059818 27.231498122735744 -147.1603270059818 curveto
27.11678853453363 -147.1603270059818 27.05943374556049 -147.1603270059818 27.05943374556049 -147.1603270059818 curveto
27.05943374556049 -146.9309078295776 27.174143333762604 -146.64413386932813 27.403562499910997 -146.30000512010554 curveto
27.747691264517336 -145.72645717909498 28.206529601942034 -145.43968323422928 28.78007751731301 -145.43968323422928 curveto
29.353625458323577 -145.43968323422928 29.755108991391385 -145.72645720473457 29.984528157539778 -146.30000512010554 curveto
30.213947333944002 -145.8411667672971 30.50072129419345 -145.5543928173035 30.844850043416038 -145.43968323422928 curveto
30.95955963161815 -145.43968323422928 31.074269214692343 -145.43968323422928 31.188978797766538 -145.43968323422928 curveto
31.647817150574994 -145.43968323422928 31.934591100568603 -145.5543928224314 32.0493006836428 -145.7838119885798 curveto
32.164010271844916 -145.89852157678192 32.22136506081805 -146.0132311598561 32.22136506081805 -146.1279407429303 curveto
32.22136506081805 -146.47206950753665 32.04930067851488 -146.64413387445606 31.705171929292298 -146.64413387445606 curveto
31.705171929292298 -146.75884346265818 31.64781713519124 -146.8161982516313 31.533107552117045 -146.8161982516313 curveto
31.303688375712817 -146.8161982516313 31.188978797766538 -146.7014886634292 31.188978797766538 -146.4720694972808 curveto
31.188978797766538 -146.4720694972808 31.188978797766538 -146.41471470317975 31.188978797766538 -146.30000512010554 curveto
31.188978797766538 -146.07058594370133 31.303688385968652 -145.898521571654 31.533107552117045 -145.7838119885798 curveto
31.533107552117045 -145.7838119885798 31.590462346218104 -145.7838119885798 31.705171929292298 -145.7838119885798 curveto
31.590462341090184 -145.66910240037768 31.41839796391493 -145.61174761140455 31.188978797766538 -145.61174761140455 curveto
30.615430856755975 -145.61174761140455 30.271302117789222 -146.01323117011194 30.156592534715028 -146.8161982516313 curveto
30.041882946512917 -146.8161982516313 29.984528157539778 -146.87355304573236 29.984528157539778 -146.98826262880655 curveto
closepath
fill
newpath
1.5 setlinewidth
10.0 setmiterlimit
1 setlinejoin
1 setlinecap
[ ] 0 setdash
newpath
35.76206956150873 -147.50445576033232 moveto
35.76206956150873 -147.50445576033232 lineto
35.76206956150873 -148.76626123055556 35.5326503851045 -149.9133570561696 35.073812052807725 -150.94574330383736 curveto
34.729683288201386 -151.74871042125216 34.270844950776684 -152.37961312046835 33.69729703540571 -152.83845145276513 curveto
33.58258744720359 -152.95316104096725 33.4678778641294 -153.01051582994037 33.353168281055204 -153.01051582994037 curveto
33.353168281055204 -153.01051582994037 33.353168281055204 -152.95316103583932 33.353168281055204 -152.83845145276513 curveto
33.353168281055204 -152.83845145276513 33.353168281055204 -152.78109665866407 33.353168281055204 -152.66638707558988 curveto
34.614973751278455 -151.51929119356873 35.24587642998298 -149.7986474218162 35.24587642998298 -147.50445576033232 curveto
35.24587642998298 -145.21026399629005 34.67232848897241 -143.48962027581672 33.52523265823046 -142.34252444507476 curveto
33.52523265823046 -142.34252444507476 lineto
33.41052307002834 -142.22781485687264 33.353168281055204 -142.1704600678995 33.353168281055204 -142.1704600678995 curveto
33.353168281055204 -142.0557504796974 33.353168281055204 -141.99839569072424 33.353168281055204 -141.99839569072424 curveto
33.46787786925732 -141.99839569072424 33.69729704053363 -142.1704600730274 34.04142578975621 -142.51458882225 curveto
34.50026414256467 -142.97342717505848 34.844392886659335 -143.4896203014563 35.073812052807725 -144.06316821682728 curveto
35.532650405616174 -145.0955545106463 35.76206956150873 -146.24265034651617 35.76206956150873 -147.50445576033232 curveto
closepath
fill
newpath
0.0 0.0 0.0 setrgbcolor
0.0 0.0 0.0 setrgbcolor
0.0 0.0 0.0 setrgbcolor
0.0 0.0 0.0 setrgbcolor
1.0 setlinewidth
10.0 setmiterlimit
1 setlinejoin
0 setlinecap
[ 1.0 3.0 ] 0 setdash
newpath
-2.8979263524252974 -138.01203716651057 moveto
371.5141583809231 -138.01203716651057 lineto
stroke
newpath
0.0 0.0 0.0 setrgbcolor
1.0 setlinewidth
10.0 setmiterlimit
1 setlinejoin
0 setlinecap
[ 1.0 3.0 ] 0 setdash
newpath
-2.8979263524252974 -24.626210394857036 moveto
371.5141583809231 -24.626210394857036 lineto
stroke
newpath
0.0 0.0 0.0 setrgbcolor
1.0 setlinewidth
10.0 setmiterlimit
1 setlinejoin
1 setlinecap
[ ] 0 setdash
newpath
175.7993139127911 -81.31912378068381 moveto
224.37803351182703 -81.31912378068381 lineto
stroke
newpath
1.0 setlinewidth
10.0 setmiterlimit
1 setlinejoin
1 setlinecap
[ ] 0 setdash
newpath
232.49222613665708 -81.31912278755811 moveto
224.37803234986626 -83.34767123425581 lineto
224.37803234986626 -79.2905743408604 lineto
closepath
fill
newpath
0.0 0.0 0.0 setrgbcolor
1.0 setlinewidth
10.0 setmiterlimit
1 setlinejoin
1 setlinecap
[ ] 0 setdash
newpath
175.7993139127911 -81.31912378068381 moveto
175.7993139127911 -32.74040418164787 lineto
stroke
newpath
1.0 setlinewidth
10.0 setmiterlimit
1 setlinejoin
1 setlinecap
[ ] 0 setdash
newpath
175.79931323745194 -24.626209888352943 moveto
177.82786168414964 -32.740403675143774 lineto
173.7707647907542 -32.740403675143774 lineto
closepath
fill
newpath
0.0 0.0 0.0 setrgbcolor
0.0 0.0 0.0 setrgbcolor
0.0 0.0 0.0 setrgbcolor
0.0 0.0 0.0 setrgbcolor
1.0 setlinewidth
10.0 setmiterlimit
1 setlinejoin
1 setlinecap
[ ] 0 setdash
newpath
199.46735156449884 -83.63020810945267 moveto
196.0260640209938 -83.63020810945267 lineto
195.79664484458957 -83.63020810945267 195.68193526664328 -83.57285331535161 195.68193526664328 -83.4581437322774 curveto
195.68193526664328 -83.4581437322774 195.68193526664328 -83.4581437322774 195.68193526664328 -83.4581437322774 curveto
195.68193526664328 -83.22872455587319 195.7966448548454 -83.11401497792691 196.0260640209938 -83.11401497792691 curveto
199.6394159416741 -83.11401497792691 lineto
199.52470635347197 -82.9993053897248 199.46735156449884 -82.82724101254955 199.46735156449884 -82.59782184640116 curveto
199.46735156449884 -82.48311225819904 199.5247063585999 -82.36840267512484 199.6394159416741 -82.25369309205065 curveto
199.6394159416741 -82.25369309205065 199.6394159416741 -82.25369309205065 199.6394159416741 -82.25369309205065 curveto
199.7541255298762 -82.25369309205065 199.81148031884933 -82.36840268025277 199.81148031884933 -82.59782184640116 curveto
199.92618990705145 -82.82724102280538 200.0982542842267 -82.99930539485271 200.3276734503751 -83.11401497792691 curveto
200.44238303857722 -83.22872456612902 200.49973782755035 -83.34343414920322 200.49973782755035 -83.4581437322774 curveto
200.49973782755035 -83.4581437322774 200.4423830334493 -83.51549852637847 200.3276734503751 -83.63020810945267 curveto
199.98354468576875 -83.74491769765477 199.69677073064722 -83.97433686893108 199.46735156449884 -84.31846561815367 curveto
199.35264197629672 -84.43317520635578 199.2952871873236 -84.49052999532893 199.2952871873236 -84.49052999532893 curveto
199.18057759912148 -84.49052999532893 199.06586801604726 -84.43317520122787 198.95115843297307 -84.31846561815367 curveto
198.95115843297307 -84.31846561815367 198.95115843297307 -84.31846561815367 198.95115843297307 -84.31846561815367 curveto
198.95115843297307 -84.20375602995156 199.12322281527625 -83.97433685867526 199.46735156449884 -83.63020810945267 curveto
closepath
fill
newpath
0.0 0.0 0.0 setrgbcolor
0.0 0.0 0.0 setrgbcolor
1.0 setlinewidth
10.0 setmiterlimit
1 setlinejoin
1 setlinecap
[ ] 0 setdash
newpath
198.41738499337902 -85.80753031391184 moveto
198.41738499337902 -86.03694949031608 198.3026754051769 -86.2090138623634 198.0732562390285 -86.3237234454376 curveto
197.95854665082638 -86.3237234454376 197.90119186185325 -86.3237234454376 197.90119186185325 -86.3237234454376 curveto
197.67177268544904 -86.3237234454376 197.4997083134017 -86.26636865133653 197.38499873032748 -86.15165906826235 curveto
197.38499873032748 -86.03694948006023 197.38499873032748 -85.97959469108709 197.38499873032748 -85.97959469108709 curveto
197.38499873032748 -85.75017551468287 197.4997083185296 -85.57811114263554 197.729127484678 -85.46340155956133 curveto
197.84383707288012 -85.46340155956133 197.9585466559543 -85.46340155956133 198.0732562390285 -85.46340155956133 curveto
198.30267541543273 -85.46340155956133 198.41738499337902 -85.52075635366239 198.41738499337902 -85.6354659367366 curveto
198.41738499337902 -85.6354659367366 lineto
198.41738499337902 -85.7501755249387 198.41738499337902 -85.80753031391184 198.41738499337902 -85.80753031391184 curveto
closepath
197.55706310750276 -89.9370753661179 moveto
197.21293435315224 -91.14152600634465 lineto
196.98351517674803 -91.71507394735522 196.86880559880174 -92.05920268632197 196.86880559880174 -92.17391226939617 curveto
196.86880559880174 -92.4033314458004 196.9261603929028 -92.51804102374668 197.040869975977 -92.51804102374668 curveto
197.61441791698755 -92.51804102374668 198.01590145005537 -92.11655746503928 198.24532061620374 -91.31359038351991 curveto
198.24532061620374 -91.14152600634465 lineto
198.24532061620374 -91.02681641814254 198.3026754103048 -90.9694616291694 198.41738499337902 -90.9694616291694 curveto
198.41738499337902 -90.9694616291694 lineto
198.41738499337902 -90.9694616291694 lineto
198.53209458158113 -90.9694616291694 198.58944937055426 -91.02681642327046 198.58944937055426 -91.14152600634465 curveto
198.58944937055426 -91.25623559454677 198.47473978235215 -91.48565476582307 198.24532061620374 -91.82978351504566 curveto
198.01590143979953 -92.51804104425834 197.61441789134795 -92.86216977809717 197.040869975977 -92.86216977809717 curveto
196.69674121137064 -92.86216977809717 196.46732205035016 -92.690105395794 196.35261246727597 -92.34597664657142 curveto
196.23790287907386 -92.23126705836931 196.18054809010073 -92.05920268119405 196.18054809010073 -91.82978351504566 curveto
196.18054809010073 -91.71507392684356 196.29525767830285 -91.42829996146618 196.52467684445122 -90.9694616291694 curveto
196.9835151972597 -89.59294657074403 197.21293435315224 -88.90468910306637 197.21293435315224 -88.90468910306637 curveto
197.32764394135435 -88.78997951486427 197.38499873032748 -88.61791513768901 197.38499873032748 -88.38849597154062 curveto
197.38499873032748 -88.15907679513639 197.27028914212536 -88.04436721719011 197.040869975977 -88.04436721719011 curveto
196.69674121137064 -88.04436721719011 196.35261246214804 -88.38849598179645 196.00848371292548 -89.07675348024163 curveto
196.00848371292548 -89.07675348024163 lineto
196.00848371292548 -89.19146306844374 196.00848371292548 -89.30617265151794 196.00848371292548 -89.42088223459213 curveto
195.89377412472336 -89.53559182279425 195.83641933575024 -89.59294661176739 195.83641933575024 -89.59294661176739 curveto
195.72170974754812 -89.59294661176739 195.66435495857496 -89.59294661176739 195.66435495857496 -89.59294661176739 curveto
195.66435495857496 -89.36352743536315 195.72170975267602 -89.13410826921476 195.83641933575024 -88.90468910306637 curveto
196.18054810035656 -88.2164315738537 196.5820316436802 -87.87230284001487 197.040869975977 -87.87230284001487 curveto
197.49970832878546 -87.87230284001487 197.78648227877906 -88.04436722231803 197.90119186185325 -88.38849597154062 curveto
198.01590145005537 -88.50320555974272 198.0732562390285 -88.61791514281693 198.0732562390285 -88.73262472589113 curveto
198.0732562390285 -88.84733431409323 198.01590144492744 -89.01939869126849 197.90119186185325 -89.24881785741688 curveto
197.78648227365113 -89.59294662202322 197.67177269057694 -89.8223657830437 197.55706310750276 -89.9370753661179 curveto
closepath
fill
newpath
0.0 0.0 0.0 setrgbcolor
0.0 0.0 0.0 setrgbcolor
0.0 0.0 0.0 setrgbcolor
0.0 0.0 0.0 setrgbcolor
0.0 0.0 0.0 setrgbcolor
0.0 0.0 0.0 setrgbcolor
1.0 setlinewidth
10.0 setmiterlimit
1 setlinejoin
1 setlinecap
[ ] 0 setdash
newpath
166.22193880968916 -48.85509851317614 moveto
162.78065126618412 -48.85509851317614 lineto
162.5512320897799 -48.85509851317614 162.4365225118336 -48.79774371907508 162.4365225118336 -48.683034136000884 curveto
162.4365225118336 -48.683034136000884 162.4365225118336 -48.683034136000884 162.4365225118336 -48.683034136000884 curveto
162.4365225118336 -48.453614959596656 162.55123210003572 -48.33890538165038 162.78065126618412 -48.33890538165038 curveto
166.3940031868644 -48.33890538165038 lineto
166.2792935986623 -48.22419579344827 166.22193880968916 -48.05213141627301 166.22193880968916 -47.822712250124624 curveto
166.22193880968916 -47.70800266192251 166.27929360379022 -47.59329307884831 166.3940031868644 -47.47858349577412 curveto
166.3940031868644 -47.47858349577412 166.3940031868644 -47.47858349577412 166.3940031868644 -47.47858349577412 curveto
166.50871277506653 -47.47858349577412 166.56606756403966 -47.593293083976235 166.56606756403966 -47.822712250124624 curveto
166.68077715224177 -48.05213142652885 166.85284152941702 -48.22419579857618 167.08226069556542 -48.33890538165038 curveto
167.19697028376754 -48.453614969852495 167.25432507274067 -48.56832455292669 167.25432507274067 -48.683034136000884 curveto
167.25432507274067 -48.683034136000884 167.1969702786396 -48.74038893010194 167.08226069556542 -48.85509851317614 curveto
166.73813193095907 -48.969808101378256 166.45135797583754 -49.19922727265456 166.22193880968916 -49.543356021877145 curveto
166.10722922148705 -49.65806561007926 166.04987443251392 -49.7154203990524 166.04987443251392 -49.7154203990524 curveto
165.9351648443118 -49.7154203990524 165.82045526123758 -49.65806560495134 165.7057456781634 -49.543356021877145 curveto
165.7057456781634 -49.543356021877145 165.7057456781634 -49.543356021877145 165.7057456781634 -49.543356021877145 curveto
165.7057456781634 -49.42864643367503 165.87781006046657 -49.19922726239872 166.22193880968916 -48.85509851317614 curveto
closepath
fill
newpath
0.0 0.0 0.0 setrgbcolor
1.0 setlinewidth
10.0 setmiterlimit
1 setlinejoin
1 setlinecap
[ ] 0 setdash
newpath
166.00590265839082 -51.03241546664724 moveto
166.00590265839082 -51.261834643051465 165.94854786428976 -51.433899015098795 165.83383828121558 -51.54860859817299 curveto
165.71912869301346 -51.54860859817299 165.60441910993927 -51.54860859817299 165.48970952686506 -51.54860859817299 curveto
165.26029035046085 -51.54860859817299 165.14558077251456 -51.49125380407194 165.14558077251456 -51.376544220997744 curveto
165.14558077251456 -51.376544220997744 lineto
165.14558077251456 -51.261834632795626 165.14558077251456 -51.20447984382249 165.14558077251456 -51.20447984382249 curveto
165.14558077251456 -50.97506066741826 165.26029036071668 -50.802996295370924 165.48970952686506 -50.68828671229673 curveto
165.48970952686506 -50.68828671229673 165.54706432096611 -50.68828671229673 165.66177390404033 -50.68828671229673 curveto
165.89119308044454 -50.68828671229673 166.00590265839082 -50.74564150639779 166.00590265839082 -50.86035108947198 curveto
166.00590265839082 -50.9750606776741 166.00590265839082 -51.03241546664724 166.00590265839082 -51.03241546664724 curveto
closepath
163.9411301322878 -58.43118368518307 moveto
163.9411301322878 -58.43118368518307 lineto
164.97351639533932 -54.301638632977024 lineto
164.97351639533932 -54.0722194565728 164.97351639533932 -53.900155084525466 164.97351639533932 -53.78544550145127 curveto
164.97351639533932 -53.441316736844925 164.8588068071372 -53.26925236992551 164.6293876409888 -53.26925236992551 curveto
164.17054928818035 -53.26925236992551 163.76906574998463 -53.61338113453185 163.42493700076204 -54.301638632977024 curveto
163.31022741255993 -54.41634822117914 163.2528726235868 -54.53105780425334 163.2528726235868 -54.64576738732753 curveto
163.13816303538468 -54.76047697552965 163.08080824641155 -54.817831764502785 163.08080824641155 -54.817831764502785 curveto
162.96609865820943 -54.817831764502785 162.90874386923628 -54.817831764502785 162.90874386923628 -54.817831764502785 curveto
162.90874386923628 -54.70312217630067 163.0234534574384 -54.47370300502436 163.2528726235868 -54.12957425580177 curveto
163.59700138819312 -53.44131672658909 164.05583972561783 -53.097187992750264 164.6293876409888 -53.097187992750264 curveto
165.08822599379727 -53.097187992750264 165.37499994379087 -53.26925237505343 165.48970952686506 -53.61338112427602 curveto
165.60441911506717 -53.728090712478135 165.66177390404033 -53.90015508965338 165.66177390404033 -54.12957425580177 curveto
165.66177390404033 -54.24428384400389 165.66177390404033 -54.35899342707808 165.66177390404033 -54.47370301015228 curveto
164.6293876409888 -58.43118368518307 lineto
164.3999684645846 -59.119441214395756 163.998484916133 -59.635634330537755 163.42493700076204 -59.979763079760346 curveto
163.0808082361557 -60.09447266796246 162.79403428103416 -60.15182745693559 162.56461511488578 -60.15182745693559 curveto
162.1057767620773 -60.15182745693559 161.8190028120837 -60.03711786873348 161.70429322900952 -59.80769870258509 curveto
161.5895836408074 -59.692989114382975 161.53222885183428 -59.57827953130878 161.53222885183428 -59.463569948234586 curveto
161.53222885183428 -59.234150771830365 161.6469384400364 -59.06208639978303 161.87635760618477 -58.94737681670883 curveto
161.9910671943869 -58.94737681670883 162.10577677746107 -58.94737681670883 162.2204863605353 -58.94737681670883 curveto
162.4499055369395 -58.94737681670883 162.56461511488578 -59.00473161080989 162.56461511488578 -59.119441193884086 curveto
162.56461511488578 -59.119441193884086 162.56461511488578 -59.17679598798514 162.56461511488578 -59.29150557105933 curveto
162.56461511488578 -59.52092474746356 162.44990552668366 -59.6929891195109 162.2204863605353 -59.80769870258509 curveto
162.2204863605353 -59.80769870258509 162.16313156643423 -59.80769870258509 162.04842198336002 -59.80769870258509 curveto
162.16313157156213 -59.92240829078721 162.3351959487374 -59.979763079760346 162.56461511488578 -59.979763079760346 curveto
162.90874387949214 -59.979763079760346 163.25287262871473 -59.69298910925506 163.5970013779373 -59.119441193884086 curveto
163.7117109661394 -58.89002201747986 163.8264205492136 -58.66060285133146 163.9411301322878 -58.43118368518307 curveto
closepath
fill
newpath
0.0 0.0 0.0 setrgbcolor
