input TEX;

verbatimtex
%&latex
 \documentclass{article}
 \usepackage[latin1]{inputenc}
 \usepackage[frenchb]{babel}
 \usepackage{amsmath}
 \begin{document}
etex


beginfig(1)
  u:=1.5cm;
  pair O,A,B,C,D,E,F,G,H;
  path p[];
  
  A:=(-u,0); B:=(-u,u); C:=(0,3u); D:=(0,0);
  E:=(2u,0); F:=(3u,0); G:=(3u,-2u); H:=(5u,0);

  % La fonction en elle même
  pickup pencircle scaled 1bp;
  draw B--C--E--G--H;
  pickup pencircle scaled 0.8bp;

  % Aires
  p0=A--B--C--D--cycle;
  fill p0 withcolor 0.7white;
  p1=C--D--E--cycle;
  fill p1 withcolor 0.7white;
  p2=E--G--H--cycle;
  fill p2 withcolor 0.7white;

  % Axes
  drawarrow (xpart A-0.5*u,0)--(xpart H+0.5*u,0);
  drawarrow (0,ypart G-0.5*u)--(0,ypart C+0.5*u);

  % Trait de repère
  for i=-1 upto 5:
     draw (i*u, -0.05u)--(i*u,0.05u) ;
  endfor;
  for i=-2 upto 3:
     draw (-0.05u,i*u)--(0.05u,i*u) ;
  endfor;

  % Traits d'accompagnement
  pickup pencircle scaled 0.5bp;
  draw F--G dashed evenly;
  pickup pencircle scaled 0.8bp;

  % Textes
  label.llft (btex $0$ etex, (0,0));
  label.bot (btex $1$ etex, (u,0));
  label.lft (btex $1$ etex, (0,u)); 
  label.urt(btex $\mathcal{C}_f$ etex, (0.5u,2.3u));
endfig;

end
